%!PS-Adobe-3.0 EPSF-3.0
%%Creator: graphviz version 2.49.0 (20210828.1703)
%%Title: Guix bag
%%Pages: 1
%%BoundingBox: 36 36 607 502
%%EndComments
save
%%BeginProlog
/DotDict 200 dict def
DotDict begin

/setupLatin1 {
mark
/EncodingVector 256 array def
 EncodingVector 0

ISOLatin1Encoding 0 255 getinterval putinterval
EncodingVector 45 /hyphen put

% Set up ISO Latin 1 character encoding
/starnetISO {
        dup dup findfont dup length dict begin
        { 1 index /FID ne { def }{ pop pop } ifelse
        } forall
        /Encoding EncodingVector def
        currentdict end definefont
} def
/Times-Roman starnetISO def
/Times-Italic starnetISO def
/Times-Bold starnetISO def
/Times-BoldItalic starnetISO def
/Helvetica starnetISO def
/Helvetica-Oblique starnetISO def
/Helvetica-Bold starnetISO def
/Helvetica-BoldOblique starnetISO def
/Courier starnetISO def
/Courier-Oblique starnetISO def
/Courier-Bold starnetISO def
/Courier-BoldOblique starnetISO def
cleartomark
} bind def

%%BeginResource: procset graphviz 0 0
/coord-font-family /Times-Roman def
/default-font-family /Times-Roman def
/coordfont coord-font-family findfont 8 scalefont def

/InvScaleFactor 1.0 def
/set_scale {
       dup 1 exch div /InvScaleFactor exch def
       scale
} bind def

% styles
/solid { [] 0 setdash } bind def
/dashed { [9 InvScaleFactor mul dup ] 0 setdash } bind def
/dotted { [1 InvScaleFactor mul 6 InvScaleFactor mul] 0 setdash } bind def
/invis {/fill {newpath} def /stroke {newpath} def /show {pop newpath} def} bind def
/bold { 2 setlinewidth } bind def
/filled { } bind def
/unfilled { } bind def
/rounded { } bind def
/diagonals { } bind def
/tapered { } bind def

% hooks for setting color 
/nodecolor { sethsbcolor } bind def
/edgecolor { sethsbcolor } bind def
/graphcolor { sethsbcolor } bind def
/nopcolor {pop pop pop} bind def

/beginpage {	% i j npages
	/npages exch def
	/j exch def
	/i exch def
	/str 10 string def
	npages 1 gt {
		gsave
			coordfont setfont
			0 0 moveto
			(\() show i str cvs show (,) show j str cvs show (\)) show
		grestore
	} if
} bind def

/set_font {
	findfont exch
	scalefont setfont
} def

% draw text fitted to its expected width
/alignedtext {			% width text
	/text exch def
	/width exch def
	gsave
		width 0 gt {
			[] 0 setdash
			text stringwidth pop width exch sub text length div 0 text ashow
		} if
	grestore
} def

/boxprim {				% xcorner ycorner xsize ysize
		4 2 roll
		moveto
		2 copy
		exch 0 rlineto
		0 exch rlineto
		pop neg 0 rlineto
		closepath
} bind def

/ellipse_path {
	/ry exch def
	/rx exch def
	/y exch def
	/x exch def
	matrix currentmatrix
	newpath
	x y translate
	rx ry scale
	0 0 1 0 360 arc
	setmatrix
} bind def

/endpage { showpage } bind def
/showpage { } def

/layercolorseq
	[	% layer color sequence - darkest to lightest
		[0 0 0]
		[.2 .8 .8]
		[.4 .8 .8]
		[.6 .8 .8]
		[.8 .8 .8]
	]
def

/layerlen layercolorseq length def

/setlayer {/maxlayer exch def /curlayer exch def
	layercolorseq curlayer 1 sub layerlen mod get
	aload pop sethsbcolor
	/nodecolor {nopcolor} def
	/edgecolor {nopcolor} def
	/graphcolor {nopcolor} def
} bind def

/onlayer { curlayer ne {invis} if } def

/onlayers {
	/myupper exch def
	/mylower exch def
	curlayer mylower lt
	curlayer myupper gt
	or
	{invis} if
} def

/curlayer 0 def

%%EndResource
%%EndProlog
%%BeginSetup
14 default-font-family set_font
% /arrowlength 10 def
% /arrowwidth 5 def

% make sure pdfmark is harmless for PS-interpreters other than Distiller
/pdfmark where {pop} {userdict /pdfmark /cleartomark load put} ifelse
% make '<<' and '>>' safe on PS Level 1 devices
/languagelevel where {pop languagelevel}{1} ifelse
2 lt {
    userdict (<<) cvn ([) cvn load put
    userdict (>>) cvn ([) cvn load put
} if

%%EndSetup
setupLatin1
%%Page: 1 1
%%PageBoundingBox: 36 36 607 502
%%PageOrientation: Portrait
0 0 1 beginpage
gsave
36 36 571 466 boxprim clip newpath
1 1 set_scale 0 rotate 40 40 translate
% /gnu/store/aymf6jlxxpwgr71rkiz24m646nqsyii6-glibc-intermediate-2.24.drv
gsave
1 setlinewidth
0 0 0 nodecolor
newpath 323.4272 446 moveto
200.4272 446 lineto
200.4272 428 lineto
323.4272 428 lineto
closepath stroke
0 0 0 nodecolor
9 /Helvetica set_font
208.4272 434.8 moveto 107 (glibc-intermediate-2.24) alignedtext
grestore
% /gnu/store/wx8ifbb7x22cl4998fyldsr24fcv18j3-texinfo-6.3.drv
gsave
1 setlinewidth
0 0 0 nodecolor
newpath 248.4272 387 moveto
183.4272 387 lineto
183.4272 369 lineto
248.4272 369 lineto
closepath stroke
0 0 0 nodecolor
9 /Helvetica set_font
191.4272 375.8 moveto 49 (texinfo-6.3) alignedtext
grestore
% /gnu/store/aymf6jlxxpwgr71rkiz24m646nqsyii6-glibc-intermediate-2.24.drv->/gnu/store/wx8ifbb7x22cl4998fyldsr24fcv18j3-texinfo-6.3.drv
gsave
1 setlinewidth
0.83137 1 1 edgecolor
newpath 255.1397 427.5895 moveto
248.267 419.0733 237.4648 405.688 228.9369 395.1208 curveto
stroke
0.83137 1 1 edgecolor
newpath 231.4485 392.6599 moveto
222.4446 387.076 lineto
226.0011 397.0561 lineto
closepath fill
1 setlinewidth
solid
0.83137 1 1 edgecolor
newpath 231.4485 392.6599 moveto
222.4446 387.076 lineto
226.0011 397.0561 lineto
closepath stroke
grestore
% /gnu/store/ccj3as3258l70lmphi48hs7n017wv75s-perl-boot0-5.24.0.drv
gsave
1 setlinewidth
0 0 0 nodecolor
newpath 167.9272 327 moveto
71.9272 327 lineto
71.9272 309 lineto
167.9272 309 lineto
closepath stroke
0 0 0 nodecolor
9 /Helvetica set_font
79.9272 315.8 moveto 80 (perl-boot0-5.24.0) alignedtext
grestore
% /gnu/store/aymf6jlxxpwgr71rkiz24m646nqsyii6-glibc-intermediate-2.24.drv->/gnu/store/ccj3as3258l70lmphi48hs7n017wv75s-perl-boot0-5.24.0.drv
gsave
1 setlinewidth
0.83137 1 1 edgecolor
newpath 200.3725 430.3393 moveto
144.0555 423.7353 66.7222 410.5849 47.9272 387 curveto
30.6737 365.3495 63.6071 344.0331 90.4211 331.1955 curveto
stroke
0.83137 1 1 edgecolor
newpath 91.9165 334.3603 moveto
99.5581 327.0216 lineto
89.0079 327.9932 lineto
closepath fill
1 setlinewidth
solid
0.83137 1 1 edgecolor
newpath 91.9165 334.3603 moveto
99.5581 327.0216 lineto
89.0079 327.9932 lineto
closepath stroke
grestore
% /gnu/store/w9adgzgdqkwz0w13zxf2fn363v9wcllc-gcc-cross-boot0-4.9.4.drv
gsave
1 setlinewidth
0 0 0 nodecolor
newpath 365.9272 387 moveto
249.9272 387 lineto
249.9272 369 lineto
365.9272 369 lineto
closepath stroke
0 0 0 nodecolor
9 /Helvetica set_font
257.9272 375.8 moveto 100 (gcc-cross-boot0-4.9.4) alignedtext
grestore
% /gnu/store/aymf6jlxxpwgr71rkiz24m646nqsyii6-glibc-intermediate-2.24.drv->/gnu/store/w9adgzgdqkwz0w13zxf2fn363v9wcllc-gcc-cross-boot0-4.9.4.drv
gsave
1 setlinewidth
0.83137 1 1 edgecolor
newpath 268.7146 427.5895 moveto
275.5873 419.0733 286.3895 405.688 294.9174 395.1208 curveto
stroke
0.83137 1 1 edgecolor
newpath 297.8532 397.0561 moveto
301.4097 387.076 lineto
292.4058 392.6599 lineto
closepath fill
1 setlinewidth
solid
0.83137 1 1 edgecolor
newpath 297.8532 397.0561 moveto
301.4097 387.076 lineto
292.4058 392.6599 lineto
closepath stroke
grestore
% /gnu/store/72snmrnjphwjxffknjhzm3xg38wd08al-ld-wrapper-x86_64-guix-linux-gnu-0.drv
gsave
1 setlinewidth
0 0 0 nodecolor
newpath 552.4272 387 moveto
373.4272 387 lineto
373.4272 369 lineto
552.4272 369 lineto
closepath stroke
0 0 0 nodecolor
9 /Helvetica set_font
381.4272 375.8 moveto 163 (ld-wrapper-x86_64-guix-linux-gnu-0) alignedtext
grestore
% /gnu/store/aymf6jlxxpwgr71rkiz24m646nqsyii6-glibc-intermediate-2.24.drv->/gnu/store/72snmrnjphwjxffknjhzm3xg38wd08al-ld-wrapper-x86_64-guix-linux-gnu-0.drv
gsave
1 setlinewidth
0.83137 1 1 edgecolor
newpath 290.2992 427.9542 moveto
325.5395 417.9607 385.7874 400.8755 424.9749 389.7626 curveto
stroke
0.83137 1 1 edgecolor
newpath 426.0337 393.1004 moveto
434.6994 387.0049 lineto
424.1239 386.366 lineto
closepath fill
1 setlinewidth
solid
0.83137 1 1 edgecolor
newpath 426.0337 393.1004 moveto
434.6994 387.0049 lineto
424.1239 386.366 lineto
closepath stroke
grestore
% /gnu/store/v1v7jp438hc5rpgriwpjp04x049vh0g4-binutils-cross-boot0-2.27.drv
gsave
1 setlinewidth
0 0 0 nodecolor
newpath 372.4272 327 moveto
243.4272 327 lineto
243.4272 309 lineto
372.4272 309 lineto
closepath stroke
0 0 0 nodecolor
9 /Helvetica set_font
251.4272 315.8 moveto 113 (binutils-cross-boot0-2.27) alignedtext
grestore
% /gnu/store/aymf6jlxxpwgr71rkiz24m646nqsyii6-glibc-intermediate-2.24.drv->/gnu/store/v1v7jp438hc5rpgriwpjp04x049vh0g4-binutils-cross-boot0-2.27.drv
gsave
1 setlinewidth
0.83137 1 1 edgecolor
newpath 300.4493 427.994 moveto
322.8457 421.1488 349.2717 408.8026 362.9272 387 curveto
375.6346 366.711 351.8266 345.6198 331.662 332.4105 curveto
stroke
0.83137 1 1 edgecolor
newpath 333.4234 329.3845 moveto
323.0795 327.0923 lineto
329.7362 335.3348 lineto
closepath fill
1 setlinewidth
solid
0.83137 1 1 edgecolor
newpath 333.4234 329.3845 moveto
323.0795 327.0923 lineto
329.7362 335.3348 lineto
closepath stroke
grestore
% /gnu/store/1jpld53g41rzv2bmjp6v9mckmyw75vs3-make-boot0-4.2.1.drv
gsave
1 setlinewidth
0 0 0 nodecolor
newpath 199.9272 149 moveto
101.9272 149 lineto
101.9272 131 lineto
199.9272 131 lineto
closepath stroke
0 0 0 nodecolor
9 /Helvetica set_font
109.9272 137.8 moveto 82 (make-boot0-4.2.1) alignedtext
grestore
% /gnu/store/aymf6jlxxpwgr71rkiz24m646nqsyii6-glibc-intermediate-2.24.drv->/gnu/store/1jpld53g41rzv2bmjp6v9mckmyw75vs3-make-boot0-4.2.1.drv
gsave
1 setlinewidth
0.83137 1 1 edgecolor
newpath 200.4095 430.4277 moveto
142.7089 423.8242 62.3282 410.6144 41.9272 387 curveto
22.1162 364.0686 36.9272 349.3038 36.9272 319 curveto
36.9272 319 36.9272 319 36.9272 258 curveto
36.9272 226.4977 36.9195 214.3328 56.9272 190 curveto
71.4259 172.367 93.9436 160.3176 113.3052 152.5807 curveto
stroke
0.83137 1 1 edgecolor
newpath 114.6599 155.8107 moveto
122.7944 149.0224 lineto
112.2021 149.2564 lineto
closepath fill
1 setlinewidth
solid
0.83137 1 1 edgecolor
newpath 114.6599 155.8107 moveto
122.7944 149.0224 lineto
112.2021 149.2564 lineto
closepath stroke
grestore
% /gnu/store/zpphawi07xidhfs2dja3w7hmnfp99j02-diffutils-boot0-3.5.drv
gsave
1 setlinewidth
0 0 0 nodecolor
newpath 315.4272 208 moveto
218.4272 208 lineto
218.4272 190 lineto
315.4272 190 lineto
closepath stroke
0 0 0 nodecolor
9 /Helvetica set_font
226.4272 196.8 moveto 81 (diffutils-boot0-3.5) alignedtext
grestore
% /gnu/store/aymf6jlxxpwgr71rkiz24m646nqsyii6-glibc-intermediate-2.24.drv->/gnu/store/zpphawi07xidhfs2dja3w7hmnfp99j02-diffutils-boot0-3.5.drv
gsave
1 setlinewidth
0.83137 1 1 edgecolor
newpath 298.6562 427.9887 moveto
321.4025 421.0514 349.185 408.6066 364.9272 387 curveto
380.7692 365.2564 371.1455 353.8436 372.9272 327 curveto
373.457 319.0176 375.937 316.4122 372.9272 309 curveto
355.8706 266.9953 313.9894 232.291 288.2704 213.9979 curveto
stroke
0.83137 1 1 edgecolor
newpath 290.1318 211.0299 moveto
279.9145 208.2268 lineto
286.1537 216.7897 lineto
closepath fill
1 setlinewidth
solid
0.83137 1 1 edgecolor
newpath 290.1318 211.0299 moveto
279.9145 208.2268 lineto
286.1537 216.7897 lineto
closepath stroke
grestore
% /gnu/store/m4900ip34w4rcgn5620iqdi1wv198d9s-findutils-boot0-4.6.0.drv
gsave
1 setlinewidth
0 0 0 nodecolor
newpath 272.4272 268 moveto
163.4272 268 lineto
163.4272 250 lineto
272.4272 250 lineto
closepath stroke
0 0 0 nodecolor
9 /Helvetica set_font
171.4272 256.8 moveto 93 (findutils-boot0-4.6.0) alignedtext
grestore
% /gnu/store/aymf6jlxxpwgr71rkiz24m646nqsyii6-glibc-intermediate-2.24.drv->/gnu/store/m4900ip34w4rcgn5620iqdi1wv198d9s-findutils-boot0-4.6.0.drv
gsave
1 setlinewidth
0.83137 1 1 edgecolor
newpath 238.333 427.9354 moveto
220.392 420.4118 196.9722 407.2629 185.9272 387 curveto
166.1454 350.7092 190.5907 301.9233 206.4285 276.6848 curveto
stroke
0.83137 1 1 edgecolor
newpath 209.4095 278.5215 moveto
211.9669 268.2399 lineto
203.556 274.6826 lineto
closepath fill
1 setlinewidth
solid
0.83137 1 1 edgecolor
newpath 209.4095 278.5215 moveto
211.9669 268.2399 lineto
203.556 274.6826 lineto
closepath stroke
grestore
% /gnu/store/nwzyr3xskw0ms8cndffsfvhvm5xz96pc-file-boot0-5.28.drv
gsave
1 setlinewidth
0 0 0 nodecolor
newpath 140.4272 208 moveto
57.4272 208 lineto
57.4272 190 lineto
140.4272 190 lineto
closepath stroke
0 0 0 nodecolor
9 /Helvetica set_font
65.4272 196.8 moveto 67 (file-boot0-5.28) alignedtext
grestore
% /gnu/store/aymf6jlxxpwgr71rkiz24m646nqsyii6-glibc-intermediate-2.24.drv->/gnu/store/nwzyr3xskw0ms8cndffsfvhvm5xz96pc-file-boot0-5.28.drv
gsave
1 setlinewidth
0.83137 1 1 edgecolor
newpath 200.33 430.5564 moveto
143.1652 424.0772 64.099 410.9836 44.9272 387 curveto
40.9158 381.9818 34.4736 303.1698 56.9272 250 curveto
62.5214 236.7529 72.8831 224.3581 81.9144 215.2231 curveto
stroke
0.83137 1 1 edgecolor
newpath 84.5552 217.5402 moveto
89.3554 208.0951 lineto
79.7129 212.4853 lineto
closepath fill
1 setlinewidth
solid
0.83137 1 1 edgecolor
newpath 84.5552 217.5402 moveto
89.3554 208.0951 lineto
79.7129 212.4853 lineto
closepath stroke
grestore
% /gnu/store/wda0p45jlbzg6w9j8zxw2sd11n2a4pbv-glibc-bootstrap-0.drv
gsave
1 setlinewidth
0 0 0 nodecolor
newpath 210.9272 30 moveto
116.9272 30 lineto
116.9272 12 lineto
210.9272 12 lineto
closepath stroke
0 0 0 nodecolor
9 /Helvetica set_font
124.9272 18.8 moveto 78 (glibc-bootstrap-0) alignedtext
grestore
% /gnu/store/aymf6jlxxpwgr71rkiz24m646nqsyii6-glibc-intermediate-2.24.drv->/gnu/store/wda0p45jlbzg6w9j8zxw2sd11n2a4pbv-glibc-bootstrap-0.drv
gsave
1 setlinewidth
0.83137 1 1 edgecolor
newpath 323.5053 434.1515 moveto
399.3525 430.4797 521.8731 419.5396 551.9272 387 curveto
572.5124 364.7123 557.9272 349.3396 557.9272 319 curveto
557.9272 319 557.9272 319 557.9272 139 curveto
557.9272 69.6156 330.5479 38.129 221.2577 27.0023 curveto
stroke
0.83137 1 1 edgecolor
newpath 221.3587 23.4952 moveto
211.0614 25.9885 lineto
220.666 30.4609 lineto
closepath fill
1 setlinewidth
solid
0.83137 1 1 edgecolor
newpath 221.3587 23.4952 moveto
211.0614 25.9885 lineto
220.666 30.4609 lineto
closepath stroke
grestore
% /gnu/store/jxlg2pb4bhxjld9kimc0vgc1pvgifzag-gcc-bootstrap-0.drv
gsave
1 setlinewidth
0 0 0 nodecolor
newpath 132.4272 89 moveto
43.4272 89 lineto
43.4272 71 lineto
132.4272 71 lineto
closepath stroke
0 0 0 nodecolor
9 /Helvetica set_font
51.4272 77.8 moveto 73 (gcc-bootstrap-0) alignedtext
grestore
% /gnu/store/aymf6jlxxpwgr71rkiz24m646nqsyii6-glibc-intermediate-2.24.drv->/gnu/store/jxlg2pb4bhxjld9kimc0vgc1pvgifzag-gcc-bootstrap-0.drv
gsave
1 setlinewidth
0.83137 1 1 edgecolor
newpath 200.403 430.6374 moveto
141.8666 424.1567 59.7248 411.0041 38.9272 387 curveto
19.0835 364.0969 33.9272 349.3038 33.9272 319 curveto
33.9272 319 33.9272 319 33.9272 258 curveto
33.9272 201.3041 24.0351 183.2987 45.9272 131 curveto
51.4797 117.7354 61.841 105.3404 70.8826 96.2097 curveto
stroke
0.83137 1 1 edgecolor
newpath 73.5243 98.5263 moveto
78.3345 89.0863 lineto
68.6873 93.4663 lineto
closepath fill
1 setlinewidth
solid
0.83137 1 1 edgecolor
newpath 73.5243 98.5263 moveto
78.3345 89.0863 lineto
68.6873 93.4663 lineto
closepath stroke
grestore
% /gnu/store/aymf6jlxxpwgr71rkiz24m646nqsyii6-glibc-intermediate-2.24.drv->/gnu/store/jxlg2pb4bhxjld9kimc0vgc1pvgifzag-gcc-bootstrap-0.drv
gsave
1 setlinewidth
0.83137 1 1 edgecolor
newpath 200.3377 430.546 moveto
142.099 424.0333 60.6275 410.8918 39.9272 387 curveto
20.0835 364.0969 34.9272 349.3038 34.9272 319 curveto
34.9272 319 34.9272 319 34.9272 258 curveto
34.9272 201.3041 25.0351 183.2987 46.9272 131 curveto
52.4797 117.7354 62.841 105.3404 71.761 96.2097 curveto
stroke
0.83137 1 1 edgecolor
newpath 74.3519 98.5719 moveto
79.0716 89.0863 lineto
69.4668 93.5584 lineto
closepath fill
1 setlinewidth
solid
0.83137 1 1 edgecolor
newpath 74.3519 98.5719 moveto
79.0716 89.0863 lineto
69.4668 93.5584 lineto
closepath stroke
grestore
% /gnu/store/pmvh852v0x1zbl4r37pcpdqnq6m3bwfk-bootstrap-binaries-0.drv
gsave
1 setlinewidth
0 0 0 nodecolor
newpath 382.4272 89 moveto
275.4272 89 lineto
275.4272 71 lineto
382.4272 71 lineto
closepath stroke
0 0 0 nodecolor
9 /Helvetica set_font
283.4272 77.8 moveto 91 (bootstrap-binaries-0) alignedtext
grestore
% /gnu/store/aymf6jlxxpwgr71rkiz24m646nqsyii6-glibc-intermediate-2.24.drv->/gnu/store/pmvh852v0x1zbl4r37pcpdqnq6m3bwfk-bootstrap-binaries-0.drv
gsave
1 setlinewidth
0.83137 1 1 edgecolor
newpath 323.502 434.4591 moveto
399.0519 431.1147 520.6263 420.5227 548.9272 387 curveto
573.3172 358.1098 445.9821 182.9656 394.9272 131 curveto
381.3733 117.2043 363.777 104.2238 350.1597 94.9474 curveto
stroke
0.83137 1 1 edgecolor
newpath 351.7287 91.787 moveto
341.4666 89.1526 lineto
347.846 97.6115 lineto
closepath fill
1 setlinewidth
solid
0.83137 1 1 edgecolor
newpath 351.7287 91.787 moveto
341.4666 89.1526 lineto
347.846 97.6115 lineto
closepath stroke
grestore
% /gnu/store/aymf6jlxxpwgr71rkiz24m646nqsyii6-glibc-intermediate-2.24.drv->/gnu/store/pmvh852v0x1zbl4r37pcpdqnq6m3bwfk-bootstrap-binaries-0.drv
gsave
1 setlinewidth
0.83137 1 1 edgecolor
newpath 323.5368 434.4879 moveto
399.3484 431.1757 521.5445 420.6196 549.9272 387 curveto
574.3172 358.1098 446.9821 182.9656 395.9272 131 curveto
382.2429 117.0717 364.4382 103.9742 350.6228 94.6808 curveto
stroke
0.83137 1 1 edgecolor
newpath 352.4838 91.7157 moveto
342.2036 89.1526 lineto
348.6416 97.567 lineto
closepath fill
1 setlinewidth
solid
0.83137 1 1 edgecolor
newpath 352.4838 91.7157 moveto
342.2036 89.1526 lineto
348.6416 97.567 lineto
closepath stroke
grestore
% /gnu/store/aymf6jlxxpwgr71rkiz24m646nqsyii6-glibc-intermediate-2.24.drv->/gnu/store/pmvh852v0x1zbl4r37pcpdqnq6m3bwfk-bootstrap-binaries-0.drv
gsave
1 setlinewidth
0.83137 1 1 edgecolor
newpath 323.5686 434.5164 moveto
399.6433 431.2364 522.4627 420.7164 550.9272 387 curveto
575.3172 358.1098 447.9821 182.9656 396.9272 131 curveto
383.2429 117.0717 365.4382 103.9742 351.4777 94.6808 curveto
stroke
0.83137 1 1 edgecolor
newpath 353.237 91.6503 moveto
342.9407 89.1526 lineto
349.4321 97.526 lineto
closepath fill
1 setlinewidth
solid
0.83137 1 1 edgecolor
newpath 353.237 91.6503 moveto
342.9407 89.1526 lineto
349.4321 97.526 lineto
closepath stroke
grestore
% /gnu/store/5syba2bxhh8z79jhq83fzy8fxcx5xb4s-linux-libre-headers-4.4.18.drv
gsave
1 setlinewidth
0 0 0 nodecolor
newpath 178.4272 387 moveto
45.4272 387 lineto
45.4272 369 lineto
178.4272 369 lineto
closepath stroke
0 0 0 nodecolor
9 /Helvetica set_font
53.4272 375.8 moveto 117 (linux-libre-headers-4.4.18) alignedtext
grestore
% /gnu/store/aymf6jlxxpwgr71rkiz24m646nqsyii6-glibc-intermediate-2.24.drv->/gnu/store/5syba2bxhh8z79jhq83fzy8fxcx5xb4s-linux-libre-headers-4.4.18.drv
gsave
1 setlinewidth
0.83137 1 1 edgecolor
newpath 240.754 427.9542 moveto
215.1811 418.2365 171.9619 401.8132 142.7065 390.6961 curveto
stroke
0.83137 1 1 edgecolor
newpath 143.5838 387.2854 moveto
132.9927 387.0049 lineto
141.0972 393.8289 lineto
closepath fill
1 setlinewidth
solid
0.83137 1 1 edgecolor
newpath 143.5838 387.2854 moveto
132.9927 387.0049 lineto
141.0972 393.8289 lineto
closepath stroke
grestore
% /gnu/store/wx8ifbb7x22cl4998fyldsr24fcv18j3-texinfo-6.3.drv->/gnu/store/ccj3as3258l70lmphi48hs7n017wv75s-perl-boot0-5.24.0.drv
gsave
1 setlinewidth
0.49804 1 0.80392 edgecolor
newpath 202.5788 368.9353 moveto
186.9767 359.5091 160.916 343.7641 142.2269 332.4728 curveto
stroke
0.49804 1 0.80392 edgecolor
newpath 143.8408 329.3586 moveto
133.4717 327.1831 lineto
140.2209 335.35 lineto
closepath fill
1 setlinewidth
solid
0.49804 1 0.80392 edgecolor
newpath 143.8408 329.3586 moveto
133.4717 327.1831 lineto
140.2209 335.35 lineto
closepath stroke
grestore
% /gnu/store/wx8ifbb7x22cl4998fyldsr24fcv18j3-texinfo-6.3.drv->/gnu/store/1jpld53g41rzv2bmjp6v9mckmyw75vs3-make-boot0-4.2.1.drv
gsave
1 setlinewidth
0.49804 1 0.80392 edgecolor
newpath 209.7566 368.8385 moveto
202.6601 359.2022 190.9578 342.5185 182.9272 327 curveto
169.9922 302.0043 166.1028 295.4583 159.9272 268 curveto
151.3855 230.0217 150.3367 184.194 150.514 159.2896 curveto
stroke
0.49804 1 0.80392 edgecolor
newpath 154.0157 159.197 moveto
150.6656 149.1458 lineto
147.0165 159.0923 lineto
closepath fill
1 setlinewidth
solid
0.49804 1 0.80392 edgecolor
newpath 154.0157 159.197 moveto
150.6656 149.1458 lineto
147.0165 159.0923 lineto
closepath stroke
grestore
% /gnu/store/wx8ifbb7x22cl4998fyldsr24fcv18j3-texinfo-6.3.drv->/gnu/store/zpphawi07xidhfs2dja3w7hmnfp99j02-diffutils-boot0-3.5.drv
gsave
1 setlinewidth
0.49804 1 0.80392 edgecolor
newpath 217.0911 368.9265 moveto
219.2884 355.6212 224.9446 328.6105 236.9272 309 curveto
250.5285 286.7402 268.7994 292.04 278.9272 268 curveto
285.7514 251.8015 280.8219 231.8513 275.3639 217.7609 curveto
stroke
0.49804 1 0.80392 edgecolor
newpath 278.4507 216.0804 moveto
271.2731 208.2873 lineto
272.0243 218.8554 lineto
closepath fill
1 setlinewidth
solid
0.49804 1 0.80392 edgecolor
newpath 278.4507 216.0804 moveto
271.2731 208.2873 lineto
272.0243 218.8554 lineto
closepath stroke
grestore
% /gnu/store/wx8ifbb7x22cl4998fyldsr24fcv18j3-texinfo-6.3.drv->/gnu/store/m4900ip34w4rcgn5620iqdi1wv198d9s-findutils-boot0-4.6.0.drv
gsave
1 setlinewidth
0.49804 1 0.80392 edgecolor
newpath 216.0646 368.9581 moveto
216.3815 350.4228 217.1698 304.3084 217.6125 278.4056 curveto
stroke
0.49804 1 0.80392 edgecolor
newpath 221.1172 278.1566 moveto
217.7887 268.0982 lineto
214.1182 278.0368 lineto
closepath fill
1 setlinewidth
solid
0.49804 1 0.80392 edgecolor
newpath 221.1172 278.1566 moveto
217.7887 268.0982 lineto
214.1182 278.0368 lineto
closepath stroke
grestore
% /gnu/store/wx8ifbb7x22cl4998fyldsr24fcv18j3-texinfo-6.3.drv->/gnu/store/nwzyr3xskw0ms8cndffsfvhvm5xz96pc-file-boot0-5.28.drv
gsave
1 setlinewidth
0.49804 1 0.80392 edgecolor
newpath 186.2788 368.9085 moveto
145.4079 357.4601 75.9703 336.835 68.9272 327 curveto
49.002 299.1765 59.7921 282.9805 68.9272 250 curveto
72.2914 237.854 79.4789 225.6961 85.9752 216.4106 curveto
stroke
0.49804 1 0.80392 edgecolor
newpath 88.9269 218.3061 moveto
92.0739 208.1894 lineto
83.3049 214.1356 lineto
closepath fill
1 setlinewidth
solid
0.49804 1 0.80392 edgecolor
newpath 88.9269 218.3061 moveto
92.0739 208.1894 lineto
83.3049 214.1356 lineto
closepath stroke
grestore
% /gnu/store/wx8ifbb7x22cl4998fyldsr24fcv18j3-texinfo-6.3.drv->/gnu/store/wda0p45jlbzg6w9j8zxw2sd11n2a4pbv-glibc-bootstrap-0.drv
gsave
1 setlinewidth
0.49804 1 0.80392 edgecolor
newpath 248.4798 369.0449 moveto
293.3723 357.7644 369.7136 337.3442 377.9272 327 curveto
413.1146 282.685 386.9272 256.586 386.9272 200 curveto
386.9272 200 386.9272 200 386.9272 139 curveto
386.9272 108.6962 401.7158 93.9506 381.9272 71 curveto
361.3165 47.096 278.8223 33.7825 221.4466 27.2543 curveto
stroke
0.49804 1 0.80392 edgecolor
newpath 221.7247 23.7639 moveto
211.4023 26.151 lineto
220.9603 30.7221 lineto
closepath fill
1 setlinewidth
solid
0.49804 1 0.80392 edgecolor
newpath 221.7247 23.7639 moveto
211.4023 26.151 lineto
220.9603 30.7221 lineto
closepath stroke
grestore
% /gnu/store/wx8ifbb7x22cl4998fyldsr24fcv18j3-texinfo-6.3.drv->/gnu/store/jxlg2pb4bhxjld9kimc0vgc1pvgifzag-gcc-bootstrap-0.drv
gsave
1 setlinewidth
0.49804 1 0.80392 edgecolor
newpath 185.5657 368.9855 moveto
143.2522 357.5337 70.8162 336.7928 62.9272 327 curveto
35.5739 293.0459 41.1009 172.6722 53.9272 131 curveto
57.8118 118.3789 66.0886 106.0883 73.5029 96.8509 curveto
stroke
0.49804 1 0.80392 edgecolor
newpath 76.3546 98.9007 moveto
80.1758 89.0189 lineto
71.0263 94.361 lineto
closepath fill
1 setlinewidth
solid
0.49804 1 0.80392 edgecolor
newpath 76.3546 98.9007 moveto
80.1758 89.0189 lineto
71.0263 94.361 lineto
closepath stroke
grestore
% /gnu/store/wx8ifbb7x22cl4998fyldsr24fcv18j3-texinfo-6.3.drv->/gnu/store/pmvh852v0x1zbl4r37pcpdqnq6m3bwfk-bootstrap-binaries-0.drv
gsave
1 setlinewidth
0.49804 1 0.80392 edgecolor
newpath 247.4762 368.9725 moveto
290.9843 357.6028 364.9709 337.0739 372.9272 327 curveto
391.4347 303.5666 377.9272 289.8606 377.9272 260 curveto
377.9272 260 377.9272 260 377.9272 198 curveto
377.9272 159.6337 355.2334 119.3001 340.734 97.4457 curveto
stroke
0.49804 1 0.80392 edgecolor
newpath 343.4893 95.2755 moveto
334.9355 89.0238 lineto
337.7237 99.2452 lineto
closepath fill
1 setlinewidth
solid
0.49804 1 0.80392 edgecolor
newpath 343.4893 95.2755 moveto
334.9355 89.0238 lineto
337.7237 99.2452 lineto
closepath stroke
grestore
% /gnu/store/wx8ifbb7x22cl4998fyldsr24fcv18j3-texinfo-6.3.drv->/gnu/store/pmvh852v0x1zbl4r37pcpdqnq6m3bwfk-bootstrap-binaries-0.drv
gsave
1 setlinewidth
0.49804 1 0.80392 edgecolor
newpath 248.1314 368.9725 moveto
291.9843 357.6028 365.9709 337.0739 373.9272 327 curveto
392.4347 303.5666 378.9272 289.8606 378.9272 260 curveto
378.9272 260 378.9272 260 378.9272 198 curveto
378.9272 159.6337 356.2334 119.3001 341.4189 97.4457 curveto
stroke
0.49804 1 0.80392 edgecolor
newpath 344.0924 95.1646 moveto
335.4587 89.0238 lineto
338.3785 99.2084 lineto
closepath fill
1 setlinewidth
solid
0.49804 1 0.80392 edgecolor
newpath 344.0924 95.1646 moveto
335.4587 89.0238 lineto
338.3785 99.2084 lineto
closepath stroke
grestore
% /gnu/store/wv8sf8h4n9s5cdya223iy2wp3alr92x8-binutils-bootstrap-0.drv
gsave
1 setlinewidth
0 0 0 nodecolor
newpath 271.4272 89 moveto
166.4272 89 lineto
166.4272 71 lineto
271.4272 71 lineto
closepath stroke
0 0 0 nodecolor
9 /Helvetica set_font
174.4272 77.8 moveto 89 (binutils-bootstrap-0) alignedtext
grestore
% /gnu/store/wx8ifbb7x22cl4998fyldsr24fcv18j3-texinfo-6.3.drv->/gnu/store/wv8sf8h4n9s5cdya223iy2wp3alr92x8-binutils-bootstrap-0.drv
gsave
1 setlinewidth
0.49804 1 0.80392 edgecolor
newpath 218.1742 368.58 moveto
221.9655 355.2486 230.4588 328.7683 242.9272 309 curveto
256.1815 287.9856 266.6501 288.3334 280.9272 268 curveto
298.1754 243.4351 304.8377 237.1664 311.9272 208 curveto
323.618 159.9034 272.2139 116.2925 241.1428 94.8953 curveto
stroke
0.49804 1 0.80392 edgecolor
newpath 242.8811 91.8481 moveto
232.6161 89.2252 lineto
239.005 97.677 lineto
closepath fill
1 setlinewidth
solid
0.49804 1 0.80392 edgecolor
newpath 242.8811 91.8481 moveto
232.6161 89.2252 lineto
239.005 97.677 lineto
closepath stroke
grestore
% /gnu/store/ccj3as3258l70lmphi48hs7n017wv75s-perl-boot0-5.24.0.drv->/gnu/store/1jpld53g41rzv2bmjp6v9mckmyw75vs3-make-boot0-4.2.1.drv
gsave
1 setlinewidth
0.078431 0.27059 0.5451 edgecolor
newpath 121.6261 308.8174 moveto
125.3611 290.6987 134.4675 245.8026 140.9272 208 curveto
143.7438 191.5165 146.5166 172.6747 148.4252 159.1792 curveto
stroke
0.078431 0.27059 0.5451 edgecolor
newpath 151.8923 159.6572 moveto
149.8073 149.2696 lineto
144.9594 158.6902 lineto
closepath fill
1 setlinewidth
solid
0.078431 0.27059 0.5451 edgecolor
newpath 151.8923 159.6572 moveto
149.8073 149.2696 lineto
144.9594 158.6902 lineto
closepath stroke
grestore
% /gnu/store/ccj3as3258l70lmphi48hs7n017wv75s-perl-boot0-5.24.0.drv->/gnu/store/zpphawi07xidhfs2dja3w7hmnfp99j02-diffutils-boot0-3.5.drv
gsave
1 setlinewidth
0.078431 0.27059 0.5451 edgecolor
newpath 167.9977 315.3655 moveto
202.5078 311.3661 246.8446 299.8232 269.9272 268 curveto
280.4236 253.5289 277.4668 232.4145 273.2915 217.5619 curveto
stroke
0.078431 0.27059 0.5451 edgecolor
newpath 276.6187 216.4755 moveto
270.2108 208.0381 lineto
269.9585 218.63 lineto
closepath fill
1 setlinewidth
solid
0.078431 0.27059 0.5451 edgecolor
newpath 276.6187 216.4755 moveto
270.2108 208.0381 lineto
269.9585 218.63 lineto
closepath stroke
grestore
% /gnu/store/ccj3as3258l70lmphi48hs7n017wv75s-perl-boot0-5.24.0.drv->/gnu/store/m4900ip34w4rcgn5620iqdi1wv198d9s-findutils-boot0-4.6.0.drv
gsave
1 setlinewidth
0.078431 0.27059 0.5451 edgecolor
newpath 133.9682 308.8333 moveto
149.9054 299.5637 176.1378 284.3061 195.0427 273.3104 curveto
stroke
0.078431 0.27059 0.5451 edgecolor
newpath 197.0277 276.2048 moveto
203.9122 268.1516 lineto
193.5083 270.1539 lineto
closepath fill
1 setlinewidth
solid
0.078431 0.27059 0.5451 edgecolor
newpath 197.0277 276.2048 moveto
203.9122 268.1516 lineto
193.5083 270.1539 lineto
closepath stroke
grestore
% /gnu/store/ccj3as3258l70lmphi48hs7n017wv75s-perl-boot0-5.24.0.drv->/gnu/store/nwzyr3xskw0ms8cndffsfvhvm5xz96pc-file-boot0-5.28.drv
gsave
1 setlinewidth
0.078431 0.27059 0.5451 edgecolor
newpath 118.4838 308.9581 moveto
115.1419 290.3393 106.8053 243.8924 102.1681 218.0568 curveto
stroke
0.078431 0.27059 0.5451 edgecolor
newpath 105.5924 217.3225 moveto
100.3807 208.0982 lineto
98.7025 218.5592 lineto
closepath fill
1 setlinewidth
solid
0.078431 0.27059 0.5451 edgecolor
newpath 105.5924 217.3225 moveto
100.3807 208.0982 lineto
98.7025 218.5592 lineto
closepath stroke
grestore
% /gnu/store/ccj3as3258l70lmphi48hs7n017wv75s-perl-boot0-5.24.0.drv->/gnu/store/wda0p45jlbzg6w9j8zxw2sd11n2a4pbv-glibc-bootstrap-0.drv
gsave
1 setlinewidth
0.078431 0.27059 0.5451 edgecolor
newpath 110.7909 308.8277 moveto
101.1277 299.7303 86.0448 284.168 76.9272 268 curveto
55.1753 229.4281 22.3972 107.8676 46.9272 71 curveto
60.4758 50.6369 84.2904 38.7198 106.9131 31.753 curveto
stroke
0.078431 0.27059 0.5451 edgecolor
newpath 108.1546 35.0401 moveto
116.8409 28.974 lineto
106.2676 28.2992 lineto
closepath fill
1 setlinewidth
solid
0.078431 0.27059 0.5451 edgecolor
newpath 108.1546 35.0401 moveto
116.8409 28.974 lineto
106.2676 28.2992 lineto
closepath stroke
grestore
% /gnu/store/ccj3as3258l70lmphi48hs7n017wv75s-perl-boot0-5.24.0.drv->/gnu/store/jxlg2pb4bhxjld9kimc0vgc1pvgifzag-gcc-bootstrap-0.drv
gsave
1 setlinewidth
0.078431 0.27059 0.5451 edgecolor
newpath 113.5234 308.8672 moveto
100.341 291.5447 70.5211 249.2145 59.9272 208 curveto
49.8939 168.9669 67.4654 122.6219 79.0239 98.1388 curveto
stroke
0.078431 0.27059 0.5451 edgecolor
newpath 82.2135 99.5846 moveto
83.5114 89.0695 lineto
75.9395 96.4802 lineto
closepath fill
1 setlinewidth
solid
0.078431 0.27059 0.5451 edgecolor
newpath 82.2135 99.5846 moveto
83.5114 89.0695 lineto
75.9395 96.4802 lineto
closepath stroke
grestore
% /gnu/store/ccj3as3258l70lmphi48hs7n017wv75s-perl-boot0-5.24.0.drv->/gnu/store/pmvh852v0x1zbl4r37pcpdqnq6m3bwfk-bootstrap-binaries-0.drv
gsave
1 setlinewidth
0.078431 0.27059 0.5451 edgecolor
newpath 167.9988 309.7353 moveto
200.0888 303.0375 241.9264 290.5773 272.9272 268 curveto
299.4472 248.6859 304.3111 238.6824 315.9272 208 curveto
329.815 171.317 330.7142 124.6592 329.9459 99.3484 curveto
stroke
0.078431 0.27059 0.5451 edgecolor
newpath 333.4295 98.8928 moveto
329.5003 89.0535 lineto
326.4361 99.1956 lineto
closepath fill
1 setlinewidth
solid
0.078431 0.27059 0.5451 edgecolor
newpath 333.4295 98.8928 moveto
329.5003 89.0535 lineto
326.4361 99.1956 lineto
closepath stroke
grestore
% /gnu/store/ccj3as3258l70lmphi48hs7n017wv75s-perl-boot0-5.24.0.drv->/gnu/store/pmvh852v0x1zbl4r37pcpdqnq6m3bwfk-bootstrap-binaries-0.drv
gsave
1 setlinewidth
0.078431 0.27059 0.5451 edgecolor
newpath 168.1419 309.8805 moveto
200.4797 303.2182 242.7009 290.7415 273.9272 268 curveto
300.4472 248.6859 305.3111 238.6824 316.9272 208 curveto
330.815 171.317 331.7142 124.6592 330.6155 99.3484 curveto
stroke
0.078431 0.27059 0.5451 edgecolor
newpath 334.0899 98.8216 moveto
329.9868 89.0535 lineto
327.103 99.2483 lineto
closepath fill
1 setlinewidth
solid
0.078431 0.27059 0.5451 edgecolor
newpath 334.0899 98.8216 moveto
329.9868 89.0535 lineto
327.103 99.2483 lineto
closepath stroke
grestore
% /gnu/store/ccj3as3258l70lmphi48hs7n017wv75s-perl-boot0-5.24.0.drv->/gnu/store/wv8sf8h4n9s5cdya223iy2wp3alr92x8-binutils-bootstrap-0.drv
gsave
1 setlinewidth
0.078431 0.27059 0.5451 edgecolor
newpath 121.9396 308.8912 moveto
128.127 284.2971 147.2187 210.9502 159.9272 190 curveto
173.2926 167.9668 188.0759 171.3371 200.9272 149 curveto
209.8653 133.4645 214.4711 113.3921 216.7743 99.091 curveto
stroke
0.078431 0.27059 0.5451 edgecolor
newpath 220.259 99.4421 moveto
218.1665 89.056 lineto
213.3254 98.4801 lineto
closepath fill
1 setlinewidth
solid
0.078431 0.27059 0.5451 edgecolor
newpath 220.259 99.4421 moveto
218.1665 89.056 lineto
213.3254 98.4801 lineto
closepath stroke
grestore
% /gnu/store/w9adgzgdqkwz0w13zxf2fn363v9wcllc-gcc-cross-boot0-4.9.4.drv->/gnu/store/v1v7jp438hc5rpgriwpjp04x049vh0g4-binutils-cross-boot0-2.27.drv
gsave
1 setlinewidth
0.33333 0.23922 0.73725 edgecolor
newpath 307.9272 368.9353 moveto
307.9272 360.8891 307.9272 348.2388 307.9272 337.6846 curveto
stroke
0.33333 0.23922 0.73725 edgecolor
newpath 311.4273 337.3717 moveto
307.9272 327.3718 lineto
304.4273 337.3718 lineto
closepath fill
1 setlinewidth
solid
0.33333 0.23922 0.73725 edgecolor
newpath 311.4273 337.3717 moveto
307.9272 327.3718 lineto
304.4273 337.3718 lineto
closepath stroke
grestore
% /gnu/store/w9adgzgdqkwz0w13zxf2fn363v9wcllc-gcc-cross-boot0-4.9.4.drv->/gnu/store/1jpld53g41rzv2bmjp6v9mckmyw75vs3-make-boot0-4.2.1.drv
gsave
1 setlinewidth
0.33333 0.23922 0.73725 edgecolor
newpath 288.5559 368.913 moveto
256.2749 354.2499 192.411 319.9059 165.9272 268 curveto
156.4429 249.4117 152.7993 189.6422 151.5326 159.1944 curveto
stroke
0.33333 0.23922 0.73725 edgecolor
newpath 155.0268 158.9702 moveto
151.1563 149.1077 lineto
148.0316 159.2312 lineto
closepath fill
1 setlinewidth
solid
0.33333 0.23922 0.73725 edgecolor
newpath 155.0268 158.9702 moveto
151.1563 149.1077 lineto
148.0316 159.2312 lineto
closepath stroke
grestore
% /gnu/store/w9adgzgdqkwz0w13zxf2fn363v9wcllc-gcc-cross-boot0-4.9.4.drv->/gnu/store/zpphawi07xidhfs2dja3w7hmnfp99j02-diffutils-boot0-3.5.drv
gsave
1 setlinewidth
0.33333 0.23922 0.73725 edgecolor
newpath 291.197 368.9808 moveto
276.2208 360.7707 255.2336 346.4609 245.9272 327 curveto
232.6747 299.2876 271.098 296.746 281.9272 268 curveto
288.1762 251.412 282.3462 231.5185 276.2238 217.5476 curveto
stroke
0.33333 0.23922 0.73725 edgecolor
newpath 279.1908 215.6441 moveto
271.6802 208.1713 lineto
272.8914 218.6967 lineto
closepath fill
1 setlinewidth
solid
0.33333 0.23922 0.73725 edgecolor
newpath 279.1908 215.6441 moveto
271.6802 208.1713 lineto
272.8914 218.6967 lineto
closepath stroke
grestore
% /gnu/store/w9adgzgdqkwz0w13zxf2fn363v9wcllc-gcc-cross-boot0-4.9.4.drv->/gnu/store/m4900ip34w4rcgn5620iqdi1wv198d9s-findutils-boot0-4.6.0.drv
gsave
1 setlinewidth
0.33333 0.23922 0.73725 edgecolor
newpath 291.6336 368.8706 moveto
276.2303 360.4002 253.5115 345.7484 239.9272 327 curveto
229.3845 312.4495 223.6992 292.5614 220.7669 278.2382 curveto
stroke
0.33333 0.23922 0.73725 edgecolor
newpath 224.1694 277.3813 moveto
218.9654 268.1526 lineto
217.2784 278.6123 lineto
closepath fill
1 setlinewidth
solid
0.33333 0.23922 0.73725 edgecolor
newpath 224.1694 277.3813 moveto
218.9654 268.1526 lineto
217.2784 278.6123 lineto
closepath stroke
grestore
% /gnu/store/w9adgzgdqkwz0w13zxf2fn363v9wcllc-gcc-cross-boot0-4.9.4.drv->/gnu/store/nwzyr3xskw0ms8cndffsfvhvm5xz96pc-file-boot0-5.28.drv
gsave
1 setlinewidth
0.33333 0.23922 0.73725 edgecolor
newpath 253.5954 368.985 moveto
188.3309 358.8064 86.1581 340.8967 74.9272 327 curveto
49.0387 294.9667 72.612 243.5804 88.0282 217.0609 curveto
stroke
0.33333 0.23922 0.73725 edgecolor
newpath 91.2078 218.5687 moveto
93.4171 208.2068 lineto
85.2282 214.9293 lineto
closepath fill
1 setlinewidth
solid
0.33333 0.23922 0.73725 edgecolor
newpath 91.2078 218.5687 moveto
93.4171 208.2068 lineto
85.2282 214.9293 lineto
closepath stroke
grestore
% /gnu/store/w9adgzgdqkwz0w13zxf2fn363v9wcllc-gcc-cross-boot0-4.9.4.drv->/gnu/store/wda0p45jlbzg6w9j8zxw2sd11n2a4pbv-glibc-bootstrap-0.drv
gsave
1 setlinewidth
0.33333 0.23922 0.73725 edgecolor
newpath 326.7568 368.9592 moveto
343.5325 360.8186 367.4512 346.6296 380.9272 327 curveto
445.3404 233.1734 464.645 154.1411 386.9272 71 curveto
364.7752 47.3023 279.7943 33.8772 221.3784 27.276 curveto
stroke
0.33333 0.23922 0.73725 edgecolor
newpath 221.4839 23.7668 moveto
211.1629 26.16 lineto
220.7237 30.7254 lineto
closepath fill
1 setlinewidth
solid
0.33333 0.23922 0.73725 edgecolor
newpath 221.4839 23.7668 moveto
211.1629 26.16 lineto
220.7237 30.7254 lineto
closepath stroke
grestore
% /gnu/store/w9adgzgdqkwz0w13zxf2fn363v9wcllc-gcc-cross-boot0-4.9.4.drv->/gnu/store/jxlg2pb4bhxjld9kimc0vgc1pvgifzag-gcc-bootstrap-0.drv
gsave
1 setlinewidth
0.33333 0.23922 0.73725 edgecolor
newpath 252.9861 368.9995 moveto
186.2907 358.7581 81.1491 340.7019 68.9272 327 curveto
39.9157 294.4755 50.1507 172.9621 61.9272 131 curveto
65.2235 119.2543 71.4768 107.089 77.0245 97.6991 curveto
stroke
0.33333 0.23922 0.73725 edgecolor
newpath 80.0922 99.3937 moveto
82.397 89.0526 lineto
74.1464 95.6993 lineto
closepath fill
1 setlinewidth
solid
0.33333 0.23922 0.73725 edgecolor
newpath 80.0922 99.3937 moveto
82.397 89.0526 lineto
74.1464 95.6993 lineto
closepath stroke
grestore
% /gnu/store/w9adgzgdqkwz0w13zxf2fn363v9wcllc-gcc-cross-boot0-4.9.4.drv->/gnu/store/pmvh852v0x1zbl4r37pcpdqnq6m3bwfk-bootstrap-binaries-0.drv
gsave
1 setlinewidth
0.33333 0.23922 0.73725 edgecolor
newpath 328.6704 368.8639 moveto
345.6245 360.9718 368.4426 347.207 378.9272 327 curveto
387.7468 310.0019 384.6993 152.3502 375.9272 131 curveto
370.1395 116.9137 358.4133 104.4284 348.1221 95.4573 curveto
stroke
0.33333 0.23922 0.73725 edgecolor
newpath 350.268 92.6906 moveto
340.3173 89.0526 lineto
345.8274 98.1019 lineto
closepath fill
1 setlinewidth
solid
0.33333 0.23922 0.73725 edgecolor
newpath 350.268 92.6906 moveto
340.3173 89.0526 lineto
345.8274 98.1019 lineto
closepath stroke
grestore
% /gnu/store/w9adgzgdqkwz0w13zxf2fn363v9wcllc-gcc-cross-boot0-4.9.4.drv->/gnu/store/pmvh852v0x1zbl4r37pcpdqnq6m3bwfk-bootstrap-binaries-0.drv
gsave
1 setlinewidth
0.33333 0.23922 0.73725 edgecolor
newpath 329.4652 368.8639 moveto
346.6245 360.9718 369.4426 347.207 379.9272 327 curveto
388.7468 310.0019 385.6993 152.3502 376.9272 131 curveto
371.1395 116.9137 359.4133 104.4284 348.9976 95.4573 curveto
stroke
0.33333 0.23922 0.73725 edgecolor
newpath 351.0434 92.6107 moveto
341.0639 89.0526 lineto
346.6464 98.0574 lineto
closepath fill
1 setlinewidth
solid
0.33333 0.23922 0.73725 edgecolor
newpath 351.0434 92.6107 moveto
341.0639 89.0526 lineto
346.6464 98.0574 lineto
closepath stroke
grestore
% /gnu/store/w9adgzgdqkwz0w13zxf2fn363v9wcllc-gcc-cross-boot0-4.9.4.drv->/gnu/store/wv8sf8h4n9s5cdya223iy2wp3alr92x8-binutils-bootstrap-0.drv
gsave
1 setlinewidth
0.33333 0.23922 0.73725 edgecolor
newpath 324.6574 368.9808 moveto
339.6335 360.7707 360.6207 346.4609 369.9272 327 curveto
373.3785 319.7828 371.2418 316.8912 369.9272 309 curveto
356.1848 226.5092 362.6047 195.1273 308.9272 131 curveto
294.2723 113.4922 271.8352 101.0077 253.0305 92.8924 curveto
stroke
0.33333 0.23922 0.73725 edgecolor
newpath 254.1697 89.5773 moveto
243.5883 89.0435 lineto
251.5273 96.0594 lineto
closepath fill
1 setlinewidth
solid
0.33333 0.23922 0.73725 edgecolor
newpath 254.1697 89.5773 moveto
243.5883 89.0435 lineto
251.5273 96.0594 lineto
closepath stroke
grestore
% /gnu/store/72snmrnjphwjxffknjhzm3xg38wd08al-ld-wrapper-x86_64-guix-linux-gnu-0.drv->/gnu/store/v1v7jp438hc5rpgriwpjp04x049vh0g4-binutils-cross-boot0-2.27.drv
gsave
1 setlinewidth
0 0 0.41176 edgecolor
newpath 441.3751 368.9353 moveto
414.9189 359.0356 369.8374 342.1664 339.4788 330.8064 curveto
stroke
0 0 0.41176 edgecolor
newpath 340.3883 327.4098 moveto
329.7959 327.1831 lineto
337.935 333.9658 lineto
closepath fill
1 setlinewidth
solid
0 0 0.41176 edgecolor
newpath 340.3883 327.4098 moveto
329.7959 327.1831 lineto
337.935 333.9658 lineto
closepath stroke
grestore
% /gnu/store/72snmrnjphwjxffknjhzm3xg38wd08al-ld-wrapper-x86_64-guix-linux-gnu-0.drv->/gnu/store/pmvh852v0x1zbl4r37pcpdqnq6m3bwfk-bootstrap-binaries-0.drv
gsave
1 setlinewidth
0 0 0.41176 edgecolor
newpath 453.7269 368.8426 moveto
444.138 359.7149 429.5982 343.9668 422.9272 327 curveto
412.0008 299.2103 417.9272 289.8606 417.9272 260 curveto
417.9272 260 417.9272 260 417.9272 198 curveto
417.9272 153.0584 375.8159 114.5847 349.5273 94.9454 curveto
stroke
0 0 0.41176 edgecolor
newpath 351.4631 92.0264 moveto
341.3022 89.025 lineto
347.3736 97.7077 lineto
closepath fill
1 setlinewidth
solid
0 0 0.41176 edgecolor
newpath 351.4631 92.0264 moveto
341.3022 89.025 lineto
347.3736 97.7077 lineto
closepath stroke
grestore
% /gnu/store/af19ma2vm3qhvh3rw6cdivyp98s18bj3-guile-bootstrap-2.0.drv
gsave
1 setlinewidth
0 0 0 nodecolor
newpath 523.4272 327 moveto
420.4272 327 lineto
420.4272 309 lineto
523.4272 309 lineto
closepath stroke
0 0 0 nodecolor
9 /Helvetica set_font
428.4272 315.8 moveto 87 (guile-bootstrap-2.0) alignedtext
grestore
% /gnu/store/72snmrnjphwjxffknjhzm3xg38wd08al-ld-wrapper-x86_64-guix-linux-gnu-0.drv->/gnu/store/af19ma2vm3qhvh3rw6cdivyp98s18bj3-guile-bootstrap-2.0.drv
gsave
1 setlinewidth
0 0 0.41176 edgecolor
newpath 464.1786 368.9353 moveto
465.4404 360.8035 467.4319 347.9692 469.08 337.3485 curveto
stroke
0 0 0.41176 edgecolor
newpath 472.5533 337.7902 moveto
470.6281 327.3718 lineto
465.636 336.7168 lineto
closepath fill
1 setlinewidth
solid
0 0 0.41176 edgecolor
newpath 472.5533 337.7902 moveto
470.6281 327.3718 lineto
465.636 336.7168 lineto
closepath stroke
grestore
% /gnu/store/v1v7jp438hc5rpgriwpjp04x049vh0g4-binutils-cross-boot0-2.27.drv->/gnu/store/1jpld53g41rzv2bmjp6v9mckmyw75vs3-make-boot0-4.2.1.drv
gsave
1 setlinewidth
0 0 0.41176 edgecolor
newpath 305.0349 308.8988 moveto
300.0032 295.5786 288.6525 268.6693 272.9272 250 curveto
253.1129 226.4762 241.0749 228.2524 217.9272 208 curveto
198.8845 191.3392 178.5379 170.5123 165.3285 156.5399 curveto
stroke
0 0 0.41176 edgecolor
newpath 167.8314 154.0922 moveto
158.4396 149.1886 lineto
162.7236 158.8788 lineto
closepath fill
1 setlinewidth
solid
0 0 0.41176 edgecolor
newpath 167.8314 154.0922 moveto
158.4396 149.1886 lineto
162.7236 158.8788 lineto
closepath stroke
grestore
% /gnu/store/v1v7jp438hc5rpgriwpjp04x049vh0g4-binutils-cross-boot0-2.27.drv->/gnu/store/zpphawi07xidhfs2dja3w7hmnfp99j02-diffutils-boot0-3.5.drv
gsave
1 setlinewidth
0 0 0.41176 edgecolor
newpath 306.354 308.5883 moveto
303.8255 295.7339 298.3754 270.5317 290.9272 250 curveto
286.876 238.8326 281.1554 226.8161 276.3154 217.3627 curveto
stroke
0 0 0.41176 edgecolor
newpath 279.2852 215.4904 moveto
271.5297 208.2721 lineto
273.091 218.7513 lineto
closepath fill
1 setlinewidth
solid
0 0 0.41176 edgecolor
newpath 279.2852 215.4904 moveto
271.5297 208.2721 lineto
273.091 218.7513 lineto
closepath stroke
grestore
% /gnu/store/v1v7jp438hc5rpgriwpjp04x049vh0g4-binutils-cross-boot0-2.27.drv->/gnu/store/m4900ip34w4rcgn5620iqdi1wv198d9s-findutils-boot0-4.6.0.drv
gsave
1 setlinewidth
0 0 0.41176 edgecolor
newpath 295.0324 308.8333 moveto
280.5967 299.6907 256.9634 284.723 239.6608 273.7646 curveto
stroke
0 0 0.41176 edgecolor
newpath 241.119 270.5453 moveto
230.7981 268.1516 lineto
237.3736 276.459 lineto
closepath fill
1 setlinewidth
solid
0 0 0.41176 edgecolor
newpath 241.119 270.5453 moveto
230.7981 268.1516 lineto
237.3736 276.459 lineto
closepath stroke
grestore
% /gnu/store/v1v7jp438hc5rpgriwpjp04x049vh0g4-binutils-cross-boot0-2.27.drv->/gnu/store/nwzyr3xskw0ms8cndffsfvhvm5xz96pc-file-boot0-5.28.drv
gsave
1 setlinewidth
0 0 0.41176 edgecolor
newpath 258.9047 308.9831 moveto
226.927 302.0093 185.4332 289.5256 153.9272 268 curveto
134.5927 254.7903 118.5932 232.8184 108.9272 217.4353 curveto
stroke
0 0 0.41176 edgecolor
newpath 111.6698 215.2042 moveto
103.5184 208.4361 lineto
105.67 218.8102 lineto
closepath fill
1 setlinewidth
solid
0 0 0.41176 edgecolor
newpath 111.6698 215.2042 moveto
103.5184 208.4361 lineto
105.67 218.8102 lineto
closepath stroke
grestore
% /gnu/store/v1v7jp438hc5rpgriwpjp04x049vh0g4-binutils-cross-boot0-2.27.drv->/gnu/store/wda0p45jlbzg6w9j8zxw2sd11n2a4pbv-glibc-bootstrap-0.drv
gsave
1 setlinewidth
0 0 0.41176 edgecolor
newpath 312.1703 308.7716 moveto
331.6342 270.4969 410.1129 110.0928 378.9272 71 curveto
359.502 46.6496 277.8983 33.4572 221.0141 27.0766 curveto
stroke
0 0 0.41176 edgecolor
newpath 221.3723 23.595 moveto
211.0541 26 lineto
220.62 30.5544 lineto
closepath fill
1 setlinewidth
solid
0 0 0.41176 edgecolor
newpath 221.3723 23.595 moveto
211.0541 26 lineto
220.62 30.5544 lineto
closepath stroke
grestore
% /gnu/store/v1v7jp438hc5rpgriwpjp04x049vh0g4-binutils-cross-boot0-2.27.drv->/gnu/store/jxlg2pb4bhxjld9kimc0vgc1pvgifzag-gcc-bootstrap-0.drv
gsave
1 setlinewidth
0 0 0.41176 edgecolor
newpath 243.5775 308.9399 moveto
215.3758 302.2892 183.9772 290.1514 162.9272 268 curveto
138.1151 241.8898 159.3277 220.9645 140.9272 190 curveto
127.6009 167.5745 110.9481 172.1515 98.9272 149 curveto
90.8391 133.4229 88.4094 113.3566 87.8085 99.0683 curveto
stroke
0 0 0.41176 edgecolor
newpath 91.3078 98.9859 moveto
87.6456 89.0442 lineto
84.3087 99.0998 lineto
closepath fill
1 setlinewidth
solid
0 0 0.41176 edgecolor
newpath 91.3078 98.9859 moveto
87.6456 89.0442 lineto
84.3087 99.0998 lineto
closepath stroke
grestore
% /gnu/store/v1v7jp438hc5rpgriwpjp04x049vh0g4-binutils-cross-boot0-2.27.drv->/gnu/store/pmvh852v0x1zbl4r37pcpdqnq6m3bwfk-bootstrap-binaries-0.drv
gsave
1 setlinewidth
0 0 0.41176 edgecolor
newpath 312.0912 308.9463 moveto
316.7512 299.4506 324.0277 283.0517 326.9272 268 curveto
338.6285 207.2554 334.0196 133.344 330.8973 99.5147 curveto
stroke
0 0 0.41176 edgecolor
newpath 334.3548 98.9131 moveto
329.884 89.3077 lineto
327.3891 99.6046 lineto
closepath fill
1 setlinewidth
solid
0 0 0.41176 edgecolor
newpath 334.3548 98.9131 moveto
329.884 89.3077 lineto
327.3891 99.6046 lineto
closepath stroke
grestore
% /gnu/store/v1v7jp438hc5rpgriwpjp04x049vh0g4-binutils-cross-boot0-2.27.drv->/gnu/store/pmvh852v0x1zbl4r37pcpdqnq6m3bwfk-bootstrap-binaries-0.drv
gsave
1 setlinewidth
0 0 0.41176 edgecolor
newpath 312.8085 308.9463 moveto
317.7512 299.4506 325.0277 283.0517 327.9272 268 curveto
339.6285 207.2554 335.0196 133.344 331.485 99.5147 curveto
stroke
0 0 0.41176 edgecolor
newpath 334.9306 98.841 moveto
330.308 89.3077 lineto
327.9767 99.6429 lineto
closepath fill
1 setlinewidth
solid
0 0 0.41176 edgecolor
newpath 334.9306 98.841 moveto
330.308 89.3077 lineto
327.9767 99.6429 lineto
closepath stroke
grestore
% /gnu/store/v1v7jp438hc5rpgriwpjp04x049vh0g4-binutils-cross-boot0-2.27.drv->/gnu/store/wv8sf8h4n9s5cdya223iy2wp3alr92x8-binutils-bootstrap-0.drv
gsave
1 setlinewidth
0 0 0.41176 edgecolor
newpath 309.4772 308.7154 moveto
311.2089 299.0028 313.9038 282.4004 314.9272 268 curveto
317.09 237.5667 323.1614 156.1763 305.9272 131 curveto
293.7487 113.2094 273.0129 100.9346 254.8396 93.0003 curveto
stroke
0 0 0.41176 edgecolor
newpath 255.9355 89.6675 moveto
245.354 89.1362 lineto
253.2946 96.1503 lineto
closepath fill
1 setlinewidth
solid
0 0 0.41176 edgecolor
newpath 255.9355 89.6675 moveto
245.354 89.1362 lineto
253.2946 96.1503 lineto
closepath stroke
grestore
% /gnu/store/1jpld53g41rzv2bmjp6v9mckmyw75vs3-make-boot0-4.2.1.drv->/gnu/store/wda0p45jlbzg6w9j8zxw2sd11n2a4pbv-glibc-bootstrap-0.drv
gsave
1 setlinewidth
0 0 0.41176 edgecolor
newpath 151.8207 130.9581 moveto
153.8895 112.3393 159.0502 65.8924 161.9209 40.0568 curveto
stroke
0 0 0.41176 edgecolor
newpath 165.4016 40.4235 moveto
163.0274 30.0982 lineto
158.4444 39.6505 lineto
closepath fill
1 setlinewidth
solid
0 0 0.41176 edgecolor
newpath 165.4016 40.4235 moveto
163.0274 30.0982 lineto
158.4444 39.6505 lineto
closepath stroke
grestore
% /gnu/store/1jpld53g41rzv2bmjp6v9mckmyw75vs3-make-boot0-4.2.1.drv->/gnu/store/jxlg2pb4bhxjld9kimc0vgc1pvgifzag-gcc-bootstrap-0.drv
gsave
1 setlinewidth
0 0 0.41176 edgecolor
newpath 142.1673 130.9353 moveto
132.4977 122.0331 116.7064 107.4952 104.6498 96.3954 curveto
stroke
0 0 0.41176 edgecolor
newpath 106.7482 93.5699 moveto
97.0206 89.3718 lineto
102.007 98.7198 lineto
closepath fill
1 setlinewidth
solid
0 0 0.41176 edgecolor
newpath 106.7482 93.5699 moveto
97.0206 89.3718 lineto
102.007 98.7198 lineto
closepath stroke
grestore
% /gnu/store/1jpld53g41rzv2bmjp6v9mckmyw75vs3-make-boot0-4.2.1.drv->/gnu/store/pmvh852v0x1zbl4r37pcpdqnq6m3bwfk-bootstrap-binaries-0.drv
gsave
1 setlinewidth
0 0 0.41176 edgecolor
newpath 175.6773 130.9353 moveto
206.5424 120.8782 259.4825 103.628 294.3442 92.2686 curveto
stroke
0 0 0.41176 edgecolor
newpath 295.6773 95.5154 moveto
304.101 89.0894 lineto
293.5086 88.8598 lineto
closepath fill
1 setlinewidth
solid
0 0 0.41176 edgecolor
newpath 295.6773 95.5154 moveto
304.101 89.0894 lineto
293.5086 88.8598 lineto
closepath stroke
grestore
% /gnu/store/1jpld53g41rzv2bmjp6v9mckmyw75vs3-make-boot0-4.2.1.drv->/gnu/store/pmvh852v0x1zbl4r37pcpdqnq6m3bwfk-bootstrap-binaries-0.drv
gsave
1 setlinewidth
0 0 0.41176 edgecolor
newpath 176.2156 130.9353 moveto
207.3374 120.8782 260.3007 103.628 294.9522 92.2686 curveto
stroke
0 0 0.41176 edgecolor
newpath 296.2298 95.5331 moveto
304.6399 89.0894 lineto
294.0471 88.8821 lineto
closepath fill
1 setlinewidth
solid
0 0 0.41176 edgecolor
newpath 296.2298 95.5331 moveto
304.6399 89.0894 lineto
294.0471 88.8821 lineto
closepath stroke
grestore
% /gnu/store/1jpld53g41rzv2bmjp6v9mckmyw75vs3-make-boot0-4.2.1.drv->/gnu/store/wv8sf8h4n9s5cdya223iy2wp3alr92x8-binutils-bootstrap-0.drv
gsave
1 setlinewidth
0 0 0.41176 edgecolor
newpath 160.3823 130.9353 moveto
170.9197 121.9475 188.1922 107.2151 201.2516 96.0762 curveto
stroke
0 0 0.41176 edgecolor
newpath 203.775 98.5242 moveto
209.112 89.3718 lineto
199.2323 93.1983 lineto
closepath fill
1 setlinewidth
solid
0 0 0.41176 edgecolor
newpath 203.775 98.5242 moveto
209.112 89.3718 lineto
199.2323 93.1983 lineto
closepath stroke
grestore
% /gnu/store/zpphawi07xidhfs2dja3w7hmnfp99j02-diffutils-boot0-3.5.drv->/gnu/store/1jpld53g41rzv2bmjp6v9mckmyw75vs3-make-boot0-4.2.1.drv
gsave
1 setlinewidth
0.66667 1 1 edgecolor
newpath 250.3072 189.8333 moveto
231.0121 180.3521 198.968 164.6063 176.496 153.564 curveto
stroke
0.66667 1 1 edgecolor
newpath 178.0349 150.4205 moveto
167.5163 149.1516 lineto
174.9478 156.703 lineto
closepath fill
1 setlinewidth
solid
0.66667 1 1 edgecolor
newpath 178.0349 150.4205 moveto
167.5163 149.1516 lineto
174.9478 156.703 lineto
closepath stroke
grestore
% /gnu/store/zpphawi07xidhfs2dja3w7hmnfp99j02-diffutils-boot0-3.5.drv->/gnu/store/wda0p45jlbzg6w9j8zxw2sd11n2a4pbv-glibc-bootstrap-0.drv
gsave
1 setlinewidth
0.66667 1 1 edgecolor
newpath 269.9188 189.7433 moveto
277.164 168.2022 293.3288 109.3153 268.9272 71 curveto
256.8932 52.1043 235.4593 40.3758 215.0809 33.1545 curveto
stroke
0.66667 1 1 edgecolor
newpath 216.1119 29.8095 moveto
205.5198 30.0522 lineto
213.9514 36.4678 lineto
closepath fill
1 setlinewidth
solid
0.66667 1 1 edgecolor
newpath 216.1119 29.8095 moveto
205.5198 30.0522 lineto
213.9514 36.4678 lineto
closepath stroke
grestore
% /gnu/store/zpphawi07xidhfs2dja3w7hmnfp99j02-diffutils-boot0-3.5.drv->/gnu/store/jxlg2pb4bhxjld9kimc0vgc1pvgifzag-gcc-bootstrap-0.drv
gsave
1 setlinewidth
0.66667 1 1 edgecolor
newpath 259.8933 189.6554 moveto
248.0333 175.9853 222.8082 148.5845 196.9272 131 curveto
173.0757 114.7945 143.1271 101.4886 120.6606 92.6884 curveto
stroke
0.66667 1 1 edgecolor
newpath 121.8128 89.3819 moveto
111.2222 89.0828 lineto
119.3147 95.921 lineto
closepath fill
1 setlinewidth
solid
0.66667 1 1 edgecolor
newpath 121.8128 89.3819 moveto
111.2222 89.0828 lineto
119.3147 95.921 lineto
closepath stroke
grestore
% /gnu/store/zpphawi07xidhfs2dja3w7hmnfp99j02-diffutils-boot0-3.5.drv->/gnu/store/pmvh852v0x1zbl4r37pcpdqnq6m3bwfk-bootstrap-binaries-0.drv
gsave
1 setlinewidth
0.66667 1 1 edgecolor
newpath 279.2154 189.8365 moveto
291.1636 181.1902 308.8049 166.3995 317.9272 149 curveto
326.0771 133.4552 328.4977 113.3841 329.0796 99.0859 curveto
stroke
0.66667 1 1 edgecolor
newpath 332.5796 99.1035 moveto
329.2263 89.0534 lineto
325.5803 99.0011 lineto
closepath fill
1 setlinewidth
solid
0.66667 1 1 edgecolor
newpath 332.5796 99.1035 moveto
329.2263 89.0534 lineto
325.5803 99.0011 lineto
closepath stroke
grestore
% /gnu/store/zpphawi07xidhfs2dja3w7hmnfp99j02-diffutils-boot0-3.5.drv->/gnu/store/pmvh852v0x1zbl4r37pcpdqnq6m3bwfk-bootstrap-binaries-0.drv
gsave
1 setlinewidth
0.66667 1 1 edgecolor
newpath 279.9713 189.8365 moveto
292.1636 181.1902 309.8049 166.3995 318.9272 149 curveto
327.0771 133.4552 329.4977 113.3841 329.8911 99.0859 curveto
stroke
0.66667 1 1 edgecolor
newpath 333.391 99.0364 moveto
329.8428 89.0534 lineto
326.3911 99.0701 lineto
closepath fill
1 setlinewidth
solid
0.66667 1 1 edgecolor
newpath 333.391 99.0364 moveto
329.8428 89.0534 lineto
326.3911 99.0701 lineto
closepath stroke
grestore
% /gnu/store/zpphawi07xidhfs2dja3w7hmnfp99j02-diffutils-boot0-3.5.drv->/gnu/store/wv8sf8h4n9s5cdya223iy2wp3alr92x8-binutils-bootstrap-0.drv
gsave
1 setlinewidth
0.66667 1 1 edgecolor
newpath 263.6279 189.9581 moveto
255.9209 171.1723 236.5916 124.0571 226.0519 98.3666 curveto
stroke
0.66667 1 1 edgecolor
newpath 229.2832 97.0214 moveto
222.2495 89.0982 lineto
222.807 99.6783 lineto
closepath fill
1 setlinewidth
solid
0.66667 1 1 edgecolor
newpath 229.2832 97.0214 moveto
222.2495 89.0982 lineto
222.807 99.6783 lineto
closepath stroke
grestore
% /gnu/store/m4900ip34w4rcgn5620iqdi1wv198d9s-findutils-boot0-4.6.0.drv->/gnu/store/1jpld53g41rzv2bmjp6v9mckmyw75vs3-make-boot0-4.2.1.drv
gsave
1 setlinewidth
0.66667 1 1 edgecolor
newpath 213.322 249.9581 moveto
202.5165 231.0888 175.3436 183.6377 160.6767 158.0254 curveto
stroke
0.66667 1 1 edgecolor
newpath 163.5713 156.0367 moveto
155.5646 149.0982 lineto
157.4967 159.5153 lineto
closepath fill
1 setlinewidth
solid
0.66667 1 1 edgecolor
newpath 163.5713 156.0367 moveto
155.5646 149.0982 lineto
157.4967 159.5153 lineto
closepath stroke
grestore
% /gnu/store/m4900ip34w4rcgn5620iqdi1wv198d9s-findutils-boot0-4.6.0.drv->/gnu/store/zpphawi07xidhfs2dja3w7hmnfp99j02-diffutils-boot0-3.5.drv
gsave
1 setlinewidth
0.66667 1 1 edgecolor
newpath 224.7404 249.9353 moveto
232.1166 241.2043 244.0727 227.0523 253.3765 216.0395 curveto
stroke
0.66667 1 1 edgecolor
newpath 256.0745 218.2694 moveto
259.8545 208.3718 lineto
250.7273 213.7519 lineto
closepath fill
1 setlinewidth
solid
0.66667 1 1 edgecolor
newpath 256.0745 218.2694 moveto
259.8545 208.3718 lineto
250.7273 213.7519 lineto
closepath stroke
grestore
% /gnu/store/m4900ip34w4rcgn5620iqdi1wv198d9s-findutils-boot0-4.6.0.drv->/gnu/store/wda0p45jlbzg6w9j8zxw2sd11n2a4pbv-glibc-bootstrap-0.drv
gsave
1 setlinewidth
0.66667 1 1 edgecolor
newpath 218.2466 249.9048 moveto
218.7712 229.23 218.3522 173.1424 200.9272 131 curveto
191.9602 109.3134 177.2552 110.9399 168.9272 89 curveto
162.9768 73.3239 162.1324 54.1271 162.536 40.3064 curveto
stroke
0.66667 1 1 edgecolor
newpath 166.0397 40.3308 moveto
163.0838 30.1567 lineto
159.0498 39.9535 lineto
closepath fill
1 setlinewidth
solid
0.66667 1 1 edgecolor
newpath 166.0397 40.3308 moveto
163.0838 30.1567 lineto
159.0498 39.9535 lineto
closepath stroke
grestore
% /gnu/store/m4900ip34w4rcgn5620iqdi1wv198d9s-findutils-boot0-4.6.0.drv->/gnu/store/jxlg2pb4bhxjld9kimc0vgc1pvgifzag-gcc-bootstrap-0.drv
gsave
1 setlinewidth
0.66667 1 1 edgecolor
newpath 210.5759 249.7883 moveto
198.7881 236.7422 174.7615 210.6459 152.9272 190 curveto
132.5413 170.7237 119.6978 172.8535 104.9272 149 curveto
95.5247 133.8157 91.3157 113.6918 89.4356 99.2828 curveto
stroke
0.66667 1 1 edgecolor
newpath 92.8975 98.7357 moveto
88.3724 89.1558 lineto
85.9357 99.4667 lineto
closepath fill
1 setlinewidth
solid
0.66667 1 1 edgecolor
newpath 92.8975 98.7357 moveto
88.3724 89.1558 lineto
85.9357 99.4667 lineto
closepath stroke
grestore
% /gnu/store/m4900ip34w4rcgn5620iqdi1wv198d9s-findutils-boot0-4.6.0.drv->/gnu/store/pmvh852v0x1zbl4r37pcpdqnq6m3bwfk-bootstrap-binaries-0.drv
gsave
1 setlinewidth
0.66667 1 1 edgecolor
newpath 216.6049 249.6092 moveto
214.8984 236.3177 213.1051 209.8912 221.9272 190 curveto
240.4882 148.1501 282.6786 113.173 308.1857 94.8322 curveto
stroke
0.66667 1 1 edgecolor
newpath 310.2576 97.6543 moveto
316.4461 89.0547 lineto
306.2455 91.9181 lineto
closepath fill
1 setlinewidth
solid
0.66667 1 1 edgecolor
newpath 310.2576 97.6543 moveto
316.4461 89.0547 lineto
306.2455 91.9181 lineto
closepath stroke
grestore
% /gnu/store/m4900ip34w4rcgn5620iqdi1wv198d9s-findutils-boot0-4.6.0.drv->/gnu/store/pmvh852v0x1zbl4r37pcpdqnq6m3bwfk-bootstrap-binaries-0.drv
gsave
1 setlinewidth
0.66667 1 1 edgecolor
newpath 217.2336 249.6092 moveto
215.8984 236.3177 214.1051 209.8912 222.9272 190 curveto
241.4071 148.3329 283.3105 113.4786 308.5479 95.0735 curveto
stroke
0.66667 1 1 edgecolor
newpath 310.8935 97.7004 moveto
317.0176 89.0547 lineto
306.8387 91.9943 lineto
closepath fill
1 setlinewidth
solid
0.66667 1 1 edgecolor
newpath 310.8935 97.7004 moveto
317.0176 89.0547 lineto
306.8387 91.9943 lineto
closepath stroke
grestore
% /gnu/store/m4900ip34w4rcgn5620iqdi1wv198d9s-findutils-boot0-4.6.0.drv->/gnu/store/wv8sf8h4n9s5cdya223iy2wp3alr92x8-binutils-bootstrap-0.drv
gsave
1 setlinewidth
0.66667 1 1 edgecolor
newpath 217.9727 249.9347 moveto
218.1237 223.2126 218.6101 137.1233 218.8243 99.2123 curveto
stroke
0.66667 1 1 edgecolor
newpath 222.3247 99.1323 moveto
218.8813 89.1126 lineto
215.3248 99.0927 lineto
closepath fill
1 setlinewidth
solid
0.66667 1 1 edgecolor
newpath 222.3247 99.1323 moveto
218.8813 89.1126 lineto
215.3248 99.0927 lineto
closepath stroke
grestore
% /gnu/store/nwzyr3xskw0ms8cndffsfvhvm5xz96pc-file-boot0-5.28.drv->/gnu/store/1jpld53g41rzv2bmjp6v9mckmyw75vs3-make-boot0-4.2.1.drv
gsave
1 setlinewidth
0.11765 0.93725 0.72157 edgecolor
newpath 106.5999 189.5895 moveto
114.5244 180.903 127.0705 167.1506 136.7957 156.4902 curveto
stroke
0.11765 0.93725 0.72157 edgecolor
newpath 139.4056 158.8225 moveto
143.5596 149.076 lineto
134.2343 154.1048 lineto
closepath fill
1 setlinewidth
solid
0.11765 0.93725 0.72157 edgecolor
newpath 139.4056 158.8225 moveto
143.5596 149.076 lineto
134.2343 154.1048 lineto
closepath stroke
grestore
% /gnu/store/nwzyr3xskw0ms8cndffsfvhvm5xz96pc-file-boot0-5.28.drv->/gnu/store/wda0p45jlbzg6w9j8zxw2sd11n2a4pbv-glibc-bootstrap-0.drv
gsave
1 setlinewidth
0.11765 0.93725 0.72157 edgecolor
newpath 96.6869 189.8865 moveto
93.5379 177.0015 88.9243 151.2474 95.9272 131 curveto
103.6867 108.5647 116.0431 108.9388 128.9272 89 curveto
139.3705 72.8383 149.3326 53.2108 155.9387 39.3894 curveto
stroke
0.11765 0.93725 0.72157 edgecolor
newpath 159.2152 40.6457 moveto
160.2888 30.1054 lineto
152.8765 37.6757 lineto
closepath fill
1 setlinewidth
solid
0.11765 0.93725 0.72157 edgecolor
newpath 159.2152 40.6457 moveto
160.2888 30.1054 lineto
152.8765 37.6757 lineto
closepath stroke
grestore
% /gnu/store/nwzyr3xskw0ms8cndffsfvhvm5xz96pc-file-boot0-5.28.drv->/gnu/store/jxlg2pb4bhxjld9kimc0vgc1pvgifzag-gcc-bootstrap-0.drv
gsave
1 setlinewidth
0.11765 0.93725 0.72157 edgecolor
newpath 97.7851 189.6904 moveto
96.4759 179.9543 94.3305 163.3299 92.9272 149 curveto
91.2867 132.2488 89.9261 113.1281 89.0405 99.4376 curveto
stroke
0.11765 0.93725 0.72157 edgecolor
newpath 92.5293 99.1483 moveto
88.4126 89.386 lineto
85.543 99.5848 lineto
closepath fill
1 setlinewidth
solid
0.11765 0.93725 0.72157 edgecolor
newpath 92.5293 99.1483 moveto
88.4126 89.386 lineto
85.543 99.5848 lineto
closepath stroke
grestore
% /gnu/store/nwzyr3xskw0ms8cndffsfvhvm5xz96pc-file-boot0-5.28.drv->/gnu/store/pmvh852v0x1zbl4r37pcpdqnq6m3bwfk-bootstrap-binaries-0.drv
gsave
1 setlinewidth
0.11765 0.93725 0.72157 edgecolor
newpath 116.1692 189.8506 moveto
136.3445 180.2651 170.7118 163.7819 199.9272 149 curveto
236.7841 130.3518 279.0594 107.8528 304.8756 93.9862 curveto
stroke
0.11765 0.93725 0.72157 edgecolor
newpath 306.7707 96.941 moveto
313.9184 89.1204 lineto
303.4538 90.7768 lineto
closepath fill
1 setlinewidth
solid
0.11765 0.93725 0.72157 edgecolor
newpath 306.7707 96.941 moveto
313.9184 89.1204 lineto
303.4538 90.7768 lineto
closepath stroke
grestore
% /gnu/store/nwzyr3xskw0ms8cndffsfvhvm5xz96pc-file-boot0-5.28.drv->/gnu/store/pmvh852v0x1zbl4r37pcpdqnq6m3bwfk-bootstrap-binaries-0.drv
gsave
1 setlinewidth
0.11765 0.93725 0.72157 edgecolor
newpath 116.8866 189.8506 moveto
137.3445 180.2651 171.7118 163.7819 200.9272 149 curveto
237.7841 130.3518 280.0594 107.8528 305.6167 93.9862 curveto
stroke
0.11765 0.93725 0.72157 edgecolor
newpath 307.4405 96.9784 moveto
314.5471 89.1204 lineto
304.0913 90.8316 lineto
closepath fill
1 setlinewidth
solid
0.11765 0.93725 0.72157 edgecolor
newpath 307.4405 96.9784 moveto
314.5471 89.1204 lineto
304.0913 90.8316 lineto
closepath stroke
grestore
% /gnu/store/nwzyr3xskw0ms8cndffsfvhvm5xz96pc-file-boot0-5.28.drv->/gnu/store/wv8sf8h4n9s5cdya223iy2wp3alr92x8-binutils-bootstrap-0.drv
gsave
1 setlinewidth
0.11765 0.93725 0.72157 edgecolor
newpath 96.7111 189.7044 moveto
93.599 176.1047 89.5944 148.8026 101.9272 131 curveto
115.624 111.2282 138.8361 99.2302 160.9911 91.9699 curveto
stroke
0.11765 0.93725 0.72157 edgecolor
newpath 162.1517 95.2759 moveto
170.723 89.0482 lineto
160.1389 88.5715 lineto
closepath fill
1 setlinewidth
solid
0.11765 0.93725 0.72157 edgecolor
newpath 162.1517 95.2759 moveto
170.723 89.0482 lineto
160.1389 88.5715 lineto
closepath stroke
grestore
% /gnu/store/jxlg2pb4bhxjld9kimc0vgc1pvgifzag-gcc-bootstrap-0.drv->/gnu/store/wda0p45jlbzg6w9j8zxw2sd11n2a4pbv-glibc-bootstrap-0.drv
gsave
1 setlinewidth
0.33333 0.23922 0.73725 edgecolor
newpath 98.8161 70.8333 moveto
110.7805 61.86 130.2267 47.2753 144.7572 36.3775 curveto
stroke
0.33333 0.23922 0.73725 edgecolor
newpath 147.1584 38.9516 moveto
153.0584 30.1516 lineto
142.9584 33.3516 lineto
closepath fill
1 setlinewidth
solid
0.33333 0.23922 0.73725 edgecolor
newpath 147.1584 38.9516 moveto
153.0584 30.1516 lineto
142.9584 33.3516 lineto
closepath stroke
grestore
% /gnu/store/5syba2bxhh8z79jhq83fzy8fxcx5xb4s-linux-libre-headers-4.4.18.drv->/gnu/store/ccj3as3258l70lmphi48hs7n017wv75s-perl-boot0-5.24.0.drv
gsave
1 setlinewidth
0.66667 1 1 edgecolor
newpath 113.0395 368.9353 moveto
114.1612 360.8035 115.9314 347.9692 117.3963 337.3485 curveto
stroke
0.66667 1 1 edgecolor
newpath 120.8732 337.7562 moveto
118.7724 327.3718 lineto
113.9388 336.7997 lineto
closepath fill
1 setlinewidth
solid
0.66667 1 1 edgecolor
newpath 120.8732 337.7562 moveto
118.7724 327.3718 lineto
113.9388 336.7997 lineto
closepath stroke
grestore
% /gnu/store/5syba2bxhh8z79jhq83fzy8fxcx5xb4s-linux-libre-headers-4.4.18.drv->/gnu/store/1jpld53g41rzv2bmjp6v9mckmyw75vs3-make-boot0-4.2.1.drv
gsave
1 setlinewidth
0.66667 1 1 edgecolor
newpath 101.5839 368.8265 moveto
87.5251 356.6476 64.8914 332.6286 71.9272 309 curveto
87.2302 257.6067 117.7771 257.6934 137.9272 208 curveto
144.3276 192.2155 147.639 173.0321 149.3125 159.2438 curveto
stroke
0.66667 1 1 edgecolor
newpath 152.8117 159.4321 moveto
150.3648 149.1237 lineto
145.8492 158.7081 lineto
closepath fill
1 setlinewidth
solid
0.66667 1 1 edgecolor
newpath 152.8117 159.4321 moveto
150.3648 149.1237 lineto
145.8492 158.7081 lineto
closepath stroke
grestore
% /gnu/store/5syba2bxhh8z79jhq83fzy8fxcx5xb4s-linux-libre-headers-4.4.18.drv->/gnu/store/zpphawi07xidhfs2dja3w7hmnfp99j02-diffutils-boot0-3.5.drv
gsave
1 setlinewidth
0.66667 1 1 edgecolor
newpath 125.4618 368.9079 moveto
162.8945 346.3912 265.6029 283.634 273.9272 268 curveto
282.1943 252.4732 278.5419 232.1311 274.001 217.7544 curveto
stroke
0.66667 1 1 edgecolor
newpath 277.2094 216.3325 moveto
270.5381 208.1018 lineto
270.6206 218.6963 lineto
closepath fill
1 setlinewidth
solid
0.66667 1 1 edgecolor
newpath 277.2094 216.3325 moveto
270.5381 208.1018 lineto
270.6206 218.6963 lineto
closepath stroke
grestore
% /gnu/store/5syba2bxhh8z79jhq83fzy8fxcx5xb4s-linux-libre-headers-4.4.18.drv->/gnu/store/m4900ip34w4rcgn5620iqdi1wv198d9s-findutils-boot0-4.6.0.drv
gsave
1 setlinewidth
0.66667 1 1 edgecolor
newpath 123.7608 368.7489 moveto
136.4193 359.5412 156.6048 343.7251 170.9272 327 curveto
177.0254 319.8787 176.7025 316.7848 181.9272 309 curveto
189.4164 297.841 198.3602 285.6623 205.4596 276.238 curveto
stroke
0.66667 1 1 edgecolor
newpath 208.3277 278.2485 moveto
211.5933 268.1695 lineto
202.7551 274.0121 lineto
closepath fill
1 setlinewidth
solid
0.66667 1 1 edgecolor
newpath 208.3277 278.2485 moveto
211.5933 268.1695 lineto
202.7551 274.0121 lineto
closepath stroke
grestore
% /gnu/store/5syba2bxhh8z79jhq83fzy8fxcx5xb4s-linux-libre-headers-4.4.18.drv->/gnu/store/nwzyr3xskw0ms8cndffsfvhvm5xz96pc-file-boot0-5.28.drv
gsave
1 setlinewidth
0.66667 1 1 edgecolor
newpath 98.7856 368.9579 moveto
86.1268 360.3591 67.7767 345.4371 59.9272 327 curveto
46.5216 295.5127 48.7984 282.3622 59.9272 250 curveto
64.4682 236.7948 74.0838 224.4004 82.6305 215.2551 curveto
stroke
0.66667 1 1 edgecolor
newpath 85.1543 217.6807 moveto
89.7116 208.1161 lineto
80.1844 212.7512 lineto
closepath fill
1 setlinewidth
solid
0.66667 1 1 edgecolor
newpath 85.1543 217.6807 moveto
89.7116 208.1161 lineto
80.1844 212.7512 lineto
closepath stroke
grestore
% /gnu/store/5syba2bxhh8z79jhq83fzy8fxcx5xb4s-linux-libre-headers-4.4.18.drv->/gnu/store/wda0p45jlbzg6w9j8zxw2sd11n2a4pbv-glibc-bootstrap-0.drv
gsave
1 setlinewidth
0.66667 1 1 edgecolor
newpath 94.6074 368.8488 moveto
79.3402 360.6321 58.0038 346.3933 47.9272 327 curveto
-4.5517 225.9999 -22.9499 165.2061 40.9272 71 curveto
55.7799 49.0951 82.1527 36.9822 106.6788 30.2842 curveto
stroke
0.66667 1 1 edgecolor
newpath 107.8084 33.6103 moveto
116.6761 27.8126 lineto
106.1283 26.8149 lineto
closepath fill
1 setlinewidth
solid
0.66667 1 1 edgecolor
newpath 107.8084 33.6103 moveto
116.6761 27.8126 lineto
106.1283 26.8149 lineto
closepath stroke
grestore
% /gnu/store/5syba2bxhh8z79jhq83fzy8fxcx5xb4s-linux-libre-headers-4.4.18.drv->/gnu/store/jxlg2pb4bhxjld9kimc0vgc1pvgifzag-gcc-bootstrap-0.drv
gsave
1 setlinewidth
0.66667 1 1 edgecolor
newpath 97.4634 368.9787 moveto
83.7032 360.494 63.6948 345.7463 53.9272 327 curveto
33.7967 288.3653 35.3218 172.0434 49.9272 131 curveto
54.5169 118.1022 63.7459 105.8281 71.9591 96.6688 curveto
stroke
0.66667 1 1 edgecolor
newpath 74.7016 98.8637 moveto
79.0541 89.2042 lineto
69.6278 94.0412 lineto
closepath fill
1 setlinewidth
solid
0.66667 1 1 edgecolor
newpath 74.7016 98.8637 moveto
79.0541 89.2042 lineto
69.6278 94.0412 lineto
closepath stroke
grestore
% /gnu/store/5syba2bxhh8z79jhq83fzy8fxcx5xb4s-linux-libre-headers-4.4.18.drv->/gnu/store/pmvh852v0x1zbl4r37pcpdqnq6m3bwfk-bootstrap-binaries-0.drv
gsave
1 setlinewidth
0.66667 1 1 edgecolor
newpath 132.4279 368.946 moveto
178.2116 349.5856 287.2379 295.4547 318.9272 208 curveto
332.2615 171.2006 331.9387 124.5873 330.4688 99.3151 curveto
stroke
0.66667 1 1 edgecolor
newpath 333.9383 98.7623 moveto
329.7337 89.0375 lineto
326.9561 99.2617 lineto
closepath fill
1 setlinewidth
solid
0.66667 1 1 edgecolor
newpath 333.9383 98.7623 moveto
329.7337 89.0375 lineto
326.9561 99.2617 lineto
closepath stroke
grestore
% /gnu/store/5syba2bxhh8z79jhq83fzy8fxcx5xb4s-linux-libre-headers-4.4.18.drv->/gnu/store/pmvh852v0x1zbl4r37pcpdqnq6m3bwfk-bootstrap-binaries-0.drv
gsave
1 setlinewidth
0.66667 1 1 edgecolor
newpath 132.9475 368.946 moveto
179.2116 349.5856 288.2379 295.4547 319.9272 208 curveto
333.2615 171.2006 332.9387 124.5873 331.1384 99.3151 curveto
stroke
0.66667 1 1 edgecolor
newpath 334.5962 98.6864 moveto
330.2202 89.0375 lineto
327.624 99.3093 lineto
closepath fill
1 setlinewidth
solid
0.66667 1 1 edgecolor
newpath 334.5962 98.6864 moveto
330.2202 89.0375 lineto
327.624 99.3093 lineto
closepath stroke
grestore
% /gnu/store/5syba2bxhh8z79jhq83fzy8fxcx5xb4s-linux-libre-headers-4.4.18.drv->/gnu/store/wv8sf8h4n9s5cdya223iy2wp3alr92x8-binutils-bootstrap-0.drv
gsave
1 setlinewidth
0.66667 1 1 edgecolor
newpath 125.8009 368.6963 moveto
138.6772 360.0968 157.0106 345.352 164.9272 327 curveto
178.4869 295.5662 156.2252 283.5713 162.9272 250 curveto
172.4447 202.3253 190.6269 195.4646 204.9272 149 curveto
210.0237 132.4401 213.8109 113.0368 216.1523 99.2048 curveto
stroke
0.66667 1 1 edgecolor
newpath 219.6481 99.5091 moveto
217.7759 89.081 lineto
212.7364 98.4006 lineto
closepath fill
1 setlinewidth
solid
0.66667 1 1 edgecolor
newpath 219.6481 99.5091 moveto
217.7759 89.081 lineto
212.7364 98.4006 lineto
closepath stroke
grestore
endpage
showpage
grestore
%%PageTrailer
%%EndPage: 1
%%Trailer
end
restore
%%EOF
