%!PS-Adobe-3.0 EPSF-3.0
%%Creator: graphviz version 2.49.0 (20210828.1703)
%%Title: G
%%Pages: 1
%%BoundingBox: 36 36 771 679
%%EndComments
save
%%BeginProlog
/DotDict 200 dict def
DotDict begin

/setupLatin1 {
mark
/EncodingVector 256 array def
 EncodingVector 0

ISOLatin1Encoding 0 255 getinterval putinterval
EncodingVector 45 /hyphen put

% Set up ISO Latin 1 character encoding
/starnetISO {
        dup dup findfont dup length dict begin
        { 1 index /FID ne { def }{ pop pop } ifelse
        } forall
        /Encoding EncodingVector def
        currentdict end definefont
} def
/Times-Roman starnetISO def
/Times-Italic starnetISO def
/Times-Bold starnetISO def
/Times-BoldItalic starnetISO def
/Helvetica starnetISO def
/Helvetica-Oblique starnetISO def
/Helvetica-Bold starnetISO def
/Helvetica-BoldOblique starnetISO def
/Courier starnetISO def
/Courier-Oblique starnetISO def
/Courier-Bold starnetISO def
/Courier-BoldOblique starnetISO def
cleartomark
} bind def

%%BeginResource: procset graphviz 0 0
/coord-font-family /Times-Roman def
/default-font-family /Times-Roman def
/coordfont coord-font-family findfont 8 scalefont def

/InvScaleFactor 1.0 def
/set_scale {
       dup 1 exch div /InvScaleFactor exch def
       scale
} bind def

% styles
/solid { [] 0 setdash } bind def
/dashed { [9 InvScaleFactor mul dup ] 0 setdash } bind def
/dotted { [1 InvScaleFactor mul 6 InvScaleFactor mul] 0 setdash } bind def
/invis {/fill {newpath} def /stroke {newpath} def /show {pop newpath} def} bind def
/bold { 2 setlinewidth } bind def
/filled { } bind def
/unfilled { } bind def
/rounded { } bind def
/diagonals { } bind def
/tapered { } bind def

% hooks for setting color 
/nodecolor { sethsbcolor } bind def
/edgecolor { sethsbcolor } bind def
/graphcolor { sethsbcolor } bind def
/nopcolor {pop pop pop} bind def

/beginpage {	% i j npages
	/npages exch def
	/j exch def
	/i exch def
	/str 10 string def
	npages 1 gt {
		gsave
			coordfont setfont
			0 0 moveto
			(\() show i str cvs show (,) show j str cvs show (\)) show
		grestore
	} if
} bind def

/set_font {
	findfont exch
	scalefont setfont
} def

% draw text fitted to its expected width
/alignedtext {			% width text
	/text exch def
	/width exch def
	gsave
		width 0 gt {
			[] 0 setdash
			text stringwidth pop width exch sub text length div 0 text ashow
		} if
	grestore
} def

/boxprim {				% xcorner ycorner xsize ysize
		4 2 roll
		moveto
		2 copy
		exch 0 rlineto
		0 exch rlineto
		pop neg 0 rlineto
		closepath
} bind def

/ellipse_path {
	/ry exch def
	/rx exch def
	/y exch def
	/x exch def
	matrix currentmatrix
	newpath
	x y translate
	rx ry scale
	0 0 1 0 360 arc
	setmatrix
} bind def

/endpage { showpage } bind def
/showpage { } def

/layercolorseq
	[	% layer color sequence - darkest to lightest
		[0 0 0]
		[.2 .8 .8]
		[.4 .8 .8]
		[.6 .8 .8]
		[.8 .8 .8]
	]
def

/layerlen layercolorseq length def

/setlayer {/maxlayer exch def /curlayer exch def
	layercolorseq curlayer 1 sub layerlen mod get
	aload pop sethsbcolor
	/nodecolor {nopcolor} def
	/edgecolor {nopcolor} def
	/graphcolor {nopcolor} def
} bind def

/onlayer { curlayer ne {invis} if } def

/onlayers {
	/myupper exch def
	/mylower exch def
	curlayer mylower lt
	curlayer myupper gt
	or
	{invis} if
} def

/curlayer 0 def

%%EndResource
%%EndProlog
%%BeginSetup
14 default-font-family set_font
% /arrowlength 10 def
% /arrowwidth 5 def

% make sure pdfmark is harmless for PS-interpreters other than Distiller
/pdfmark where {pop} {userdict /pdfmark /cleartomark load put} ifelse
% make '<<' and '>>' safe on PS Level 1 devices
/languagelevel where {pop languagelevel}{1} ifelse
2 lt {
    userdict (<<) cvn ([) cvn load put
    userdict (>>) cvn ([) cvn load put
} if

%%EndSetup
setupLatin1
%%Page: 1 1
%%PageBoundingBox: 36 36 771 679
%%PageOrientation: Portrait
0 0 1 beginpage
gsave
36 36 735 643 boxprim clip newpath
1 1 set_scale 0 rotate 40 40 translate
% /nix/store/x60397za40lx0n88f51a2csfdq5xvb19-gcc-bootstrap-0.drv
gsave
0 0 1 nodecolor
newpath 578.9418 38 moveto
471.9418 38 lineto
471.9418 20 lineto
578.9418 20 lineto
closepath fill
1 setlinewidth
filled
0 0 0 nodecolor
newpath 578.9418 38 moveto
471.9418 38 lineto
471.9418 20 lineto
578.9418 20 lineto
closepath stroke
0 0 0 nodecolor
9 /Helvetica set_font
479.9418 26.8 moveto 91 (gcc-bootstrap-0.drv) alignedtext
grestore
% /nix/store/3iawic1z95112yfz5y9xdp66qbxxr8l1-tar
gsave
0 0 1 nodecolor
newpath 104.9418 616 moveto
75.9418 616 lineto
75.9418 598 lineto
104.9418 598 lineto
closepath fill
1 setlinewidth
filled
0 0 0 nodecolor
newpath 104.9418 616 moveto
75.9418 616 lineto
75.9418 598 lineto
104.9418 598 lineto
closepath stroke
0 0 0 nodecolor
9 /Helvetica set_font
83.9418 604.8 moveto 13 (tar) alignedtext
grestore
% /nix/store/3iawic1z95112yfz5y9xdp66qbxxr8l1-tar->/nix/store/x60397za40lx0n88f51a2csfdq5xvb19-gcc-bootstrap-0.drv
gsave
1 setlinewidth
0 0 0 edgecolor
newpath 75.8692 597.8735 moveto
56.717 586.2872 23.8259 563.0532 9.4418 533 curveto
-7.8537 496.8641 4.4418 483.0617 4.4418 443 curveto
4.4418 443 4.4418 443 4.4418 193 curveto
4.4418 126.7718 61.885 128.8152 122.4418 102 curveto
235.0876 52.1193 379.9481 36.7776 461.7551 32.0707 curveto
stroke
0 0 0 edgecolor
newpath 462.1014 35.5572 moveto
471.8982 31.5233 lineto
461.7241 28.5674 lineto
closepath fill
1 setlinewidth
solid
0 0 0 edgecolor
newpath 462.1014 35.5572 moveto
471.8982 31.5233 lineto
461.7241 28.5674 lineto
closepath stroke
grestore
% /nix/store/4sv9xhcjap6byca130fzpzzjalb7iixv-glibc-bootstrap-0.drv
gsave
0 0 1 nodecolor
newpath 251.4418 120 moveto
139.4418 120 lineto
139.4418 102 lineto
251.4418 102 lineto
closepath fill
1 setlinewidth
filled
0 0 0 nodecolor
newpath 251.4418 120 moveto
139.4418 120 lineto
139.4418 102 lineto
251.4418 102 lineto
closepath stroke
0 0 0 nodecolor
9 /Helvetica set_font
147.4418 108.8 moveto 96 (glibc-bootstrap-0.drv) alignedtext
grestore
% /nix/store/3iawic1z95112yfz5y9xdp66qbxxr8l1-tar->/nix/store/4sv9xhcjap6byca130fzpzzjalb7iixv-glibc-bootstrap-0.drv
gsave
1 setlinewidth
0.66667 1 1 edgecolor
newpath 76.931 597.8655 moveto
58.8098 586.1096 27.3092 562.5088 13.4418 533 curveto
-3.6087 496.7179 7.4418 483.0888 7.4418 443 curveto
7.4418 443 7.4418 443 7.4418 275 curveto
7.4418 232.2408 12.4625 216.4412 41.4418 185 curveto
71.0084 152.9215 117.6028 133.5786 151.8024 122.9423 curveto
stroke
0.66667 1 1 edgecolor
newpath 152.9541 126.2513 moveto
161.5395 120.0431 lineto
150.9565 119.5424 lineto
closepath fill
1 setlinewidth
solid
0.66667 1 1 edgecolor
newpath 152.9541 126.2513 moveto
161.5395 120.0431 lineto
150.9565 119.5424 lineto
closepath stroke
grestore
% /nix/store/r3dsy5j2c16sv26raala6kahff7w18hb-gcc-bootstrap-0-guile-builder
gsave
0 0 1 nodecolor
newpath 719.4418 451 moveto
571.4418 451 lineto
571.4418 433 lineto
719.4418 433 lineto
closepath fill
1 setlinewidth
filled
0 0 0 nodecolor
newpath 719.4418 451 moveto
571.4418 451 lineto
571.4418 433 lineto
719.4418 433 lineto
closepath stroke
0 0 0 nodecolor
9 /Helvetica set_font
579.4418 439.8 moveto 132 (gcc-bootstrap-0-guile-builder) alignedtext
grestore
% /nix/store/3iawic1z95112yfz5y9xdp66qbxxr8l1-tar->/nix/store/r3dsy5j2c16sv26raala6kahff7w18hb-gcc-bootstrap-0-guile-builder
gsave
1 setlinewidth
0.83137 1 1 edgecolor
newpath 105.023 606.3829 moveto
151.7608 606.867 300.1057 602.5515 391.4418 533 curveto
398.7227 527.4556 394.2988 520.7211 401.4418 515 curveto
447.0102 478.5021 510.576 460.4991 561.4032 451.6223 curveto
stroke
0.83137 1 1 edgecolor
newpath 562.0973 455.0551 moveto
571.3897 449.9659 lineto
560.9518 448.1494 lineto
closepath fill
1 setlinewidth
solid
0.83137 1 1 edgecolor
newpath 562.0973 455.0551 moveto
571.3897 449.9659 lineto
560.9518 448.1494 lineto
closepath stroke
grestore
% /nix/store/8iivk9hpnps21yrbq3zzsxgzv9ixbhgh-glibc-bootstrap-0-guile-builder
gsave
0 0 1 nodecolor
newpath 166.9418 533 moveto
13.9418 533 lineto
13.9418 515 lineto
166.9418 515 lineto
closepath fill
1 setlinewidth
filled
0 0 0 nodecolor
newpath 166.9418 533 moveto
13.9418 533 lineto
13.9418 515 lineto
166.9418 515 lineto
closepath stroke
0 0 0 nodecolor
9 /Helvetica set_font
21.9418 521.8 moveto 137 (glibc-bootstrap-0-guile-builder) alignedtext
grestore
% /nix/store/3iawic1z95112yfz5y9xdp66qbxxr8l1-tar->/nix/store/8iivk9hpnps21yrbq3zzsxgzv9ixbhgh-glibc-bootstrap-0-guile-builder
gsave
1 setlinewidth
0.83137 1 1 edgecolor
newpath 90.4418 597.9373 moveto
90.4418 585.3224 90.4418 560.5904 90.4418 543.4455 curveto
stroke
0.83137 1 1 edgecolor
newpath 93.9419 543.0301 moveto
90.4418 533.0301 lineto
86.9419 543.0301 lineto
closepath fill
1 setlinewidth
solid
0.83137 1 1 edgecolor
newpath 93.9419 543.0301 moveto
90.4418 533.0301 lineto
86.9419 543.0301 lineto
closepath stroke
grestore
% /nix/store/bplka3yqdg8prqq3zdxza6wxlkjdhr2g-build-bootstrap-guile.sh
gsave
0 0 1 nodecolor
newpath 522.4418 533 moveto
398.4418 533 lineto
398.4418 515 lineto
522.4418 515 lineto
closepath fill
1 setlinewidth
filled
0 0 0 nodecolor
newpath 522.4418 533 moveto
398.4418 533 lineto
398.4418 515 lineto
522.4418 515 lineto
closepath stroke
0 0 0 nodecolor
9 /Helvetica set_font
406.4418 521.8 moveto 108 (build-bootstrap-guile.sh) alignedtext
grestore
% /nix/store/3iawic1z95112yfz5y9xdp66qbxxr8l1-tar->/nix/store/bplka3yqdg8prqq3zdxza6wxlkjdhr2g-build-bootstrap-guile.sh
gsave
1 setlinewidth
0 1 1 edgecolor
newpath 104.9462 602.8247 moveto
156.1095 591.6241 329.5981 553.6442 413.8139 535.2077 curveto
stroke
0 1 1 edgecolor
newpath 414.6072 538.617 moveto
423.6273 533.0594 lineto
413.1102 531.779 lineto
closepath fill
1 setlinewidth
solid
0 1 1 edgecolor
newpath 414.6072 538.617 moveto
423.6273 533.0594 lineto
413.1102 531.779 lineto
closepath stroke
grestore
% /nix/store/4sv9xhcjap6byca130fzpzzjalb7iixv-glibc-bootstrap-0.drv->/nix/store/x60397za40lx0n88f51a2csfdq5xvb19-gcc-bootstrap-0.drv
gsave
1 setlinewidth
0 1 1 edgecolor
newpath 228.5943 101.963 moveto
288.7588 87.3777 415.8506 56.5675 482.5361 40.4014 curveto
stroke
0 1 1 edgecolor
newpath 483.4173 43.7892 moveto
492.3112 38.0316 lineto
481.7681 36.9862 lineto
closepath fill
1 setlinewidth
solid
0 1 1 edgecolor
newpath 483.4173 43.7892 moveto
492.3112 38.0316 lineto
481.7681 36.9862 lineto
closepath stroke
grestore
% /nix/store/8cc81w6m04csm52y247xj3gydrbz2niv-xz
gsave
0 0 1 nodecolor
newpath 582.4418 616 moveto
556.4418 616 lineto
556.4418 598 lineto
582.4418 598 lineto
closepath fill
1 setlinewidth
filled
0 0 0 nodecolor
newpath 582.4418 616 moveto
556.4418 616 lineto
556.4418 598 lineto
582.4418 598 lineto
closepath stroke
0 0 0 nodecolor
9 /Helvetica set_font
564.4418 604.8 moveto 10 (xz) alignedtext
grestore
% /nix/store/8cc81w6m04csm52y247xj3gydrbz2niv-xz->/nix/store/x60397za40lx0n88f51a2csfdq5xvb19-gcc-bootstrap-0.drv
gsave
1 setlinewidth
0.33333 1 1 edgecolor
newpath 582.657 600.0461 moveto
620.1403 582.1557 724.4418 525.0061 724.4418 443 curveto
724.4418 443 724.4418 443 724.4418 193 curveto
724.4418 149.9783 720.9152 133.3397 691.4418 102 curveto
660.7543 69.3694 612.7505 50.7512 576.2419 40.6594 curveto
stroke
0.33333 1 1 edgecolor
newpath 576.8351 37.1963 moveto
566.2734 38.0345 lineto
575.0526 43.9655 lineto
closepath fill
1 setlinewidth
solid
0.33333 1 1 edgecolor
newpath 576.8351 37.1963 moveto
566.2734 38.0345 lineto
575.0526 43.9655 lineto
closepath stroke
grestore
% /nix/store/8cc81w6m04csm52y247xj3gydrbz2niv-xz->/nix/store/4sv9xhcjap6byca130fzpzzjalb7iixv-glibc-bootstrap-0.drv
gsave
1 setlinewidth
0.83137 1 1 edgecolor
newpath 567.1761 597.7263 moveto
560.4965 571.5347 543.234 488.8763 574.4418 433 curveto
600.108 387.0455 639.3485 408.1026 673.4418 368 curveto
704.4065 331.5773 733.6737 308.7817 710.4418 267 curveto
676.8788 206.6385 642.7802 210.1105 578.4418 185 curveto
472.2291 143.5465 339.979 125.0399 261.9352 117.2297 curveto
stroke
0.83137 1 1 edgecolor
newpath 262.0498 113.7245 moveto
251.7582 116.2413 lineto
261.373 120.6917 lineto
closepath fill
1 setlinewidth
solid
0.83137 1 1 edgecolor
newpath 262.0498 113.7245 moveto
251.7582 116.2413 lineto
261.373 120.6917 lineto
closepath stroke
grestore
% /nix/store/8cc81w6m04csm52y247xj3gydrbz2niv-xz->/nix/store/r3dsy5j2c16sv26raala6kahff7w18hb-gcc-bootstrap-0-guile-builder
gsave
1 setlinewidth
0.090196 0.38824 0.87059 edgecolor
newpath 581.6773 597.8246 moveto
598.4106 585.8529 627.7967 561.817 640.4418 533 curveto
650.5961 509.859 649.9293 480.101 648.0528 461.282 curveto
stroke
0.090196 0.38824 0.87059 edgecolor
newpath 651.5001 460.6371 moveto
646.814 451.135 lineto
644.5517 461.4855 lineto
closepath fill
1 setlinewidth
solid
0.090196 0.38824 0.87059 edgecolor
newpath 651.5001 460.6371 moveto
646.814 451.135 lineto
644.5517 461.4855 lineto
closepath stroke
grestore
% /nix/store/8cc81w6m04csm52y247xj3gydrbz2niv-xz->/nix/store/8iivk9hpnps21yrbq3zzsxgzv9ixbhgh-glibc-bootstrap-0-guile-builder
gsave
1 setlinewidth
0.090196 0.38824 0.87059 edgecolor
newpath 556.1046 603.0441 moveto
548.8301 601.4693 539.6578 599.5441 531.4418 598 curveto
397.3213 572.7937 239.371 547.7711 153.6152 534.5737 curveto
stroke
0.090196 0.38824 0.87059 edgecolor
newpath 153.937 531.0821 moveto
143.5215 533.0236 lineto
152.8744 538.001 lineto
closepath fill
1 setlinewidth
solid
0.090196 0.38824 0.87059 edgecolor
newpath 153.937 531.0821 moveto
143.5215 533.0236 lineto
152.8744 538.001 lineto
closepath stroke
grestore
% /nix/store/8cc81w6m04csm52y247xj3gydrbz2niv-xz->/nix/store/bplka3yqdg8prqq3zdxza6wxlkjdhr2g-build-bootstrap-guile.sh
gsave
1 setlinewidth
0.66667 1 1 edgecolor
newpath 558.5919 597.9373 moveto
540.1472 584.2307 502.4528 556.2192 479.5202 539.1776 curveto
stroke
0.66667 1 1 edgecolor
newpath 481.3618 536.1855 moveto
471.2477 533.0301 lineto
477.1865 541.804 lineto
closepath fill
1 setlinewidth
solid
0.66667 1 1 edgecolor
newpath 481.3618 536.1855 moveto
471.2477 533.0301 lineto
477.1865 541.804 lineto
closepath stroke
grestore
% /nix/store/96yx6013dhggr3mpg5ayxv8dm9mv2ghv-module-import.drv
gsave
0 0 1 nodecolor
newpath 113.9418 368 moveto
12.9418 368 lineto
12.9418 350 lineto
113.9418 350 lineto
closepath fill
1 setlinewidth
filled
0 0 0 nodecolor
newpath 113.9418 368 moveto
12.9418 368 lineto
12.9418 350 lineto
113.9418 350 lineto
closepath stroke
0 0 0 nodecolor
9 /Helvetica set_font
20.9418 356.8 moveto 85 (module-import.drv) alignedtext
grestore
% /nix/store/96yx6013dhggr3mpg5ayxv8dm9mv2ghv-module-import.drv->/nix/store/x60397za40lx0n88f51a2csfdq5xvb19-gcc-bootstrap-0.drv
gsave
1 setlinewidth
0.66667 1 1 edgecolor
newpath 63.0757 349.7846 moveto
61.9694 314.0945 62.6294 171.1999 139.4418 102 curveto
185.9736 60.0797 364.5687 41.2439 461.6743 33.9508 curveto
stroke
0.66667 1 1 edgecolor
newpath 461.9504 37.44 moveto
471.6682 33.2194 lineto
461.4394 30.4587 lineto
closepath fill
1 setlinewidth
solid
0.66667 1 1 edgecolor
newpath 461.9504 37.44 moveto
471.6682 33.2194 lineto
461.4394 30.4587 lineto
closepath stroke
grestore
% /nix/store/96yx6013dhggr3mpg5ayxv8dm9mv2ghv-module-import.drv->/nix/store/4sv9xhcjap6byca130fzpzzjalb7iixv-glibc-bootstrap-0.drv
gsave
1 setlinewidth
0 0 0 edgecolor
newpath 67.025 349.8599 moveto
74.1461 333.8136 90.7481 297.0472 106.4418 267 curveto
133.1709 215.8242 168.0603 157.1598 185.1284 128.9258 curveto
stroke
0 0 0 edgecolor
newpath 188.185 130.6354 moveto
190.3798 120.2704 lineto
182.2004 127.0044 lineto
closepath fill
1 setlinewidth
solid
0 0 0 edgecolor
newpath 188.185 130.6354 moveto
190.3798 120.2704 lineto
182.2004 127.0044 lineto
closepath stroke
grestore
% /nix/store/y4n7rzysx6qz3p0n91dw9qz5w93l6iqv-module-import-compiled.drv
gsave
0 0 1 nodecolor
newpath 252.4418 285 moveto
106.4418 285 lineto
106.4418 267 lineto
252.4418 267 lineto
closepath fill
1 setlinewidth
filled
0 0 0 nodecolor
newpath 252.4418 285 moveto
106.4418 285 lineto
106.4418 267 lineto
252.4418 267 lineto
closepath stroke
0 0 0 nodecolor
9 /Helvetica set_font
114.4418 273.8 moveto 130 (module-import-compiled.drv) alignedtext
grestore
% /nix/store/96yx6013dhggr3mpg5ayxv8dm9mv2ghv-module-import.drv->/nix/store/y4n7rzysx6qz3p0n91dw9qz5w93l6iqv-module-import-compiled.drv
gsave
1 setlinewidth
0 0 0 edgecolor
newpath 74.9884 349.9373 moveto
94.7044 336.17 135.0882 307.971 159.4611 290.952 curveto
stroke
0 0 0 edgecolor
newpath 161.7467 293.6249 moveto
167.9418 285.0301 lineto
157.7391 287.8856 lineto
closepath fill
1 setlinewidth
solid
0 0 0 edgecolor
newpath 161.7467 293.6249 moveto
167.9418 285.0301 lineto
157.7391 287.8856 lineto
closepath stroke
grestore
% /nix/store/fl9cwcczfdv73vq5sr0c4rd5hqzrgvac-gcc-4.7.2.tar.xz.drv
gsave
0 0 1 nodecolor
newpath 577.9418 203 moveto
472.9418 203 lineto
472.9418 185 lineto
577.9418 185 lineto
closepath fill
1 setlinewidth
filled
0 0 0 nodecolor
newpath 577.9418 203 moveto
472.9418 203 lineto
472.9418 185 lineto
577.9418 185 lineto
closepath stroke
0 0 0 nodecolor
9 /Helvetica set_font
480.9418 191.8 moveto 89 (gcc-4.7.2.tar.xz.drv) alignedtext
grestore
% /nix/store/fl9cwcczfdv73vq5sr0c4rd5hqzrgvac-gcc-4.7.2.tar.xz.drv->/nix/store/x60397za40lx0n88f51a2csfdq5xvb19-gcc-bootstrap-0.drv
gsave
1 setlinewidth
0.83137 1 1 edgecolor
newpath 525.4418 184.6927 moveto
525.4418 159.5129 525.4418 83.6144 525.4418 48.3621 curveto
stroke
0.83137 1 1 edgecolor
newpath 528.9419 48.0971 moveto
525.4418 38.0971 lineto
521.9419 48.0972 lineto
closepath fill
1 setlinewidth
solid
0.83137 1 1 edgecolor
newpath 528.9419 48.0971 moveto
525.4418 38.0971 lineto
521.9419 48.0972 lineto
closepath stroke
grestore
% /nix/store/jaaqdl979wjirnbxz1jqsipg22nva5n4-bash
gsave
0 0 1 nodecolor
newpath 643.4418 533 moveto
605.4418 533 lineto
605.4418 515 lineto
643.4418 515 lineto
closepath fill
1 setlinewidth
filled
0 0 0 nodecolor
newpath 643.4418 533 moveto
605.4418 533 lineto
605.4418 515 lineto
643.4418 515 lineto
closepath stroke
0 0 0 nodecolor
9 /Helvetica set_font
613.4418 521.8 moveto 22 (bash) alignedtext
grestore
% /nix/store/jaaqdl979wjirnbxz1jqsipg22nva5n4-bash->/nix/store/x60397za40lx0n88f51a2csfdq5xvb19-gcc-bootstrap-0.drv
gsave
1 setlinewidth
0.090196 0.38824 0.87059 edgecolor
newpath 642.4458 514.8216 moveto
664.3232 503.7996 700.3072 481.9297 716.4418 451 curveto
735.1758 415.0872 721.4418 400.5054 721.4418 360 curveto
721.4418 360 721.4418 360 721.4418 193 curveto
721.4418 149.1709 713.9336 133.4839 683.4418 102 curveto
652.8066 70.3682 605.687 51.3921 570.871 40.928 curveto
stroke
0.090196 0.38824 0.87059 edgecolor
newpath 571.5259 37.4746 moveto
560.948 38.0741 lineto
569.591 44.2019 lineto
closepath fill
1 setlinewidth
solid
0.090196 0.38824 0.87059 edgecolor
newpath 571.5259 37.4746 moveto
560.948 38.0741 lineto
569.591 44.2019 lineto
closepath stroke
grestore
% /nix/store/jaaqdl979wjirnbxz1jqsipg22nva5n4-bash->/nix/store/r3dsy5j2c16sv26raala6kahff7w18hb-gcc-bootstrap-0-guile-builder
gsave
1 setlinewidth
0 0 0 edgecolor
newpath 626.61 514.7399 moveto
629.911 502.1646 636.2783 477.9083 640.6894 461.104 curveto
stroke
0 0 0 edgecolor
newpath 644.1001 461.896 moveto
643.2538 451.335 lineto
637.3295 460.1186 lineto
closepath fill
1 setlinewidth
solid
0 0 0 edgecolor
newpath 644.1001 461.896 moveto
643.2538 451.335 lineto
637.3295 460.1186 lineto
closepath stroke
grestore
% /nix/store/x9x1a86flhx15cams7235rfy5gc5cww1-guile-bootstrap-2.0.drv
gsave
0 0 1 nodecolor
newpath 498.9418 451 moveto
377.9418 451 lineto
377.9418 433 lineto
498.9418 433 lineto
closepath fill
1 setlinewidth
filled
0 0 0 nodecolor
newpath 498.9418 451 moveto
377.9418 451 lineto
377.9418 433 lineto
498.9418 433 lineto
closepath stroke
0 0 0 nodecolor
9 /Helvetica set_font
385.9418 439.8 moveto 105 (guile-bootstrap-2.0.drv) alignedtext
grestore
% /nix/store/jaaqdl979wjirnbxz1jqsipg22nva5n4-bash->/nix/store/x9x1a86flhx15cams7235rfy5gc5cww1-guile-bootstrap-2.0.drv
gsave
1 setlinewidth
0 0 0 edgecolor
newpath 605.5835 514.8889 moveto
572.7734 500.7771 505.0263 471.6385 466.6206 455.1199 curveto
stroke
0 0 0 edgecolor
newpath 467.6426 451.7496 moveto
457.0734 451.0136 lineto
464.8768 458.18 lineto
closepath fill
1 setlinewidth
solid
0 0 0 edgecolor
newpath 467.6426 451.7496 moveto
457.0734 451.0136 lineto
464.8768 458.18 lineto
closepath stroke
grestore
% /nix/store/r3dsy5j2c16sv26raala6kahff7w18hb-gcc-bootstrap-0-guile-builder->/nix/store/x60397za40lx0n88f51a2csfdq5xvb19-gcc-bootstrap-0.drv
gsave
1 setlinewidth
0 0 0 edgecolor
newpath 656.9012 432.9024 moveto
672.8917 420.8507 701.2994 396.5266 713.4418 368 curveto
729.3056 330.7303 718.4418 317.5054 718.4418 277 curveto
718.4418 277 718.4418 277 718.4418 193 curveto
718.4418 148.0759 706.2117 133.7623 674.4418 102 curveto
643.9686 71.5342 598.0581 52.0527 565.2588 41.142 curveto
stroke
0 0 0 edgecolor
newpath 566.1233 37.7439 moveto
555.5323 38.0285 lineto
563.9892 44.4106 lineto
closepath fill
1 setlinewidth
solid
0 0 0 edgecolor
newpath 566.1233 37.7439 moveto
555.5323 38.0285 lineto
563.9892 44.4106 lineto
closepath stroke
grestore
% /nix/store/x9x1a86flhx15cams7235rfy5gc5cww1-guile-bootstrap-2.0.drv->/nix/store/x60397za40lx0n88f51a2csfdq5xvb19-gcc-bootstrap-0.drv
gsave
1 setlinewidth
0 1 1 edgecolor
newpath 494.5509 432.9816 moveto
574.7132 418.0014 712.4418 377.6224 712.4418 277 curveto
712.4418 277 712.4418 277 712.4418 193 curveto
712.4418 112.5202 612.801 62.6815 558.9866 41.6332 curveto
stroke
0 1 1 edgecolor
newpath 560.0972 38.3112 moveto
549.5059 38.0371 lineto
557.6146 44.8562 lineto
closepath fill
1 setlinewidth
solid
0 1 1 edgecolor
newpath 560.0972 38.3112 moveto
549.5059 38.0371 lineto
557.6146 44.8562 lineto
closepath stroke
grestore
% /nix/store/x9x1a86flhx15cams7235rfy5gc5cww1-guile-bootstrap-2.0.drv->/nix/store/4sv9xhcjap6byca130fzpzzjalb7iixv-glibc-bootstrap-0.drv
gsave
1 setlinewidth
0.33333 1 1 edgecolor
newpath 435.8352 432.9767 moveto
428.9481 411.9437 410.388 356.3888 404.4418 350 curveto
357.1533 299.1927 310.0325 335.5243 262.4418 285 curveto
251.2412 273.1091 215.7167 171.4202 201.4539 129.7245 curveto
stroke
0.33333 1 1 edgecolor
newpath 204.7098 128.4278 moveto
198.1722 120.0906 lineto
198.0837 130.685 lineto
closepath fill
1 setlinewidth
solid
0.33333 1 1 edgecolor
newpath 204.7098 128.4278 moveto
198.1722 120.0906 lineto
198.0837 130.685 lineto
closepath stroke
grestore
% /nix/store/x9x1a86flhx15cams7235rfy5gc5cww1-guile-bootstrap-2.0.drv->/nix/store/96yx6013dhggr3mpg5ayxv8dm9mv2ghv-module-import.drv
gsave
1 setlinewidth
0.33333 1 1 edgecolor
newpath 401.1143 432.9373 moveto
332.4634 418.1087 186.3 386.5374 110.7888 370.227 curveto
stroke
0.33333 1 1 edgecolor
newpath 111.1318 366.7204 moveto
100.6182 368.0301 lineto
109.6538 373.5626 lineto
closepath fill
1 setlinewidth
solid
0.33333 1 1 edgecolor
newpath 111.1318 366.7204 moveto
100.6182 368.0301 lineto
109.6538 373.5626 lineto
closepath stroke
grestore
% /nix/store/x9x1a86flhx15cams7235rfy5gc5cww1-guile-bootstrap-2.0.drv->/nix/store/fl9cwcczfdv73vq5sr0c4rd5hqzrgvac-gcc-4.7.2.tar.xz.drv
gsave
1 setlinewidth
0 1 1 edgecolor
newpath 489.707 432.9179 moveto
527.4162 423.9987 576.164 405.5687 600.4418 368 curveto
604.7838 361.2809 602.3037 357.7803 600.4418 350 curveto
592.9014 318.4909 581.6275 314.128 567.4418 285 curveto
555.2679 260.0031 541.7666 230.7887 533.4402 212.5875 curveto
stroke
0 1 1 edgecolor
newpath 536.6211 211.1272 moveto
529.2864 203.4818 lineto
530.2525 214.0325 lineto
closepath fill
1 setlinewidth
solid
0 1 1 edgecolor
newpath 536.6211 211.1272 moveto
529.2864 203.4818 lineto
530.2525 214.0325 lineto
closepath stroke
grestore
% /nix/store/x9x1a86flhx15cams7235rfy5gc5cww1-guile-bootstrap-2.0.drv->/nix/store/y4n7rzysx6qz3p0n91dw9qz5w93l6iqv-module-import-compiled.drv
gsave
1 setlinewidth
0 1 1 edgecolor
newpath 435.603 432.9366 moveto
428.1027 411.8038 407.8925 356.0234 401.4418 350 curveto
363.5238 314.5939 308.0993 296.345 262.1166 286.9471 curveto
stroke
0 1 1 edgecolor
newpath 262.6409 283.4836 moveto
252.1578 285.018 lineto
261.3097 290.3559 lineto
closepath fill
1 setlinewidth
solid
0 1 1 edgecolor
newpath 262.6409 283.4836 moveto
252.1578 285.018 lineto
261.3097 290.3559 lineto
closepath stroke
grestore
% /nix/store/wdwrkg02gn28bkpbxgdb2nv558v8s3ji-glibc-2.17.tar.xz.drv
gsave
0 0 1 nodecolor
newpath 386.9418 203 moveto
279.9418 203 lineto
279.9418 185 lineto
386.9418 185 lineto
closepath fill
1 setlinewidth
filled
0 0 0 nodecolor
newpath 386.9418 203 moveto
279.9418 203 lineto
279.9418 185 lineto
386.9418 185 lineto
closepath stroke
0 0 0 nodecolor
9 /Helvetica set_font
287.9418 191.8 moveto 91 (glibc-2.17.tar.xz.drv) alignedtext
grestore
% /nix/store/x9x1a86flhx15cams7235rfy5gc5cww1-guile-bootstrap-2.0.drv->/nix/store/wdwrkg02gn28bkpbxgdb2nv558v8s3ji-glibc-2.17.tar.xz.drv
gsave
1 setlinewidth
0.83137 1 1 edgecolor
newpath 435.4768 432.5801 moveto
430.8601 419.117 422.0101 391.8312 417.4418 368 curveto
408.9493 323.6983 427.0173 307.6394 407.4418 267 curveto
395.717 242.6591 372.1462 222.0216 354.7431 209.1645 curveto
stroke
0.83137 1 1 edgecolor
newpath 356.4805 206.1057 moveto
346.3 203.1718 lineto
352.4289 211.814 lineto
closepath fill
1 setlinewidth
solid
0.83137 1 1 edgecolor
newpath 356.4805 206.1057 moveto
346.3 203.1718 lineto
352.4289 211.814 lineto
closepath stroke
grestore
% /nix/store/kvk5wp8c9rzvvrmq5fv5r58l78q8i6ch-module-import.drv
gsave
0 0 1 nodecolor
newpath 403.9418 368 moveto
302.9418 368 lineto
302.9418 350 lineto
403.9418 350 lineto
closepath fill
1 setlinewidth
filled
0 0 0 nodecolor
newpath 403.9418 368 moveto
302.9418 368 lineto
302.9418 350 lineto
403.9418 350 lineto
closepath stroke
0 0 0 nodecolor
9 /Helvetica set_font
310.9418 356.8 moveto 85 (module-import.drv) alignedtext
grestore
% /nix/store/x9x1a86flhx15cams7235rfy5gc5cww1-guile-bootstrap-2.0.drv->/nix/store/kvk5wp8c9rzvvrmq5fv5r58l78q8i6ch-module-import.drv
gsave
1 setlinewidth
0.090196 0.38824 0.87059 edgecolor
newpath 429.9809 432.9373 moveto
415.852 419.4733 387.2384 392.2063 369.2797 375.0926 curveto
stroke
0.090196 0.38824 0.87059 edgecolor
newpath 371.5223 372.395 moveto
361.8684 368.0301 lineto
366.6932 377.4626 lineto
closepath fill
1 setlinewidth
solid
0.090196 0.38824 0.87059 edgecolor
newpath 371.5223 372.395 moveto
361.8684 368.0301 lineto
366.6932 377.4626 lineto
closepath stroke
grestore
% /nix/store/pzv319p3q7raiad7nq7fcdw9rafzp14k-module-import-compiled.drv
gsave
0 0 1 nodecolor
newpath 560.4418 285 moveto
414.4418 285 lineto
414.4418 267 lineto
560.4418 267 lineto
closepath fill
1 setlinewidth
filled
0 0 0 nodecolor
newpath 560.4418 285 moveto
414.4418 285 lineto
414.4418 267 lineto
560.4418 267 lineto
closepath stroke
0 0 0 nodecolor
9 /Helvetica set_font
422.4418 273.8 moveto 130 (module-import-compiled.drv) alignedtext
grestore
% /nix/store/x9x1a86flhx15cams7235rfy5gc5cww1-guile-bootstrap-2.0.drv->/nix/store/pzv319p3q7raiad7nq7fcdw9rafzp14k-module-import-compiled.drv
gsave
1 setlinewidth
0.66667 1 1 edgecolor
newpath 487.6425 432.918 moveto
524.8227 423.9515 573.4217 405.4588 597.4418 368 curveto
620.3691 332.2453 563.3079 303.5815 523.075 288.5373 curveto
stroke
0.66667 1 1 edgecolor
newpath 524.1151 285.1919 moveto
513.5206 285.0975 lineto
521.7438 291.7781 lineto
closepath fill
1 setlinewidth
solid
0.66667 1 1 edgecolor
newpath 524.1151 285.1919 moveto
513.5206 285.0975 lineto
521.7438 291.7781 lineto
closepath stroke
grestore
% /nix/store/y4n7rzysx6qz3p0n91dw9qz5w93l6iqv-module-import-compiled.drv->/nix/store/x60397za40lx0n88f51a2csfdq5xvb19-gcc-bootstrap-0.drv
gsave
1 setlinewidth
0.33333 1 1 edgecolor
newpath 187.5817 266.785 moveto
204.1084 250.3126 243.1153 212.4743 279.4418 185 curveto
356.8972 126.4194 456.866 68.3489 501.7676 43.1053 curveto
stroke
0.33333 1 1 edgecolor
newpath 503.7125 46.0278 moveto
510.7315 38.0915 lineto
500.2953 39.9185 lineto
closepath fill
1 setlinewidth
solid
0.33333 1 1 edgecolor
newpath 503.7125 46.0278 moveto
510.7315 38.0915 lineto
500.2953 39.9185 lineto
closepath stroke
grestore
% /nix/store/y4n7rzysx6qz3p0n91dw9qz5w93l6iqv-module-import-compiled.drv->/nix/store/4sv9xhcjap6byca130fzpzzjalb7iixv-glibc-bootstrap-0.drv
gsave
1 setlinewidth
0.66667 1 1 edgecolor
newpath 180.2572 266.6927 moveto
182.7288 241.5129 190.179 165.6144 193.6393 130.3621 curveto
stroke
0.66667 1 1 edgecolor
newpath 197.1532 130.3912 moveto
194.6469 120.0971 lineto
190.1867 129.7073 lineto
closepath fill
1 setlinewidth
solid
0.66667 1 1 edgecolor
newpath 197.1532 130.3912 moveto
194.6469 120.0971 lineto
190.1867 129.7073 lineto
closepath stroke
grestore
% /nix/store/8iivk9hpnps21yrbq3zzsxgzv9ixbhgh-glibc-bootstrap-0-guile-builder->/nix/store/4sv9xhcjap6byca130fzpzzjalb7iixv-glibc-bootstrap-0.drv
gsave
1 setlinewidth
0.090196 0.38824 0.87059 edgecolor
newpath 79.4796 514.8621 moveto
64.1241 502.7916 36.6168 478.5786 23.4418 451 curveto
5.8307 414.1356 10.4418 400.8551 10.4418 360 curveto
10.4418 360 10.4418 360 10.4418 275 curveto
10.4418 195.0082 109.0168 144.945 162.2557 123.7399 curveto
stroke
0.090196 0.38824 0.87059 edgecolor
newpath 163.5687 126.9848 moveto
171.635 120.1156 lineto
161.0456 120.4554 lineto
closepath fill
1 setlinewidth
solid
0.090196 0.38824 0.87059 edgecolor
newpath 163.5687 126.9848 moveto
171.635 120.1156 lineto
161.0456 120.4554 lineto
closepath stroke
grestore
% /nix/store/wdwrkg02gn28bkpbxgdb2nv558v8s3ji-glibc-2.17.tar.xz.drv->/nix/store/4sv9xhcjap6byca130fzpzzjalb7iixv-glibc-bootstrap-0.drv
gsave
1 setlinewidth
0 1 1 edgecolor
newpath 319.7053 184.9373 moveto
295.94 170.9881 246.933 142.2231 218.0723 125.2832 curveto
stroke
0 1 1 edgecolor
newpath 219.5186 122.0737 moveto
209.1227 120.0301 lineto
215.9751 128.1106 lineto
closepath fill
1 setlinewidth
solid
0 1 1 edgecolor
newpath 219.5186 122.0737 moveto
209.1227 120.0301 lineto
215.9751 128.1106 lineto
closepath stroke
grestore
% /nix/store/9zrdfvnrpljryr82an2n1mj6bh2przhn-module-import-guile-builder
gsave
0 0 1 nodecolor
newpath 166.9418 451 moveto
23.9418 451 lineto
23.9418 433 lineto
166.9418 433 lineto
closepath fill
1 setlinewidth
filled
0 0 0 nodecolor
newpath 166.9418 451 moveto
23.9418 451 lineto
23.9418 433 lineto
166.9418 433 lineto
closepath stroke
0 0 0 nodecolor
9 /Helvetica set_font
31.9418 439.8 moveto 127 (module-import-guile-builder) alignedtext
grestore
% /nix/store/9zrdfvnrpljryr82an2n1mj6bh2przhn-module-import-guile-builder->/nix/store/96yx6013dhggr3mpg5ayxv8dm9mv2ghv-module-import.drv
gsave
1 setlinewidth
0 0 0 edgecolor
newpath 92.2565 432.9373 moveto
87.177 420.0798 77.1246 394.6347 70.3415 377.4649 curveto
stroke
0 0 0 edgecolor
newpath 73.5437 376.0446 moveto
66.6141 368.0301 lineto
67.0333 378.6167 lineto
closepath fill
1 setlinewidth
solid
0 0 0 edgecolor
newpath 73.5437 376.0446 moveto
66.6141 368.0301 lineto
67.0333 378.6167 lineto
closepath stroke
grestore
% /nix/store/mj7amprgvl2rgash1nr0v64apik8vc7f-utils.scm
gsave
0 0 1 nodecolor
newpath 229.9418 533 moveto
172.9418 533 lineto
172.9418 515 lineto
229.9418 515 lineto
closepath fill
1 setlinewidth
filled
0 0 0 nodecolor
newpath 229.9418 533 moveto
172.9418 533 lineto
172.9418 515 lineto
229.9418 515 lineto
closepath stroke
0 0 0 nodecolor
9 /Helvetica set_font
180.9418 521.8 moveto 41 (utils.scm) alignedtext
grestore
% /nix/store/mj7amprgvl2rgash1nr0v64apik8vc7f-utils.scm->/nix/store/96yx6013dhggr3mpg5ayxv8dm9mv2ghv-module-import.drv
gsave
1 setlinewidth
0 1 1 edgecolor
newpath 200.0219 514.7479 moveto
196.7805 497.8794 187.5135 458.8625 167.4418 433 curveto
146.6392 406.1958 113.2919 385.2489 89.9832 372.7967 curveto
stroke
0 1 1 edgecolor
newpath 91.47 369.6253 moveto
80.9797 368.1405 lineto
88.2544 375.8431 lineto
closepath fill
1 setlinewidth
solid
0 1 1 edgecolor
newpath 91.47 369.6253 moveto
80.9797 368.1405 lineto
88.2544 375.8431 lineto
closepath stroke
grestore
% /nix/store/mj7amprgvl2rgash1nr0v64apik8vc7f-utils.scm->/nix/store/9zrdfvnrpljryr82an2n1mj6bh2przhn-module-import-guile-builder
gsave
1 setlinewidth
0.66667 1 1 edgecolor
newpath 190.4971 514.7399 moveto
172.472 501.136 136.334 473.862 114.178 457.1405 curveto
stroke
0.66667 1 1 edgecolor
newpath 116.2593 454.3264 moveto
106.169 451.096 lineto
112.0424 459.9138 lineto
closepath fill
1 setlinewidth
solid
0.66667 1 1 edgecolor
newpath 116.2593 454.3264 moveto
106.169 451.096 lineto
112.0424 459.9138 lineto
closepath stroke
grestore
% /nix/store/mj7amprgvl2rgash1nr0v64apik8vc7f-utils.scm->/nix/store/kvk5wp8c9rzvvrmq5fv5r58l78q8i6ch-module-import.drv
gsave
1 setlinewidth
0.83137 1 1 edgecolor
newpath 199.5288 514.9555 moveto
196.0145 498.1366 190.3589 458.688 207.4418 433 curveto
229.4851 399.8529 271.2952 381.1031 304.5431 370.9307 curveto
stroke
0.83137 1 1 edgecolor
newpath 305.9169 374.1772 moveto
314.5551 368.0427 lineto
303.9768 367.4514 lineto
closepath fill
1 setlinewidth
solid
0.83137 1 1 edgecolor
newpath 305.9169 374.1772 moveto
314.5551 368.0427 lineto
303.9768 367.4514 lineto
closepath stroke
grestore
% /nix/store/yfixjx2gpvsi5dhkpdx5gj6gx0xdk1c8-module-import-guile-builder
gsave
0 0 1 nodecolor
newpath 347.9418 451 moveto
204.9418 451 lineto
204.9418 433 lineto
347.9418 433 lineto
closepath fill
1 setlinewidth
filled
0 0 0 nodecolor
newpath 347.9418 451 moveto
204.9418 451 lineto
204.9418 433 lineto
347.9418 433 lineto
closepath stroke
0 0 0 nodecolor
9 /Helvetica set_font
212.9418 439.8 moveto 127 (module-import-guile-builder) alignedtext
grestore
% /nix/store/mj7amprgvl2rgash1nr0v64apik8vc7f-utils.scm->/nix/store/yfixjx2gpvsi5dhkpdx5gj6gx0xdk1c8-module-import-guile-builder
gsave
1 setlinewidth
0.83137 1 1 edgecolor
newpath 209.1856 514.7399 moveto
221.5363 501.5658 245.9058 475.5717 261.6703 458.7562 curveto
stroke
0.83137 1 1 edgecolor
newpath 264.3416 461.0242 moveto
268.6277 451.335 lineto
259.2349 456.2366 lineto
closepath fill
1 setlinewidth
solid
0.83137 1 1 edgecolor
newpath 264.3416 461.0242 moveto
268.6277 451.335 lineto
259.2349 456.2366 lineto
closepath stroke
grestore
% /nix/store/6kslnirvm26fij7wpjqbw617ri4gf5x5-gcc-4.7.2.tar.xz-guile-builder
gsave
0 0 1 nodecolor
newpath 710.4418 285 moveto
564.4418 285 lineto
564.4418 267 lineto
710.4418 267 lineto
closepath fill
1 setlinewidth
filled
0 0 0 nodecolor
newpath 710.4418 285 moveto
564.4418 285 lineto
564.4418 267 lineto
710.4418 267 lineto
closepath stroke
0 0 0 nodecolor
9 /Helvetica set_font
572.4418 273.8 moveto 130 (gcc-4.7.2.tar.xz-guile-builder) alignedtext
grestore
% /nix/store/6kslnirvm26fij7wpjqbw617ri4gf5x5-gcc-4.7.2.tar.xz-guile-builder->/nix/store/fl9cwcczfdv73vq5sr0c4rd5hqzrgvac-gcc-4.7.2.tar.xz.drv
gsave
1 setlinewidth
0.83137 1 1 edgecolor
newpath 625.8776 266.7399 moveto
606.7479 253.0758 568.3103 225.6204 544.9286 208.9192 curveto
stroke
0.83137 1 1 edgecolor
newpath 546.9479 206.0604 moveto
536.7762 203.096 lineto
542.8792 211.7565 lineto
closepath fill
1 setlinewidth
solid
0.83137 1 1 edgecolor
newpath 546.9479 206.0604 moveto
536.7762 203.096 lineto
542.8792 211.7565 lineto
closepath stroke
grestore
% /nix/store/kvk5wp8c9rzvvrmq5fv5r58l78q8i6ch-module-import.drv->/nix/store/fl9cwcczfdv73vq5sr0c4rd5hqzrgvac-gcc-4.7.2.tar.xz.drv
gsave
1 setlinewidth
0.090196 0.38824 0.87059 edgecolor
newpath 359.6981 349.6498 moveto
369.6164 336.2822 389.3686 309.125 404.4418 285 curveto
409.291 277.2387 408.1954 273.6885 414.4418 267 curveto
438.8013 240.9165 474.4805 219.9724 498.7655 207.5375 curveto
stroke
0.090196 0.38824 0.87059 edgecolor
newpath 500.3929 210.637 moveto
507.781 203.0432 lineto
497.2699 204.3723 lineto
closepath fill
1 setlinewidth
solid
0.090196 0.38824 0.87059 edgecolor
newpath 500.3929 210.637 moveto
507.781 203.0432 lineto
497.2699 204.3723 lineto
closepath stroke
grestore
% /nix/store/kvk5wp8c9rzvvrmq5fv5r58l78q8i6ch-module-import.drv->/nix/store/wdwrkg02gn28bkpbxgdb2nv558v8s3ji-glibc-2.17.tar.xz.drv
gsave
1 setlinewidth
0 1 1 edgecolor
newpath 334.7688 349.8892 moveto
312.1296 338.901 275.068 316.9201 259.4418 285 curveto
244.3391 254.1494 281.8291 224.6282 308.7871 208.2461 curveto
stroke
0 1 1 edgecolor
newpath 310.5537 211.2676 moveto
317.4344 203.2111 lineto
307.0314 205.2183 lineto
closepath fill
1 setlinewidth
solid
0 1 1 edgecolor
newpath 310.5537 211.2676 moveto
317.4344 203.2111 lineto
307.0314 205.2183 lineto
closepath stroke
grestore
% /nix/store/kvk5wp8c9rzvvrmq5fv5r58l78q8i6ch-module-import.drv->/nix/store/pzv319p3q7raiad7nq7fcdw9rafzp14k-module-import-compiled.drv
gsave
1 setlinewidth
0.33333 1 1 edgecolor
newpath 366.7801 349.9373 moveto
389.8565 335.9881 437.443 307.2231 465.4671 290.2832 curveto
stroke
0.33333 1 1 edgecolor
newpath 467.41 293.1986 moveto
474.1574 285.0301 lineto
463.7888 287.208 lineto
closepath fill
1 setlinewidth
solid
0.33333 1 1 edgecolor
newpath 467.41 293.1986 moveto
474.1574 285.0301 lineto
463.7888 287.208 lineto
closepath stroke
grestore
% /nix/store/pzv319p3q7raiad7nq7fcdw9rafzp14k-module-import-compiled.drv->/nix/store/fl9cwcczfdv73vq5sr0c4rd5hqzrgvac-gcc-4.7.2.tar.xz.drv
gsave
1 setlinewidth
0 0 0 edgecolor
newpath 491.3653 266.7399 moveto
497.3955 254.0448 509.0803 229.4452 517.0694 212.626 curveto
stroke
0 0 0 edgecolor
newpath 520.3535 213.8695 moveto
521.4826 203.335 lineto
514.0305 210.8661 lineto
closepath fill
1 setlinewidth
solid
0 0 0 edgecolor
newpath 520.3535 213.8695 moveto
521.4826 203.335 lineto
514.0305 210.8661 lineto
closepath stroke
grestore
% /nix/store/pzv319p3q7raiad7nq7fcdw9rafzp14k-module-import-compiled.drv->/nix/store/wdwrkg02gn28bkpbxgdb2nv558v8s3ji-glibc-2.17.tar.xz.drv
gsave
1 setlinewidth
0.33333 1 1 edgecolor
newpath 471.8279 266.8889 moveto
445.0787 252.9932 390.2824 224.5276 358.2507 207.8878 curveto
stroke
0.33333 1 1 edgecolor
newpath 359.5845 204.6366 moveto
349.0969 203.1325 lineto
356.3575 210.8484 lineto
closepath fill
1 setlinewidth
solid
0.33333 1 1 edgecolor
newpath 359.5845 204.6366 moveto
349.0969 203.1325 lineto
356.3575 210.8484 lineto
closepath stroke
grestore
% /nix/store/abagrdbdndkd0y2dwk0nw1gw0g0rhl2z-ftp-client.scm
gsave
0 0 1 nodecolor
newpath 310.9418 533 moveto
231.9418 533 lineto
231.9418 515 lineto
310.9418 515 lineto
closepath fill
1 setlinewidth
filled
0 0 0 nodecolor
newpath 310.9418 533 moveto
231.9418 533 lineto
231.9418 515 lineto
310.9418 515 lineto
closepath stroke
0 0 0 nodecolor
9 /Helvetica set_font
239.9418 521.8 moveto 63 (ftp-client.scm) alignedtext
grestore
% /nix/store/abagrdbdndkd0y2dwk0nw1gw0g0rhl2z-ftp-client.scm->/nix/store/kvk5wp8c9rzvvrmq5fv5r58l78q8i6ch-module-import.drv
gsave
1 setlinewidth
0.33333 1 1 edgecolor
newpath 284.345 514.8497 moveto
301.666 503.1071 331.8307 479.6591 345.4418 451 curveto
356.5373 427.6375 356.743 397.1122 355.4305 378.0303 curveto
stroke
0.33333 1 1 edgecolor
newpath 358.9123 377.6706 moveto
354.527 368.0259 lineto
351.9407 378.3002 lineto
closepath fill
1 setlinewidth
solid
0.33333 1 1 edgecolor
newpath 358.9123 377.6706 moveto
354.527 368.0259 lineto
351.9407 378.3002 lineto
closepath stroke
grestore
% /nix/store/abagrdbdndkd0y2dwk0nw1gw0g0rhl2z-ftp-client.scm->/nix/store/yfixjx2gpvsi5dhkpdx5gj6gx0xdk1c8-module-import-guile-builder
gsave
1 setlinewidth
0.33333 1 1 edgecolor
newpath 271.958 514.7399 moveto
272.7365 502.2844 274.2312 478.3693 275.2801 461.5862 curveto
stroke
0.33333 1 1 edgecolor
newpath 278.7901 461.5339 moveto
275.9208 451.335 lineto
271.8038 461.0972 lineto
closepath fill
1 setlinewidth
solid
0.33333 1 1 edgecolor
newpath 278.7901 461.5339 moveto
275.9208 451.335 lineto
271.8038 461.0972 lineto
closepath stroke
grestore
% /nix/store/dwd2iwd1ban8a8rmx568dpgrbkkidfhw-download.scm
gsave
0 0 1 nodecolor
newpath 394.4418 533 moveto
312.4418 533 lineto
312.4418 515 lineto
394.4418 515 lineto
closepath fill
1 setlinewidth
filled
0 0 0 nodecolor
newpath 394.4418 533 moveto
312.4418 533 lineto
312.4418 515 lineto
394.4418 515 lineto
closepath stroke
0 0 0 nodecolor
9 /Helvetica set_font
320.4418 521.8 moveto 66 (download.scm) alignedtext
grestore
% /nix/store/dwd2iwd1ban8a8rmx568dpgrbkkidfhw-download.scm->/nix/store/kvk5wp8c9rzvvrmq5fv5r58l78q8i6ch-module-import.drv
gsave
1 setlinewidth
0.66667 1 1 edgecolor
newpath 353.4418 514.6927 moveto
353.4418 489.5129 353.4418 413.6144 353.4418 378.3621 curveto
stroke
0.66667 1 1 edgecolor
newpath 356.9419 378.0971 moveto
353.4418 368.0971 lineto
349.9419 378.0972 lineto
closepath fill
1 setlinewidth
solid
0.66667 1 1 edgecolor
newpath 356.9419 378.0971 moveto
353.4418 368.0971 lineto
349.9419 378.0972 lineto
closepath stroke
grestore
% /nix/store/dwd2iwd1ban8a8rmx568dpgrbkkidfhw-download.scm->/nix/store/yfixjx2gpvsi5dhkpdx5gj6gx0xdk1c8-module-import-guile-builder
gsave
1 setlinewidth
0.66667 1 1 edgecolor
newpath 345.4914 514.7399 moveto
332.8113 501.5658 307.792 475.5717 291.6071 458.7562 curveto
stroke
0.66667 1 1 edgecolor
newpath 293.9206 456.1128 moveto
284.4642 451.335 lineto
288.8772 460.9671 lineto
closepath fill
1 setlinewidth
solid
0.66667 1 1 edgecolor
newpath 293.9206 456.1128 moveto
284.4642 451.335 lineto
288.8772 460.9671 lineto
closepath stroke
grestore
% /nix/store/yfixjx2gpvsi5dhkpdx5gj6gx0xdk1c8-module-import-guile-builder->/nix/store/kvk5wp8c9rzvvrmq5fv5r58l78q8i6ch-module-import.drv
gsave
1 setlinewidth
0 0 0 edgecolor
newpath 284.1063 432.9373 moveto
296.7901 419.5946 322.36 392.6964 338.6524 375.5576 curveto
stroke
0 0 0 edgecolor
newpath 341.455 377.6894 moveto
345.8082 368.0301 lineto
336.3816 372.8664 lineto
closepath fill
1 setlinewidth
solid
0 0 0 edgecolor
newpath 341.455 377.6894 moveto
345.8082 368.0301 lineto
336.3816 372.8664 lineto
closepath stroke
grestore
% /nix/store/98gzqlgpm4gxrpl5bzykpqbwrx8ckx8l-module-import-compiled-guile-builder
gsave
0 0 1 nodecolor
newpath 600.9418 368 moveto
413.9418 368 lineto
413.9418 350 lineto
600.9418 350 lineto
closepath fill
1 setlinewidth
filled
0 0 0 nodecolor
newpath 600.9418 368 moveto
413.9418 368 lineto
413.9418 350 lineto
600.9418 350 lineto
closepath stroke
0 0 0 nodecolor
9 /Helvetica set_font
421.9418 356.8 moveto 171 (module-import-compiled-guile-builder) alignedtext
grestore
% /nix/store/98gzqlgpm4gxrpl5bzykpqbwrx8ckx8l-module-import-compiled-guile-builder->/nix/store/pzv319p3q7raiad7nq7fcdw9rafzp14k-module-import-compiled.drv
gsave
1 setlinewidth
0 1 1 edgecolor
newpath 505.451 349.9373 moveto
502.3062 337.2011 496.1118 312.1137 491.8746 294.953 curveto
stroke
0 1 1 edgecolor
newpath 495.2197 293.8995 moveto
489.4245 285.0301 lineto
488.4238 295.5776 lineto
closepath fill
1 setlinewidth
solid
0 1 1 edgecolor
newpath 495.2197 293.8995 moveto
489.4245 285.0301 lineto
488.4238 295.5776 lineto
closepath stroke
grestore
% /nix/store/q7as3jddipj4g6si8lawrdbkjg0zcjvg-glibc-2.17.tar.xz-guile-builder
gsave
0 0 1 nodecolor
newpath 407.9418 285 moveto
258.9418 285 lineto
258.9418 267 lineto
407.9418 267 lineto
closepath fill
1 setlinewidth
filled
0 0 0 nodecolor
newpath 407.9418 285 moveto
258.9418 285 lineto
258.9418 267 lineto
407.9418 267 lineto
closepath stroke
0 0 0 nodecolor
9 /Helvetica set_font
266.9418 273.8 moveto 133 (glibc-2.17.tar.xz-guile-builder) alignedtext
grestore
% /nix/store/q7as3jddipj4g6si8lawrdbkjg0zcjvg-glibc-2.17.tar.xz-guile-builder->/nix/store/wdwrkg02gn28bkpbxgdb2nv558v8s3ji-glibc-2.17.tar.xz.drv
gsave
1 setlinewidth
0.66667 1 1 edgecolor
newpath 333.4418 266.7399 moveto
333.4418 254.2844 333.4418 230.3693 333.4418 213.5862 curveto
stroke
0.66667 1 1 edgecolor
newpath 336.9419 213.335 moveto
333.4418 203.335 lineto
329.9419 213.335 lineto
closepath fill
1 setlinewidth
solid
0.66667 1 1 edgecolor
newpath 336.9419 213.335 moveto
333.4418 203.335 lineto
329.9419 213.335 lineto
closepath stroke
grestore
% /nix/store/bplka3yqdg8prqq3zdxza6wxlkjdhr2g-build-bootstrap-guile.sh->/nix/store/x9x1a86flhx15cams7235rfy5gc5cww1-guile-bootstrap-2.0.drv
gsave
1 setlinewidth
0.090196 0.38824 0.87059 edgecolor
newpath 458.1702 514.7399 moveto
454.712 502.1646 448.0415 477.9083 443.4204 461.104 curveto
stroke
0.090196 0.38824 0.87059 edgecolor
newpath 446.7602 460.049 moveto
440.7339 451.335 lineto
440.0108 461.9051 lineto
closepath fill
1 setlinewidth
solid
0.090196 0.38824 0.87059 edgecolor
newpath 446.7602 460.049 moveto
440.7339 451.335 lineto
440.0108 461.9051 lineto
closepath stroke
grestore
% /nix/store/4xv2y0m6zr2lgi8x8pcb3zxjqxsz69kj-mkdir
gsave
0 0 1 nodecolor
newpath 436.9418 616 moveto
393.9418 616 lineto
393.9418 598 lineto
436.9418 598 lineto
closepath fill
1 setlinewidth
filled
0 0 0 nodecolor
newpath 436.9418 616 moveto
393.9418 616 lineto
393.9418 598 lineto
436.9418 598 lineto
closepath stroke
0 0 0 nodecolor
9 /Helvetica set_font
401.9418 604.8 moveto 27 (mkdir) alignedtext
grestore
% /nix/store/4xv2y0m6zr2lgi8x8pcb3zxjqxsz69kj-mkdir->/nix/store/bplka3yqdg8prqq3zdxza6wxlkjdhr2g-build-bootstrap-guile.sh
gsave
1 setlinewidth
0.33333 1 1 edgecolor
newpath 419.921 597.9373 moveto
427.1315 584.9585 441.4676 559.1535 451.0078 541.9812 curveto
stroke
0.33333 1 1 edgecolor
newpath 454.1837 543.4715 moveto
455.9806 533.0301 lineto
448.0645 540.0719 lineto
closepath fill
1 setlinewidth
solid
0.33333 1 1 edgecolor
newpath 454.1837 543.4715 moveto
455.9806 533.0301 lineto
448.0645 540.0719 lineto
closepath stroke
grestore
% /nix/store/c450lqvaaz3ngx9pfiiiw55rqq6ssfda-guile-2.0.7.tar.xz
gsave
0 0 1 nodecolor
newpath 530.4418 616 moveto
438.4418 616 lineto
438.4418 598 lineto
530.4418 598 lineto
closepath fill
1 setlinewidth
filled
0 0 0 nodecolor
newpath 530.4418 616 moveto
438.4418 616 lineto
438.4418 598 lineto
530.4418 598 lineto
closepath stroke
0 0 0 nodecolor
9 /Helvetica set_font
446.4418 604.8 moveto 76 (guile-2.0.7.tar.xz) alignedtext
grestore
% /nix/store/c450lqvaaz3ngx9pfiiiw55rqq6ssfda-guile-2.0.7.tar.xz->/nix/store/bplka3yqdg8prqq3zdxza6wxlkjdhr2g-build-bootstrap-guile.sh
gsave
1 setlinewidth
0.83137 1 1 edgecolor
newpath 482.0528 597.9373 moveto
478.2791 585.2011 470.8458 560.1137 465.7612 542.953 curveto
stroke
0.83137 1 1 edgecolor
newpath 469.0178 541.6238 moveto
462.821 533.0301 lineto
462.3062 543.6124 lineto
closepath fill
1 setlinewidth
solid
0.83137 1 1 edgecolor
newpath 469.0178 541.6238 moveto
462.821 533.0301 lineto
462.3062 543.6124 lineto
closepath stroke
grestore
% /nix/store/8jiqjlb6zxjys16ca7s6jvxcc620c71k-module-import-compiled-guile-builder
gsave
0 0 1 nodecolor
newpath 301.9418 368 moveto
114.9418 368 lineto
114.9418 350 lineto
301.9418 350 lineto
closepath fill
1 setlinewidth
filled
0 0 0 nodecolor
newpath 301.9418 368 moveto
114.9418 368 lineto
114.9418 350 lineto
301.9418 350 lineto
closepath stroke
0 0 0 nodecolor
9 /Helvetica set_font
122.9418 356.8 moveto 171 (module-import-compiled-guile-builder) alignedtext
grestore
% /nix/store/8jiqjlb6zxjys16ca7s6jvxcc620c71k-module-import-compiled-guile-builder->/nix/store/y4n7rzysx6qz3p0n91dw9qz5w93l6iqv-module-import-compiled.drv
gsave
1 setlinewidth
0.090196 0.38824 0.87059 edgecolor
newpath 205.5551 349.9373 moveto
200.9518 337.0798 191.8418 311.6347 185.6946 294.4649 curveto
stroke
0.090196 0.38824 0.87059 edgecolor
newpath 188.9827 293.2651 moveto
182.3167 285.0301 lineto
182.3923 295.6247 lineto
closepath fill
1 setlinewidth
solid
0.090196 0.38824 0.87059 edgecolor
newpath 188.9827 293.2651 moveto
182.3167 285.0301 lineto
182.3923 295.6247 lineto
closepath stroke
grestore
endpage
showpage
grestore
%%PageTrailer
%%EndPage: 1
%%Trailer
end
restore
%%EOF
