%!PS-Adobe-3.0 EPSF-3.0
%%Creator: graphviz version 2.49.0 (20210828.1703)
%%Title: Guix package
%%Pages: 1
%%BoundingBox: 36 36 260 238
%%EndComments
save
%%BeginProlog
/DotDict 200 dict def
DotDict begin

/setupLatin1 {
mark
/EncodingVector 256 array def
 EncodingVector 0

ISOLatin1Encoding 0 255 getinterval putinterval
EncodingVector 45 /hyphen put

% Set up ISO Latin 1 character encoding
/starnetISO {
        dup dup findfont dup length dict begin
        { 1 index /FID ne { def }{ pop pop } ifelse
        } forall
        /Encoding EncodingVector def
        currentdict end definefont
} def
/Times-Roman starnetISO def
/Times-Italic starnetISO def
/Times-Bold starnetISO def
/Times-BoldItalic starnetISO def
/Helvetica starnetISO def
/Helvetica-Oblique starnetISO def
/Helvetica-Bold starnetISO def
/Helvetica-BoldOblique starnetISO def
/Courier starnetISO def
/Courier-Oblique starnetISO def
/Courier-Bold starnetISO def
/Courier-BoldOblique starnetISO def
cleartomark
} bind def

%%BeginResource: procset graphviz 0 0
/coord-font-family /Times-Roman def
/default-font-family /Times-Roman def
/coordfont coord-font-family findfont 8 scalefont def

/InvScaleFactor 1.0 def
/set_scale {
       dup 1 exch div /InvScaleFactor exch def
       scale
} bind def

% styles
/solid { [] 0 setdash } bind def
/dashed { [9 InvScaleFactor mul dup ] 0 setdash } bind def
/dotted { [1 InvScaleFactor mul 6 InvScaleFactor mul] 0 setdash } bind def
/invis {/fill {newpath} def /stroke {newpath} def /show {pop newpath} def} bind def
/bold { 2 setlinewidth } bind def
/filled { } bind def
/unfilled { } bind def
/rounded { } bind def
/diagonals { } bind def
/tapered { } bind def

% hooks for setting color 
/nodecolor { sethsbcolor } bind def
/edgecolor { sethsbcolor } bind def
/graphcolor { sethsbcolor } bind def
/nopcolor {pop pop pop} bind def

/beginpage {	% i j npages
	/npages exch def
	/j exch def
	/i exch def
	/str 10 string def
	npages 1 gt {
		gsave
			coordfont setfont
			0 0 moveto
			(\() show i str cvs show (,) show j str cvs show (\)) show
		grestore
	} if
} bind def

/set_font {
	findfont exch
	scalefont setfont
} def

% draw text fitted to its expected width
/alignedtext {			% width text
	/text exch def
	/width exch def
	gsave
		width 0 gt {
			[] 0 setdash
			text stringwidth pop width exch sub text length div 0 text ashow
		} if
	grestore
} def

/boxprim {				% xcorner ycorner xsize ysize
		4 2 roll
		moveto
		2 copy
		exch 0 rlineto
		0 exch rlineto
		pop neg 0 rlineto
		closepath
} bind def

/ellipse_path {
	/ry exch def
	/rx exch def
	/y exch def
	/x exch def
	matrix currentmatrix
	newpath
	x y translate
	rx ry scale
	0 0 1 0 360 arc
	setmatrix
} bind def

/endpage { showpage } bind def
/showpage { } def

/layercolorseq
	[	% layer color sequence - darkest to lightest
		[0 0 0]
		[.2 .8 .8]
		[.4 .8 .8]
		[.6 .8 .8]
		[.8 .8 .8]
	]
def

/layerlen layercolorseq length def

/setlayer {/maxlayer exch def /curlayer exch def
	layercolorseq curlayer 1 sub layerlen mod get
	aload pop sethsbcolor
	/nodecolor {nopcolor} def
	/edgecolor {nopcolor} def
	/graphcolor {nopcolor} def
} bind def

/onlayer { curlayer ne {invis} if } def

/onlayers {
	/myupper exch def
	/mylower exch def
	curlayer mylower lt
	curlayer myupper gt
	or
	{invis} if
} def

/curlayer 0 def

%%EndResource
%%EndProlog
%%BeginSetup
14 default-font-family set_font
% /arrowlength 10 def
% /arrowwidth 5 def

% make sure pdfmark is harmless for PS-interpreters other than Distiller
/pdfmark where {pop} {userdict /pdfmark /cleartomark load put} ifelse
% make '<<' and '>>' safe on PS Level 1 devices
/languagelevel where {pop languagelevel}{1} ifelse
2 lt {
    userdict (<<) cvn ([) cvn load put
    userdict (>>) cvn ([) cvn load put
} if

%%EndSetup
setupLatin1
%%Page: 1 1
%%PageBoundingBox: 36 36 260 238
%%PageOrientation: Portrait
0 0 1 beginpage
gsave
36 36 224 202 boxprim clip newpath
1 1 set_scale 0 rotate 40 40 translate
% 72851008
gsave
1 setlinewidth
0 0 0 nodecolor
newpath 125 189 moveto
46 189 lineto
46 171 lineto
125 171 lineto
closepath stroke
0 0 0 nodecolor
9 /Helvetica set_font
54 177.8 moveto 63 (coreutils-8.25) alignedtext
grestore
% 49728512
gsave
1 setlinewidth
0 0 0 nodecolor
newpath 67 65 moveto
0 65 lineto
0 47 lineto
67 47 lineto
closepath stroke
0 0 0 nodecolor
9 /Helvetica set_font
8 53.8 moveto 51 (perl-5.24.0) alignedtext
grestore
% 72851008->49728512
gsave
1 setlinewidth
0.33333 0.23922 0.73725 edgecolor
newpath 52.4895 170.9643 moveto
40.6171 166.3095 28.45 159.0887 21.5 148 curveto
7.3681 125.4524 16.7785 93.6005 25.0311 74.1765 curveto
stroke
0.33333 0.23922 0.73725 edgecolor
newpath 28.2367 75.5827 moveto
29.225 65.034 lineto
21.8742 72.6639 lineto
closepath fill
1 setlinewidth
solid
0.33333 0.23922 0.73725 edgecolor
newpath 28.2367 75.5827 moveto
29.225 65.034 lineto
21.8742 72.6639 lineto
closepath stroke
grestore
% 74872512
gsave
1 setlinewidth
0 0 0 nodecolor
newpath 149.5 148 moveto
87.5 148 lineto
87.5 130 lineto
149.5 130 lineto
closepath stroke
0 0 0 nodecolor
9 /Helvetica set_font
95.5 136.8 moveto 46 (acl-2.2.52) alignedtext
grestore
% 72851008->74872512
gsave
1 setlinewidth
0.33333 0.23922 0.73725 edgecolor
newpath 92.4985 170.7291 moveto
96.0861 166.4892 100.5828 161.1748 104.8232 156.1635 curveto
stroke
0.33333 0.23922 0.73725 edgecolor
newpath 107.724 158.1537 moveto
111.5116 148.259 lineto
102.3803 153.6321 lineto
closepath fill
1 setlinewidth
solid
0.33333 0.23922 0.73725 edgecolor
newpath 107.724 158.1537 moveto
111.5116 148.259 lineto
102.3803 153.6321 lineto
closepath stroke
grestore
% 53180864
gsave
1 setlinewidth
0 0 0 nodecolor
newpath 216 148 moveto
151 148 lineto
151 130 lineto
216 130 lineto
closepath stroke
0 0 0 nodecolor
9 /Helvetica set_font
159 136.8 moveto 49 (gmp-6.1.1) alignedtext
grestore
% 72851008->53180864
gsave
1 setlinewidth
0.33333 0.23922 0.73725 edgecolor
newpath 105.8057 170.9192 moveto
119.6027 165.4285 138.086 158.0729 153.5632 151.9136 curveto
stroke
0.33333 0.23922 0.73725 edgecolor
newpath 155.2232 155.02 moveto
163.2203 148.0705 lineto
152.6349 148.5161 lineto
closepath fill
1 setlinewidth
solid
0.33333 0.23922 0.73725 edgecolor
newpath 155.2232 155.02 moveto
163.2203 148.0705 lineto
152.6349 148.5161 lineto
closepath stroke
grestore
% 75199232
gsave
1 setlinewidth
0 0 0 nodecolor
newpath 86.5 148 moveto
18.5 148 lineto
18.5 130 lineto
86.5 130 lineto
closepath stroke
0 0 0 nodecolor
9 /Helvetica set_font
26.5 136.8 moveto 52 (libcap-2.24) alignedtext
grestore
% 72851008->75199232
gsave
1 setlinewidth
0.33333 0.23922 0.73725 edgecolor
newpath 78.5015 170.7291 moveto
74.9139 166.4892 70.4172 161.1748 66.1768 156.1635 curveto
stroke
0.33333 0.23922 0.73725 edgecolor
newpath 68.6197 153.6321 moveto
59.4884 148.259 lineto
63.276 158.1537 lineto
closepath fill
1 setlinewidth
solid
0.33333 0.23922 0.73725 edgecolor
newpath 68.6197 153.6321 moveto
59.4884 148.259 lineto
63.276 158.1537 lineto
closepath stroke
grestore
% 74872512->49728512
gsave
1 setlinewidth
0 1 1 edgecolor
newpath 119.4713 129.9468 moveto
120.3116 119.1922 120.1486 100.0951 110.5 88 curveto
105.1287 81.2667 87.9844 74.0624 71.2331 68.295 curveto
stroke
0 1 1 edgecolor
newpath 72.1008 64.8956 moveto
61.5076 65.0797 lineto
69.9035 71.5418 lineto
closepath fill
1 setlinewidth
solid
0 1 1 edgecolor
newpath 72.1008 64.8956 moveto
61.5076 65.0797 lineto
69.9035 71.5418 lineto
closepath stroke
grestore
% 74873280
gsave
1 setlinewidth
0 0 0 nodecolor
newpath 199 65 moveto
68 65 lineto
68 47 lineto
199 47 lineto
closepath stroke
0 0 0 nodecolor
9 /Helvetica set_font
76 53.8 moveto 115 (gettext-minimal-0.19.8.1) alignedtext
grestore
% 74872512->74873280
gsave
1 setlinewidth
0 1 1 edgecolor
newpath 119.9931 129.9373 moveto
122.3517 117.2011 126.9975 92.1137 130.1754 74.953 curveto
stroke
0 1 1 edgecolor
newpath 133.6335 75.5003 moveto
132.0129 65.0301 lineto
126.7505 74.2256 lineto
closepath fill
1 setlinewidth
solid
0 1 1 edgecolor
newpath 133.6335 75.5003 moveto
132.0129 65.0301 lineto
126.7505 74.2256 lineto
closepath stroke
grestore
% 74872704
gsave
1 setlinewidth
0 0 0 nodecolor
newpath 110.5 106 moveto
44.5 106 lineto
44.5 88 lineto
110.5 88 lineto
closepath stroke
0 0 0 nodecolor
9 /Helvetica set_font
52.5 94.8 moveto 50 (attr-2.4.47) alignedtext
grestore
% 74872512->74872704
gsave
1 setlinewidth
0 1 1 edgecolor
newpath 110.203 129.9054 moveto
105.3126 125.1343 98.9655 118.9419 93.1658 113.2837 curveto
stroke
0 1 1 edgecolor
newpath 95.3866 110.5606 moveto
85.7846 106.0826 lineto
90.4983 115.5711 lineto
closepath fill
1 setlinewidth
solid
0 1 1 edgecolor
newpath 95.3866 110.5606 moveto
85.7846 106.0826 lineto
90.4983 115.5711 lineto
closepath stroke
grestore
% 50262784
gsave
1 setlinewidth
0 0 0 nodecolor
newpath 216 106 moveto
151 106 lineto
151 88 lineto
216 88 lineto
closepath stroke
0 0 0 nodecolor
9 /Helvetica set_font
159 94.8 moveto 49 (m4-1.4.17) alignedtext
grestore
% 53180864->50262784
gsave
1 setlinewidth
0.11765 0.93725 0.72157 edgecolor
newpath 183.5 129.9054 moveto
183.5 126.0018 183.5 121.1467 183.5 116.4112 curveto
stroke
0.11765 0.93725 0.72157 edgecolor
newpath 187.0001 116.0825 moveto
183.5 106.0826 lineto
180.0001 116.0826 lineto
closepath fill
1 setlinewidth
solid
0.11765 0.93725 0.72157 edgecolor
newpath 187.0001 116.0825 moveto
183.5 106.0826 lineto
180.0001 116.0826 lineto
closepath stroke
grestore
% 75199232->49728512
gsave
1 setlinewidth
0.66667 1 1 edgecolor
newpath 50.0421 129.8885 moveto
48.1326 123.4455 45.4844 114.1888 43.5 106 curveto
41.0287 95.8018 38.662 84.3115 36.8519 75.0222 curveto
stroke
0.66667 1 1 edgecolor
newpath 40.2562 74.1882 moveto
34.9505 65.0176 lineto
33.3793 75.4953 lineto
closepath fill
1 setlinewidth
solid
0.66667 1 1 edgecolor
newpath 40.2562 74.1882 moveto
34.9505 65.0176 lineto
33.3793 75.4953 lineto
closepath stroke
grestore
% 75199232->74872704
gsave
1 setlinewidth
0.66667 1 1 edgecolor
newpath 57.5591 129.9054 moveto
60.27 125.568 63.715 120.0561 66.9759 114.8386 curveto
stroke
0.66667 1 1 edgecolor
newpath 70.1164 116.4176 moveto
72.4484 106.0826 lineto
64.1804 112.7075 lineto
closepath fill
1 setlinewidth
solid
0.66667 1 1 edgecolor
newpath 70.1164 116.4176 moveto
72.4484 106.0826 lineto
64.1804 112.7075 lineto
closepath stroke
grestore
% 41550784
gsave
1 setlinewidth
0 0 0 nodecolor
newpath 168 23 moveto
99 23 lineto
99 5 lineto
168 5 lineto
closepath stroke
0 0 0 nodecolor
9 /Helvetica set_font
107 11.8 moveto 53 (expat-2.2.0) alignedtext
grestore
% 74873280->41550784
gsave
1 setlinewidth
0.49804 1 0.80392 edgecolor
newpath 133.5 46.9054 moveto
133.5 43.0018 133.5 38.1467 133.5 33.4112 curveto
stroke
0.49804 1 0.80392 edgecolor
newpath 137.0001 33.0825 moveto
133.5 23.0826 lineto
130.0001 33.0826 lineto
closepath fill
1 setlinewidth
solid
0.49804 1 0.80392 edgecolor
newpath 137.0001 33.0825 moveto
133.5 23.0826 lineto
130.0001 33.0826 lineto
closepath stroke
grestore
% 74872704->49728512
gsave
1 setlinewidth
0.49804 1 0.80392 edgecolor
newpath 68.1687 87.7291 moveto
63.0352 83.1789 56.5056 77.3914 50.5007 72.0688 curveto
stroke
0.49804 1 0.80392 edgecolor
newpath 52.6229 69.2729 moveto
42.8178 65.259 lineto
47.9797 74.5113 lineto
closepath fill
1 setlinewidth
solid
0.49804 1 0.80392 edgecolor
newpath 52.6229 69.2729 moveto
42.8178 65.259 lineto
47.9797 74.5113 lineto
closepath stroke
grestore
% 74872704->74873280
gsave
1 setlinewidth
0.49804 1 0.80392 edgecolor
newpath 89.1032 87.9192 moveto
96.1613 83.0037 105.3656 76.5936 113.5622 70.8853 curveto
stroke
0.49804 1 0.80392 edgecolor
newpath 115.7058 73.6576 moveto
121.9116 65.0705 lineto
111.7053 67.9133 lineto
closepath fill
1 setlinewidth
solid
0.49804 1 0.80392 edgecolor
newpath 115.7058 73.6576 moveto
121.9116 65.0705 lineto
111.7053 67.9133 lineto
closepath stroke
grestore
endpage
showpage
grestore
%%PageTrailer
%%EndPage: 1
%%Trailer
end
restore
%%EOF
