%!PS-Adobe-3.0 EPSF-3.0
%%Creator: graphviz version 2.49.0 (20210828.1703)
%%Title: Service Type Dependencies
%%Pages: 1
%%BoundingBox: 36 36 562 511
%%EndComments
save
%%BeginProlog
/DotDict 200 dict def
DotDict begin

/setupLatin1 {
mark
/EncodingVector 256 array def
 EncodingVector 0

ISOLatin1Encoding 0 255 getinterval putinterval
EncodingVector 45 /hyphen put

% Set up ISO Latin 1 character encoding
/starnetISO {
        dup dup findfont dup length dict begin
        { 1 index /FID ne { def }{ pop pop } ifelse
        } forall
        /Encoding EncodingVector def
        currentdict end definefont
} def
/Times-Roman starnetISO def
/Times-Italic starnetISO def
/Times-Bold starnetISO def
/Times-BoldItalic starnetISO def
/Helvetica starnetISO def
/Helvetica-Oblique starnetISO def
/Helvetica-Bold starnetISO def
/Helvetica-BoldOblique starnetISO def
/Courier starnetISO def
/Courier-Oblique starnetISO def
/Courier-Bold starnetISO def
/Courier-BoldOblique starnetISO def
cleartomark
} bind def

%%BeginResource: procset graphviz 0 0
/coord-font-family /Times-Roman def
/default-font-family /Times-Roman def
/coordfont coord-font-family findfont 8 scalefont def

/InvScaleFactor 1.0 def
/set_scale {
       dup 1 exch div /InvScaleFactor exch def
       scale
} bind def

% styles
/solid { [] 0 setdash } bind def
/dashed { [9 InvScaleFactor mul dup ] 0 setdash } bind def
/dotted { [1 InvScaleFactor mul 6 InvScaleFactor mul] 0 setdash } bind def
/invis {/fill {newpath} def /stroke {newpath} def /show {pop newpath} def} bind def
/bold { 2 setlinewidth } bind def
/filled { } bind def
/unfilled { } bind def
/rounded { } bind def
/diagonals { } bind def
/tapered { } bind def

% hooks for setting color 
/nodecolor { sethsbcolor } bind def
/edgecolor { sethsbcolor } bind def
/graphcolor { sethsbcolor } bind def
/nopcolor {pop pop pop} bind def

/beginpage {	% i j npages
	/npages exch def
	/j exch def
	/i exch def
	/str 10 string def
	npages 1 gt {
		gsave
			coordfont setfont
			0 0 moveto
			(\() show i str cvs show (,) show j str cvs show (\)) show
		grestore
	} if
} bind def

/set_font {
	findfont exch
	scalefont setfont
} def

% draw text fitted to its expected width
/alignedtext {			% width text
	/text exch def
	/width exch def
	gsave
		width 0 gt {
			[] 0 setdash
			text stringwidth pop width exch sub text length div 0 text ashow
		} if
	grestore
} def

/boxprim {				% xcorner ycorner xsize ysize
		4 2 roll
		moveto
		2 copy
		exch 0 rlineto
		0 exch rlineto
		pop neg 0 rlineto
		closepath
} bind def

/ellipse_path {
	/ry exch def
	/rx exch def
	/y exch def
	/x exch def
	matrix currentmatrix
	newpath
	x y translate
	rx ry scale
	0 0 1 0 360 arc
	setmatrix
} bind def

/endpage { showpage } bind def
/showpage { } def

/layercolorseq
	[	% layer color sequence - darkest to lightest
		[0 0 0]
		[.2 .8 .8]
		[.4 .8 .8]
		[.6 .8 .8]
		[.8 .8 .8]
	]
def

/layerlen layercolorseq length def

/setlayer {/maxlayer exch def /curlayer exch def
	layercolorseq curlayer 1 sub layerlen mod get
	aload pop sethsbcolor
	/nodecolor {nopcolor} def
	/edgecolor {nopcolor} def
	/graphcolor {nopcolor} def
} bind def

/onlayer { curlayer ne {invis} if } def

/onlayers {
	/myupper exch def
	/mylower exch def
	curlayer mylower lt
	curlayer myupper gt
	or
	{invis} if
} def

/curlayer 0 def

%%EndResource
%%EndProlog
%%BeginSetup
14 default-font-family set_font
% /arrowlength 10 def
% /arrowwidth 5 def

% make sure pdfmark is harmless for PS-interpreters other than Distiller
/pdfmark where {pop} {userdict /pdfmark /cleartomark load put} ifelse
% make '<<' and '>>' safe on PS Level 1 devices
/languagelevel where {pop languagelevel}{1} ifelse
2 lt {
    userdict (<<) cvn ([) cvn load put
    userdict (>>) cvn ([) cvn load put
} if

%%EndSetup
setupLatin1
%%Page: 1 1
%%PageBoundingBox: 36 36 562 511
%%PageOrientation: Portrait
0 0 1 beginpage
gsave
36 36 526 475 boxprim clip newpath
1 1 set_scale 0 rotate 40 40 translate
% shepherd
gsave
1 setlinewidth
0 0 0 nodecolor
newpath 193.3276 213 moveto
134.3276 213 lineto
134.3276 195 lineto
193.3276 195 lineto
closepath stroke
0 0 0 nodecolor
9 /Helvetica set_font
142.3276 201.8 moveto 43 (shepherd) alignedtext
grestore
% boot
gsave
1 setlinewidth
0 0 0 nodecolor
newpath 103.3276 101 moveto
66.3276 101 lineto
66.3276 83 lineto
103.3276 83 lineto
closepath stroke
0 0 0 nodecolor
9 /Helvetica set_font
74.3276 89.8 moveto 21 (boot) alignedtext
grestore
% shepherd->boot
gsave
1 setlinewidth
0 0 0 edgecolor
newpath 157.8897 194.7321 moveto
144.9016 176.6474 113.7633 133.2902 96.628 109.4309 curveto
stroke
0 0 0 edgecolor
newpath 99.2958 107.1456 moveto
90.6196 101.0649 lineto
93.6101 111.2289 lineto
closepath fill
1 setlinewidth
solid
0 0 0 edgecolor
newpath 99.2958 107.1456 moveto
90.6196 101.0649 lineto
93.6101 111.2289 lineto
closepath stroke
grestore
% pam
gsave
1 setlinewidth
0 0 0 nodecolor
newpath 67.3276 297 moveto
30.3276 297 lineto
30.3276 279 lineto
67.3276 279 lineto
closepath stroke
0 0 0 nodecolor
9 /Helvetica set_font
38.3276 285.8 moveto 21 (pam) alignedtext
grestore
% etc
gsave
1 setlinewidth
0 0 0 nodecolor
newpath 70.3276 213 moveto
39.3276 213 lineto
39.3276 195 lineto
70.3276 195 lineto
closepath stroke
0 0 0 nodecolor
9 /Helvetica set_font
47.3276 201.8 moveto 15 (etc) alignedtext
grestore
% pam->etc
gsave
1 setlinewidth
0 0 0 edgecolor
newpath 49.4248 278.8377 moveto
50.3682 265.9443 52.2266 240.5472 53.4977 223.1747 curveto
stroke
0 0 0 edgecolor
newpath 56.9936 223.358 moveto
54.2327 213.1293 lineto
50.0122 222.8471 lineto
closepath fill
1 setlinewidth
solid
0 0 0 edgecolor
newpath 56.9936 223.358 moveto
54.2327 213.1293 lineto
50.0122 222.8471 lineto
closepath stroke
grestore
% activation
gsave
1 setlinewidth
0 0 0 nodecolor
newpath 95.3276 157 moveto
34.3276 157 lineto
34.3276 139 lineto
95.3276 139 lineto
closepath stroke
0 0 0 nodecolor
9 /Helvetica set_font
42.3276 145.8 moveto 45 (activation) alignedtext
grestore
% etc->activation
gsave
1 setlinewidth
0 0 0 edgecolor
newpath 56.3901 194.5625 moveto
57.7483 187.2283 59.7623 176.3523 61.4821 167.0657 curveto
stroke
0 0 0 edgecolor
newpath 64.9293 167.6716 moveto
63.3088 157.2014 lineto
58.0463 166.3969 lineto
closepath fill
1 setlinewidth
solid
0 0 0 edgecolor
newpath 64.9293 167.6716 moveto
63.3088 157.2014 lineto
58.0463 166.3969 lineto
closepath stroke
grestore
% system
gsave
1 setlinewidth
0 0 0 nodecolor
newpath 85.4834 29.9346 moveto
42.8276 40.9686 lineto
.1717 29.9346 lineto
.2116 12.0811 lineto
85.4436 12.0811 lineto
closepath stroke
0 0 0 nodecolor
9 /Helvetica set_font
26.3276 22.8 moveto 33 (system) alignedtext
grestore
% etc->system
gsave
1 setlinewidth
0 0 0 edgecolor
newpath 50.3421 194.9614 moveto
40.1916 175.8143 16.8653 125.9037 23.8276 83 curveto
25.6822 71.571 29.5006 59.3368 33.2312 49.1445 curveto
stroke
0 0 0 edgecolor
newpath 36.526 50.3279 moveto
36.8564 39.7382 lineto
29.9943 47.8105 lineto
closepath fill
1 setlinewidth
solid
0 0 0 edgecolor
newpath 36.526 50.3279 moveto
36.8564 39.7382 lineto
29.9943 47.8105 lineto
closepath stroke
grestore
% profile
gsave
1 setlinewidth
0 0 0 nodecolor
newpath 64.8276 101 moveto
20.8276 101 lineto
20.8276 83 lineto
64.8276 83 lineto
closepath stroke
0 0 0 nodecolor
9 /Helvetica set_font
28.8276 89.8 moveto 28 (profile) alignedtext
grestore
% profile->system
gsave
1 setlinewidth
0 0 0 edgecolor
newpath 42.8276 82.7677 moveto
42.8276 74.7942 42.8276 62.2931 42.8276 51.0495 curveto
stroke
0 0 0 edgecolor
newpath 46.3277 50.8435 moveto
42.8276 40.8436 lineto
39.3277 50.8436 lineto
closepath fill
1 setlinewidth
solid
0 0 0 edgecolor
newpath 46.3277 50.8435 moveto
42.8276 40.8436 lineto
39.3277 50.8436 lineto
closepath stroke
grestore
% accounts
gsave
1 setlinewidth
0 0 0 nodecolor
newpath 126.8276 297 moveto
68.8276 297 lineto
68.8276 279 lineto
126.8276 279 lineto
closepath stroke
0 0 0 nodecolor
9 /Helvetica set_font
76.8276 285.8 moveto 42 (accounts) alignedtext
grestore
% accounts->etc
gsave
1 setlinewidth
0 0 0 edgecolor
newpath 93.5474 278.8377 moveto
86.6574 265.6987 72.9585 239.5752 63.8423 222.1908 curveto
stroke
0 0 0 edgecolor
newpath 66.8343 220.36 moveto
59.0905 213.1293 lineto
60.635 223.6109 lineto
closepath fill
1 setlinewidth
solid
0 0 0 edgecolor
newpath 66.8343 220.36 moveto
59.0905 213.1293 lineto
60.635 223.6109 lineto
closepath stroke
grestore
% accounts->activation
gsave
1 setlinewidth
0 0 0 edgecolor
newpath 95.8621 278.7807 moveto
90.6453 256.9651 76.3557 197.2085 69.1308 166.9955 curveto
stroke
0 0 0 edgecolor
newpath 72.4712 165.9151 moveto
66.7414 157.0033 lineto
65.6632 167.5431 lineto
closepath fill
1 setlinewidth
solid
0 0 0 edgecolor
newpath 72.4712 165.9151 moveto
66.7414 157.0033 lineto
65.6632 167.5431 lineto
closepath stroke
grestore
% activation->boot
gsave
1 setlinewidth
0 0 0 edgecolor
newpath 67.9526 138.5625 moveto
70.6985 131.1486 74.7848 120.1155 78.2485 110.7634 curveto
stroke
0 0 0 edgecolor
newpath 81.5989 111.7946 moveto
81.79 101.2014 lineto
75.0347 109.3633 lineto
closepath fill
1 setlinewidth
solid
0 0 0 edgecolor
newpath 81.5989 111.7946 moveto
81.79 101.2014 lineto
75.0347 109.3633 lineto
closepath stroke
grestore
% boot->system
gsave
1 setlinewidth
0 0 0 edgecolor
newpath 79.5082 82.7677 moveto
73.8091 73.9477 64.5303 59.5875 56.7313 47.5176 curveto
stroke
0 0 0 edgecolor
newpath 59.5064 45.3634 moveto
51.1395 38.8637 lineto
53.627 49.1625 lineto
closepath fill
1 setlinewidth
solid
0 0 0 edgecolor
newpath 59.5064 45.3634 moveto
51.1395 38.8637 lineto
53.627 49.1625 lineto
closepath stroke
grestore
% lshd
gsave
1 setlinewidth
0 0 0 nodecolor
110.8276 356 25.4118 12.96 ellipse_path stroke
0 0 0 nodecolor
9 /Times-Roman set_font
100.8276 353.8 moveto 20 (lshd) alignedtext
grestore
% lshd->shepherd
gsave
1 setlinewidth
0 0 0 edgecolor
newpath 119.3198 343.7599 moveto
123.5614 337.7161 128.4874 329.9841 131.8276 322.5 curveto
146.7857 288.9848 156.1718 246.8941 160.6647 223.2689 curveto
stroke
0 0 0 edgecolor
newpath 164.1368 223.7375 moveto
162.4802 213.2729 lineto
157.2494 222.4865 lineto
closepath fill
1 setlinewidth
solid
0 0 0 edgecolor
newpath 164.1368 223.7375 moveto
162.4802 213.2729 lineto
157.2494 222.4865 lineto
closepath stroke
grestore
% lshd->pam
gsave
1 setlinewidth
0 0 0 edgecolor
newpath 100.5895 344.1014 moveto
90.5293 333.3921 75.07 316.9355 63.664 304.7936 curveto
stroke
0 0 0 edgecolor
newpath 65.9289 302.0927 moveto
56.5311 297.2006 lineto
60.8269 306.8855 lineto
closepath fill
1 setlinewidth
solid
0 0 0 edgecolor
newpath 65.9289 302.0927 moveto
56.5311 297.2006 lineto
60.8269 306.8855 lineto
closepath stroke
grestore
% udev
gsave
1 setlinewidth
0 0 0 nodecolor
304.8276 288 27.6545 12.96 ellipse_path stroke
0 0 0 nodecolor
9 /Times-Roman set_font
293.3276 285.8 moveto 23 (udev) alignedtext
grestore
% udev->shepherd
gsave
1 setlinewidth
0 0 0 edgecolor
newpath 288.6531 277.5936 moveto
263.5671 263.0046 215.1962 234.874 186.5931 218.2395 curveto
stroke
0 0 0 edgecolor
newpath 188.1169 215.0769 moveto
177.7129 213.0751 lineto
184.5978 221.128 lineto
closepath fill
1 setlinewidth
solid
0 0 0 edgecolor
newpath 188.1169 215.0769 moveto
177.7129 213.0751 lineto
184.5978 221.128 lineto
closepath stroke
grestore
% nscd
gsave
1 setlinewidth
0 0 0 nodecolor
417.8276 288 26.7407 12.96 ellipse_path stroke
0 0 0 nodecolor
9 /Times-Roman set_font
406.8276 285.8 moveto 22 (nscd) alignedtext
grestore
% nscd->shepherd
gsave
1 setlinewidth
0 0 0 edgecolor
newpath 396.6086 280.1498 moveto
352.8119 266.0107 252.0426 233.4789 198.5915 216.223 curveto
stroke
0 0 0 edgecolor
newpath 199.4662 212.8276 moveto
188.8745 213.086 lineto
197.3156 219.489 lineto
closepath fill
1 setlinewidth
solid
0 0 0 edgecolor
newpath 199.4662 212.8276 moveto
188.8745 213.086 lineto
197.3156 219.489 lineto
closepath stroke
0 0 0 edgecolor
14 /Times-Roman set_font
298.8276 239.3 moveto 57 (extends) alignedtext
grestore
% nss-mdns
gsave
1 setlinewidth
0 0 0 nodecolor
475.8276 356 41.9398 12.96 ellipse_path stroke
0 0 0 nodecolor
9 /Times-Roman set_font
454.3276 353.8 moveto 43 (nss-mdns) alignedtext
grestore
% nss-mdns->nscd
gsave
1 setlinewidth
0 0 0 edgecolor
newpath 465.7247 343.5037 moveto
457.054 333.6369 444.3911 319.2275 434.263 307.7024 curveto
stroke
0 0 0 edgecolor
newpath 436.6598 305.1276 moveto
427.4295 299.9263 lineto
431.4016 309.7484 lineto
closepath fill
1 setlinewidth
solid
0 0 0 edgecolor
newpath 436.6598 305.1276 moveto
427.4295 299.9263 lineto
431.4016 309.7484 lineto
closepath stroke
grestore
% kvm-rules
gsave
1 setlinewidth
0 0 0 nodecolor
388.8276 356 43.6818 12.96 ellipse_path stroke
0 0 0 nodecolor
9 /Times-Roman set_font
365.8276 353.8 moveto 46 (kvm-rules) alignedtext
grestore
% kvm-rules->udev
gsave
1 setlinewidth
0 0 0 edgecolor
newpath 374.5781 343.804 moveto
361.2291 333.3155 341.1105 317.508 325.9054 305.5611 curveto
stroke
0 0 0 edgecolor
newpath 328.0633 302.8056 moveto
318.0377 299.3794 lineto
323.7386 308.3098 lineto
closepath fill
1 setlinewidth
solid
0 0 0 edgecolor
newpath 328.0633 302.8056 moveto
318.0377 299.3794 lineto
323.7386 308.3098 lineto
closepath stroke
grestore
% colord
gsave
1 setlinewidth
0 0 0 nodecolor
234.8276 356 32.5538 12.96 ellipse_path stroke
0 0 0 nodecolor
9 /Times-Roman set_font
219.8276 353.8 moveto 30 (colord) alignedtext
grestore
% colord->accounts
gsave
1 setlinewidth
0 0 0 edgecolor
newpath 215.4894 345.6838 moveto
191.4466 334.1011 150.3256 314.291 123.6177 301.4245 curveto
stroke
0 0 0 edgecolor
newpath 125.0166 298.2134 moveto
114.4884 297.0264 lineto
121.9784 304.5198 lineto
closepath fill
1 setlinewidth
solid
0 0 0 edgecolor
newpath 125.0166 298.2134 moveto
114.4884 297.0264 lineto
121.9784 304.5198 lineto
closepath stroke
grestore
% colord->udev
gsave
1 setlinewidth
0 0 0 edgecolor
newpath 246.3866 344.1014 moveto
257.1916 333.9139 273.5128 318.5254 286.1633 306.5977 curveto
stroke
0 0 0 edgecolor
newpath 288.6087 309.1025 moveto
293.4836 299.6958 lineto
283.8066 304.0093 lineto
closepath fill
1 setlinewidth
solid
0 0 0 edgecolor
newpath 288.6087 309.1025 moveto
293.4836 299.6958 lineto
283.8066 304.0093 lineto
closepath stroke
grestore
% dbus
gsave
1 setlinewidth
0 0 0 nodecolor
199.8276 288 27.6545 12.96 ellipse_path stroke
0 0 0 nodecolor
9 /Times-Roman set_font
188.3276 285.8 moveto 23 (dbus) alignedtext
grestore
% colord->dbus
gsave
1 setlinewidth
0 0 0 edgecolor
newpath 228.5703 343.2005 moveto
223.643 333.909 216.6535 320.7289 210.8009 309.6925 curveto
stroke
0 0 0 edgecolor
newpath 213.8079 307.8922 moveto
206.0307 300.6973 lineto
207.6237 311.1717 lineto
closepath fill
1 setlinewidth
solid
0 0 0 edgecolor
newpath 213.8079 307.8922 moveto
206.0307 300.6973 lineto
207.6237 311.1717 lineto
closepath stroke
grestore
% dbus->shepherd
gsave
1 setlinewidth
0 0 0 edgecolor
newpath 194.6696 275.2514 moveto
188.6092 261.447 178.4961 238.4116 171.5114 222.5021 curveto
stroke
0 0 0 edgecolor
newpath 174.6721 220.9945 moveto
167.4473 213.245 lineto
168.2625 223.8085 lineto
closepath fill
1 setlinewidth
solid
0 0 0 edgecolor
newpath 174.6721 220.9945 moveto
167.4473 213.245 lineto
168.2625 223.8085 lineto
closepath stroke
grestore
% upower
gsave
1 setlinewidth
0 0 0 nodecolor
304.8276 356 36.125 12.96 ellipse_path stroke
0 0 0 nodecolor
9 /Times-Roman set_font
287.3276 353.8 moveto 35 (upower) alignedtext
grestore
% upower->udev
gsave
1 setlinewidth
0 0 0 edgecolor
newpath 304.8276 343.2005 moveto
304.8276 334.3945 304.8276 322.0956 304.8276 311.4392 curveto
stroke
0 0 0 edgecolor
newpath 308.3277 311.1438 moveto
304.8276 301.1439 lineto
301.3277 311.1439 lineto
closepath fill
1 setlinewidth
solid
0 0 0 edgecolor
newpath 308.3277 311.1438 moveto
304.8276 301.1439 lineto
301.3277 311.1439 lineto
closepath stroke
grestore
% upower->dbus
gsave
1 setlinewidth
0 0 0 edgecolor
newpath 287.9575 344.396 moveto
270.6419 333.5119 243.5354 316.4735 223.955 304.1658 curveto
stroke
0 0 0 edgecolor
newpath 225.6162 301.076 moveto
215.2872 298.7175 lineto
221.8909 307.0025 lineto
closepath fill
1 setlinewidth
solid
0 0 0 edgecolor
newpath 225.6162 301.076 moveto
215.2872 298.7175 lineto
221.8909 307.0025 lineto
closepath stroke
grestore
% polkit
gsave
1 setlinewidth
0 0 0 nodecolor
167.8276 356 30.3115 12.96 ellipse_path stroke
0 0 0 nodecolor
9 /Times-Roman set_font
154.3276 353.8 moveto 27 (polkit) alignedtext
grestore
% polkit->pam
gsave
1 setlinewidth
0 0 0 edgecolor
newpath 150.5239 345.403 moveto
129.9013 333.9652 95.3449 314.7995 72.3195 302.0291 curveto
stroke
0 0 0 edgecolor
newpath 73.9682 298.9413 moveto
63.5256 297.1518 lineto
70.5731 305.0628 lineto
closepath fill
1 setlinewidth
solid
0 0 0 edgecolor
newpath 73.9682 298.9413 moveto
63.5256 297.1518 lineto
70.5731 305.0628 lineto
closepath stroke
grestore
% polkit->dbus
gsave
1 setlinewidth
0 0 0 edgecolor
newpath 173.5485 343.2005 moveto
178.008 334.0029 184.3149 320.9948 189.6324 310.0276 curveto
stroke
0 0 0 edgecolor
newpath 192.9427 311.2225 moveto
194.1561 300.6973 lineto
186.644 308.1685 lineto
closepath fill
1 setlinewidth
solid
0 0 0 edgecolor
newpath 192.9427 311.2225 moveto
194.1561 300.6973 lineto
186.644 308.1685 lineto
closepath stroke
grestore
% elogind
gsave
1 setlinewidth
0 0 0 nodecolor
167.8276 446 36.125 12.96 ellipse_path stroke
0 0 0 nodecolor
9 /Times-Roman set_font
150.3276 443.8 moveto 35 (elogind) alignedtext
grestore
% elogind->pam
gsave
1 setlinewidth
0 0 0 edgecolor
newpath 139.7152 437.9614 moveto
107.8159 428.3012 57.3095 407.5372 34.8276 368.7279 curveto
23.6269 349.3929 31.7402 323.32 39.4966 306.3375 curveto
stroke
0 0 0 edgecolor
newpath 42.7818 307.5918 moveto
44.1041 297.0797 lineto
36.5151 304.4728 lineto
closepath fill
1 setlinewidth
solid
0 0 0 edgecolor
newpath 42.7818 307.5918 moveto
44.1041 297.0797 lineto
36.5151 304.4728 lineto
closepath stroke
grestore
% elogind->udev
gsave
1 setlinewidth
0 0 0 edgecolor
newpath 200.9594 440.8393 moveto
241.2442 433.8092 307.5911 415.434 337.8276 368.7279 curveto
350.3062 349.4523 336.0108 324.6764 322.5298 307.8973 curveto
stroke
0 0 0 edgecolor
newpath 324.8638 305.2418 moveto
315.7005 299.9233 lineto
319.5471 309.7952 lineto
closepath fill
1 setlinewidth
solid
0 0 0 edgecolor
newpath 324.8638 305.2418 moveto
315.7005 299.9233 lineto
319.5471 309.7952 lineto
closepath stroke
grestore
% elogind->dbus
gsave
1 setlinewidth
0 0 0 edgecolor
newpath 179.0864 433.5673 moveto
184.9292 426.8535 191.5216 417.8651 194.8276 408.5 curveto
206.2763 376.0683 205.0034 335.5792 202.6781 311.0353 curveto
stroke
0 0 0 edgecolor
newpath 206.1435 310.5271 moveto
201.5776 300.9666 lineto
199.1849 311.2878 lineto
closepath fill
1 setlinewidth
solid
0 0 0 edgecolor
newpath 206.1435 310.5271 moveto
201.5776 300.9666 lineto
199.1849 311.2878 lineto
closepath stroke
grestore
% elogind->polkit
gsave
1 setlinewidth
0 0 0 edgecolor
newpath 156.1453 433.5869 moveto
147.2263 423.4376 137.1909 408.0008 141.8276 393.5 curveto
143.7706 387.4234 147.1364 381.4947 150.8143 376.2426 curveto
stroke
0 0 0 edgecolor
newpath 153.7389 378.1827 moveto
157.1023 368.1359 lineto
148.2077 373.8924 lineto
closepath fill
1 setlinewidth
solid
0 0 0 edgecolor
newpath 153.7389 378.1827 moveto
157.1023 368.1359 lineto
148.2077 373.8924 lineto
closepath stroke
0 0 0 edgecolor
14 /Times-Roman set_font
141.8276 397.3 moveto 57 (extends) alignedtext
grestore
% guix
gsave
1 setlinewidth
0 0 0 nodecolor
57.8276 356 26.3269 12.96 ellipse_path stroke
0 0 0 nodecolor
9 /Times-Roman set_font
47.3276 353.8 moveto 21 (guix) alignedtext
grestore
% guix->shepherd
gsave
1 setlinewidth
0 0 0 edgecolor
newpath 73.8482 345.6603 moveto
89.0492 336.0838 111.6224 319.9051 125.8276 300.7279 curveto
135.2879 287.9563 149.9339 246.7598 158.0014 222.7753 curveto
stroke
0 0 0 edgecolor
newpath 161.3743 223.7239 moveto
161.2029 213.1305 lineto
154.7307 221.5186 lineto
closepath fill
1 setlinewidth
solid
0 0 0 edgecolor
newpath 161.3743 223.7239 moveto
161.2029 213.1305 lineto
154.7307 221.5186 lineto
closepath stroke
grestore
% guix->accounts
gsave
1 setlinewidth
0 0 0 edgecolor
newpath 64.795 343.5037 moveto
71.0904 333.1164 80.4369 317.6945 87.583 305.9036 curveto
stroke
0 0 0 edgecolor
newpath 90.7629 307.4095 moveto
92.9528 297.0434 lineto
84.7765 303.7813 lineto
closepath fill
1 setlinewidth
solid
0 0 0 edgecolor
newpath 90.7629 307.4095 moveto
92.9528 297.0434 lineto
84.7765 303.7813 lineto
closepath stroke
grestore
% guix->activation
gsave
1 setlinewidth
0 0 0 edgecolor
newpath 50.1501 343.5321 moveto
43.5528 332.94 34.5353 316.5048 30.8276 300.7279 curveto
24.8623 275.3449 31.7123 217.4523 38.8276 195 curveto
42.0895 184.707 47.8482 174.1548 53.1181 165.7576 curveto
stroke
0 0 0 edgecolor
newpath 56.1011 167.5921 moveto
58.7013 157.3213 lineto
50.2637 163.7289 lineto
closepath fill
1 setlinewidth
solid
0 0 0 edgecolor
newpath 56.1011 167.5921 moveto
58.7013 157.3213 lineto
50.2637 163.7289 lineto
closepath stroke
grestore
endpage
showpage
grestore
%%PageTrailer
%%EndPage: 1
%%Trailer
end
restore
%%EOF
