%!PS-Adobe-3.0 EPSF-3.0
%%Creator: graphviz version 2.49.0 (20210828.1703)
%%Title: Guix shepherd-service
%%Pages: 1
%%BoundingBox: 36 36 885 800
%%EndComments
save
%%BeginProlog
/DotDict 200 dict def
DotDict begin

/setupLatin1 {
mark
/EncodingVector 256 array def
 EncodingVector 0

ISOLatin1Encoding 0 255 getinterval putinterval
EncodingVector 45 /hyphen put

% Set up ISO Latin 1 character encoding
/starnetISO {
        dup dup findfont dup length dict begin
        { 1 index /FID ne { def }{ pop pop } ifelse
        } forall
        /Encoding EncodingVector def
        currentdict end definefont
} def
/Times-Roman starnetISO def
/Times-Italic starnetISO def
/Times-Bold starnetISO def
/Times-BoldItalic starnetISO def
/Helvetica starnetISO def
/Helvetica-Oblique starnetISO def
/Helvetica-Bold starnetISO def
/Helvetica-BoldOblique starnetISO def
/Courier starnetISO def
/Courier-Oblique starnetISO def
/Courier-Bold starnetISO def
/Courier-BoldOblique starnetISO def
cleartomark
} bind def

%%BeginResource: procset graphviz 0 0
/coord-font-family /Times-Roman def
/default-font-family /Times-Roman def
/coordfont coord-font-family findfont 8 scalefont def

/InvScaleFactor 1.0 def
/set_scale {
       dup 1 exch div /InvScaleFactor exch def
       scale
} bind def

% styles
/solid { [] 0 setdash } bind def
/dashed { [9 InvScaleFactor mul dup ] 0 setdash } bind def
/dotted { [1 InvScaleFactor mul 6 InvScaleFactor mul] 0 setdash } bind def
/invis {/fill {newpath} def /stroke {newpath} def /show {pop newpath} def} bind def
/bold { 2 setlinewidth } bind def
/filled { } bind def
/unfilled { } bind def
/rounded { } bind def
/diagonals { } bind def
/tapered { } bind def

% hooks for setting color 
/nodecolor { sethsbcolor } bind def
/edgecolor { sethsbcolor } bind def
/graphcolor { sethsbcolor } bind def
/nopcolor {pop pop pop} bind def

/beginpage {	% i j npages
	/npages exch def
	/j exch def
	/i exch def
	/str 10 string def
	npages 1 gt {
		gsave
			coordfont setfont
			0 0 moveto
			(\() show i str cvs show (,) show j str cvs show (\)) show
		grestore
	} if
} bind def

/set_font {
	findfont exch
	scalefont setfont
} def

% draw text fitted to its expected width
/alignedtext {			% width text
	/text exch def
	/width exch def
	gsave
		width 0 gt {
			[] 0 setdash
			text stringwidth pop width exch sub text length div 0 text ashow
		} if
	grestore
} def

/boxprim {				% xcorner ycorner xsize ysize
		4 2 roll
		moveto
		2 copy
		exch 0 rlineto
		0 exch rlineto
		pop neg 0 rlineto
		closepath
} bind def

/ellipse_path {
	/ry exch def
	/rx exch def
	/y exch def
	/x exch def
	matrix currentmatrix
	newpath
	x y translate
	rx ry scale
	0 0 1 0 360 arc
	setmatrix
} bind def

/endpage { showpage } bind def
/showpage { } def

/layercolorseq
	[	% layer color sequence - darkest to lightest
		[0 0 0]
		[.2 .8 .8]
		[.4 .8 .8]
		[.6 .8 .8]
		[.8 .8 .8]
	]
def

/layerlen layercolorseq length def

/setlayer {/maxlayer exch def /curlayer exch def
	layercolorseq curlayer 1 sub layerlen mod get
	aload pop sethsbcolor
	/nodecolor {nopcolor} def
	/edgecolor {nopcolor} def
	/graphcolor {nopcolor} def
} bind def

/onlayer { curlayer ne {invis} if } def

/onlayers {
	/myupper exch def
	/mylower exch def
	curlayer mylower lt
	curlayer myupper gt
	or
	{invis} if
} def

/curlayer 0 def

%%EndResource
%%EndProlog
%%BeginSetup
14 default-font-family set_font
% /arrowlength 10 def
% /arrowwidth 5 def

% make sure pdfmark is harmless for PS-interpreters other than Distiller
/pdfmark where {pop} {userdict /pdfmark /cleartomark load put} ifelse
% make '<<' and '>>' safe on PS Level 1 devices
/languagelevel where {pop languagelevel}{1} ifelse
2 lt {
    userdict (<<) cvn ([) cvn load put
    userdict (>>) cvn ([) cvn load put
} if

%%EndSetup
setupLatin1
%%Page: 1 1
%%PageBoundingBox: 36 36 885 800
%%PageOrientation: Portrait
0 0 1 beginpage
gsave
36 36 849 764 boxprim clip newpath
1 1 set_scale 0 rotate 40 40 translate
% user-file-systems
gsave
1 setlinewidth
0 0 0 nodecolor
newpath 254 226 moveto
162 226 lineto
162 208 lineto
254 208 lineto
closepath stroke
0 0 0 nodecolor
9 /Helvetica set_font
170 214.8 moveto 76 (user-file-systems) alignedtext
grestore
% user-processes
gsave
1 setlinewidth
0 0 0 nodecolor
newpath 377.5 387 moveto
294.5 387 lineto
294.5 369 lineto
377.5 369 lineto
closepath stroke
0 0 0 nodecolor
9 /Helvetica set_font
302.5 375.8 moveto 67 (user-processes) alignedtext
grestore
% user-processes->user-file-systems
gsave
1 setlinewidth
0.49804 1 0.80392 edgecolor
newpath 329.4765 368.8966 moveto
309.3671 343.9169 248.0631 267.7659 221.0348 234.1916 curveto
stroke
0.49804 1 0.80392 edgecolor
newpath 223.6611 231.8725 moveto
214.6639 226.2778 lineto
218.2084 236.2621 lineto
closepath fill
1 setlinewidth
solid
0.49804 1 0.80392 edgecolor
newpath 223.6611 231.8725 moveto
214.6639 226.2778 lineto
218.2084 236.2621 lineto
closepath stroke
grestore
% root-file-system
gsave
1 setlinewidth
0 0 0 nodecolor
newpath 466 65 moveto
380 65 lineto
380 47 lineto
466 47 lineto
closepath stroke
0 0 0 nodecolor
9 /Helvetica set_font
388 53.8 moveto 70 (root-file-system) alignedtext
grestore
% user-processes->root-file-system
gsave
1 setlinewidth
0.49804 1 0.80392 edgecolor
newpath 348.1939 368.9732 moveto
377.2805 348.9954 450.2919 293.7355 477 226 curveto
498.6048 171.207 457.806 103.9786 435.7741 73.4628 curveto
stroke
0.49804 1 0.80392 edgecolor
newpath 438.4138 71.1479 moveto
429.6289 65.2254 lineto
432.8031 75.3336 lineto
closepath fill
1 setlinewidth
solid
0.49804 1 0.80392 edgecolor
newpath 438.4138 71.1479 moveto
429.6289 65.2254 lineto
432.8031 75.3336 lineto
closepath stroke
grestore
% file-system-/dev/pts
gsave
1 setlinewidth
0 0 0 nodecolor
newpath 161 226 moveto
57 226 lineto
57 208 lineto
161 208 lineto
closepath stroke
0 0 0 nodecolor
9 /Helvetica set_font
65 214.8 moveto 88 (file-system-/dev/pts) alignedtext
grestore
% user-processes->file-system-/dev/pts
gsave
1 setlinewidth
0.49804 1 0.80392 edgecolor
newpath 324.431 368.8966 moveto
287.9247 343.3261 174.8658 264.135 128.8191 231.8821 curveto
stroke
0.49804 1 0.80392 edgecolor
newpath 130.7444 228.9575 moveto
120.5458 226.0871 lineto
126.7284 234.6909 lineto
closepath fill
1 setlinewidth
solid
0.49804 1 0.80392 edgecolor
newpath 130.7444 228.9575 moveto
120.5458 226.0871 lineto
126.7284 234.6909 lineto
closepath stroke
grestore
% file-system-/dev/shm
gsave
1 setlinewidth
0 0 0 nodecolor
newpath 365 226 moveto
255 226 lineto
255 208 lineto
365 208 lineto
closepath stroke
0 0 0 nodecolor
9 /Helvetica set_font
263 214.8 moveto 94 (file-system-/dev/shm) alignedtext
grestore
% user-processes->file-system-/dev/shm
gsave
1 setlinewidth
0.49804 1 0.80392 edgecolor
newpath 334.6749 368.8966 moveto
330.6771 344.4484 318.6639 270.9832 313.0074 236.3916 curveto
stroke
0.49804 1 0.80392 edgecolor
newpath 316.4216 235.5819 moveto
311.3536 226.2778 lineto
309.5133 236.7116 lineto
closepath fill
1 setlinewidth
solid
0.49804 1 0.80392 edgecolor
newpath 316.4216 235.5819 moveto
311.3536 226.2778 lineto
309.5133 236.7116 lineto
closepath stroke
grestore
% file-system-/gnu/store
gsave
1 setlinewidth
0 0 0 nodecolor
newpath 480 226 moveto
366 226 lineto
366 208 lineto
480 208 lineto
closepath stroke
0 0 0 nodecolor
9 /Helvetica set_font
374 214.8 moveto 98 (file-system-/gnu/store) alignedtext
grestore
% user-processes->file-system-/gnu/store
gsave
1 setlinewidth
0.49804 1 0.80392 edgecolor
newpath 340.434 368.8966 moveto
353.9857 344.1295 395.0624 269.0583 413.6664 235.058 curveto
stroke
0.49804 1 0.80392 edgecolor
newpath 416.7409 236.7305 moveto
418.4707 226.2778 lineto
410.6001 233.3704 lineto
closepath fill
1 setlinewidth
solid
0.49804 1 0.80392 edgecolor
newpath 416.7409 236.7305 moveto
418.4707 226.2778 lineto
410.6001 233.3704 lineto
closepath stroke
grestore
% nscd
gsave
1 setlinewidth
0 0 0 nodecolor
newpath 89 548 moveto
51 548 lineto
51 530 lineto
89 530 lineto
closepath stroke
0 0 0 nodecolor
9 /Helvetica set_font
59 536.8 moveto 22 (nscd) alignedtext
grestore
% nscd->user-processes
gsave
1 setlinewidth
0.83137 1 1 edgecolor
newpath 83.5567 529.8966 moveto
126.6023 504.1663 260.4777 424.1431 313.7784 392.2829 curveto
stroke
0.83137 1 1 edgecolor
newpath 315.6829 395.2221 moveto
322.4706 387.0871 lineto
312.0914 389.2137 lineto
closepath fill
1 setlinewidth
solid
0.83137 1 1 edgecolor
newpath 315.6829 395.2221 moveto
322.4706 387.0871 lineto
312.0914 389.2137 lineto
closepath stroke
grestore
% guix-daemon
gsave
1 setlinewidth
0 0 0 nodecolor
newpath 166 548 moveto
90 548 lineto
90 530 lineto
166 530 lineto
closepath stroke
0 0 0 nodecolor
9 /Helvetica set_font
98 536.8 moveto 60 (guix-daemon) alignedtext
grestore
% guix-daemon->user-processes
gsave
1 setlinewidth
0.66667 1 1 edgecolor
newpath 138.6007 529.8966 moveto
171.912 504.4327 274.7852 425.794 317.3092 393.2877 curveto
stroke
0.66667 1 1 edgecolor
newpath 319.6015 395.9409 moveto
325.4206 387.0871 lineto
315.3504 390.3796 lineto
closepath fill
1 setlinewidth
solid
0.66667 1 1 edgecolor
newpath 319.6015 395.9409 moveto
325.4206 387.0871 lineto
315.3504 390.3796 lineto
closepath stroke
grestore
% urandom-seed
gsave
1 setlinewidth
0 0 0 nodecolor
newpath 249 548 moveto
167 548 lineto
167 530 lineto
249 530 lineto
closepath stroke
0 0 0 nodecolor
9 /Helvetica set_font
175 536.8 moveto 66 (urandom-seed) alignedtext
grestore
% urandom-seed->user-processes
gsave
1 setlinewidth
0 0 0.41176 edgecolor
newpath 214.5235 529.8966 moveto
234.6329 504.9169 295.9369 428.7659 322.9652 395.1916 curveto
stroke
0 0 0.41176 edgecolor
newpath 325.7916 397.2621 moveto
329.3361 387.2778 lineto
320.3389 392.8725 lineto
closepath fill
1 setlinewidth
solid
0 0 0.41176 edgecolor
newpath 325.7916 397.2621 moveto
329.3361 387.2778 lineto
320.3389 392.8725 lineto
closepath stroke
grestore
% syslogd
gsave
1 setlinewidth
0 0 0 nodecolor
newpath 50 548 moveto
0 548 lineto
0 530 lineto
50 530 lineto
closepath stroke
0 0 0 nodecolor
9 /Helvetica set_font
8 536.8 moveto 34 (syslogd) alignedtext
grestore
% syslogd->user-processes
gsave
1 setlinewidth
0.11765 0.93725 0.72157 edgecolor
newpath 40.8501 529.8966 moveto
91.4904 504.0065 249.6498 423.1469 311.1693 391.6948 curveto
stroke
0.11765 0.93725 0.72157 edgecolor
newpath 312.8712 394.7556 moveto
320.1818 387.0871 lineto
309.6847 388.5229 lineto
closepath fill
1 setlinewidth
solid
0.11765 0.93725 0.72157 edgecolor
newpath 312.8712 394.7556 moveto
320.1818 387.0871 lineto
309.6847 388.5229 lineto
closepath stroke
grestore
% term-tty6
gsave
1 setlinewidth
0 0 0 nodecolor
newpath 562 548 moveto
502 548 lineto
502 530 lineto
562 530 lineto
closepath stroke
0 0 0 nodecolor
9 /Helvetica set_font
510 536.8 moveto 44 (term-tty6) alignedtext
grestore
% term-tty6->user-processes
gsave
1 setlinewidth
0.83137 1 1 edgecolor
newpath 522.0109 529.8966 moveto
490.7597 504.5449 394.5364 426.4862 354.1456 393.7202 curveto
stroke
0.83137 1 1 edgecolor
newpath 356.1751 390.8597 moveto
346.2041 387.2778 lineto
351.7651 396.2959 lineto
closepath fill
1 setlinewidth
solid
0.83137 1 1 edgecolor
newpath 356.1751 390.8597 moveto
346.2041 387.2778 lineto
351.7651 396.2959 lineto
closepath stroke
grestore
% udev
gsave
1 setlinewidth
0 0 0 nodecolor
newpath 494.5 387 moveto
455.5 387 lineto
455.5 369 lineto
494.5 369 lineto
closepath stroke
0 0 0 nodecolor
9 /Helvetica set_font
463.5 375.8 moveto 23 (udev) alignedtext
grestore
% term-tty6->udev
gsave
1 setlinewidth
0.83137 1 1 edgecolor
newpath 529.095 529.8966 moveto
520.2925 505.3421 493.7646 431.3434 481.4323 396.9426 curveto
stroke
0.83137 1 1 edgecolor
newpath 484.6369 395.51 moveto
477.9675 387.2778 lineto
478.0475 397.8723 lineto
closepath fill
1 setlinewidth
solid
0.83137 1 1 edgecolor
newpath 484.6369 395.51 moveto
477.9675 387.2778 lineto
478.0475 397.8723 lineto
closepath stroke
grestore
% host-name
gsave
1 setlinewidth
0 0 0 nodecolor
newpath 562.5 387 moveto
497.5 387 lineto
497.5 369 lineto
562.5 369 lineto
closepath stroke
0 0 0 nodecolor
9 /Helvetica set_font
505.5 375.8 moveto 49 (host-name) alignedtext
grestore
% term-tty6->host-name
gsave
1 setlinewidth
0.83137 1 1 edgecolor
newpath 531.8981 529.8966 moveto
531.5905 505.4484 530.6665 431.9832 530.2313 397.3916 curveto
stroke
0.83137 1 1 edgecolor
newpath 533.7297 397.2329 moveto
530.1041 387.2778 lineto
526.7303 397.321 lineto
closepath fill
1 setlinewidth
solid
0.83137 1 1 edgecolor
newpath 533.7297 397.2329 moveto
530.1041 387.2778 lineto
526.7303 397.321 lineto
closepath stroke
grestore
% term-tty5
gsave
1 setlinewidth
0 0 0 nodecolor
newpath 623 548 moveto
563 548 lineto
563 530 lineto
623 530 lineto
closepath stroke
0 0 0 nodecolor
9 /Helvetica set_font
571 536.8 moveto 44 (term-tty5) alignedtext
grestore
% term-tty5->user-processes
gsave
1 setlinewidth
0 1 1 edgecolor
newpath 579.902 529.8966 moveto
538.3989 504.2196 409.5023 424.4742 357.7906 392.4814 curveto
stroke
0 1 1 edgecolor
newpath 359.4172 389.372 moveto
349.0716 387.0871 lineto
355.7342 395.3249 lineto
closepath fill
1 setlinewidth
solid
0 1 1 edgecolor
newpath 359.4172 389.372 moveto
349.0716 387.0871 lineto
355.7342 395.3249 lineto
closepath stroke
grestore
% term-tty5->udev
gsave
1 setlinewidth
0 1 1 edgecolor
newpath 586.9861 529.8966 moveto
568.5267 505.0232 512.4134 429.413 487.3362 395.6225 curveto
stroke
0 1 1 edgecolor
newpath 489.9134 393.2222 moveto
481.1433 387.2778 lineto
484.2922 397.3938 lineto
closepath fill
1 setlinewidth
solid
0 1 1 edgecolor
newpath 489.9134 393.2222 moveto
481.1433 387.2778 lineto
484.2922 397.3938 lineto
closepath stroke
grestore
% term-tty5->host-name
gsave
1 setlinewidth
0 1 1 edgecolor
newpath 589.7892 529.8966 moveto
580.0601 505.3421 550.7398 431.3434 537.1093 396.9426 curveto
stroke
0 1 1 edgecolor
newpath 540.2175 395.2853 moveto
533.2799 387.2778 lineto
533.7097 397.8639 lineto
closepath fill
1 setlinewidth
solid
0 1 1 edgecolor
newpath 540.2175 395.2853 moveto
533.2799 387.2778 lineto
533.7097 397.8639 lineto
closepath stroke
grestore
% term-tty4
gsave
1 setlinewidth
0 0 0 nodecolor
newpath 684 548 moveto
624 548 lineto
624 530 lineto
684 530 lineto
closepath stroke
0 0 0 nodecolor
9 /Helvetica set_font
632 536.8 moveto 44 (term-tty4) alignedtext
grestore
% term-tty4->user-processes
gsave
1 setlinewidth
0.11765 0.93725 0.72157 edgecolor
newpath 637.7931 529.8966 moveto
586.013 504.0065 424.2938 423.1469 361.3896 391.6948 curveto
stroke
0.11765 0.93725 0.72157 edgecolor
newpath 362.6838 388.4288 moveto
352.1742 387.0871 lineto
359.5532 394.6898 lineto
closepath fill
1 setlinewidth
solid
0.11765 0.93725 0.72157 edgecolor
newpath 362.6838 388.4288 moveto
352.1742 387.0871 lineto
359.5532 394.6898 lineto
closepath stroke
grestore
% term-tty4->udev
gsave
1 setlinewidth
0.11765 0.93725 0.72157 edgecolor
newpath 644.8773 529.8966 moveto
616.3965 504.598 528.8275 426.8132 491.8044 393.9268 curveto
stroke
0.11765 0.93725 0.72157 edgecolor
newpath 494.1198 391.3021 moveto
484.319 387.2778 lineto
489.4711 396.5356 lineto
closepath fill
1 setlinewidth
solid
0.11765 0.93725 0.72157 edgecolor
newpath 494.1198 391.3021 moveto
484.319 387.2778 lineto
489.4711 396.5356 lineto
closepath stroke
grestore
% term-tty4->host-name
gsave
1 setlinewidth
0.11765 0.93725 0.72157 edgecolor
newpath 647.6803 529.8966 moveto
628.1994 504.9169 568.8111 428.7659 542.6274 395.1916 curveto
stroke
0.11765 0.93725 0.72157 edgecolor
newpath 545.3653 393.0109 moveto
536.4556 387.2778 lineto
539.8454 397.3157 lineto
closepath fill
1 setlinewidth
solid
0.11765 0.93725 0.72157 edgecolor
newpath 545.3653 393.0109 moveto
536.4556 387.2778 lineto
539.8454 397.3157 lineto
closepath stroke
grestore
% term-tty3
gsave
1 setlinewidth
0 0 0 nodecolor
newpath 379 548 moveto
319 548 lineto
319 530 lineto
379 530 lineto
closepath stroke
0 0 0 nodecolor
9 /Helvetica set_font
327 536.8 moveto 44 (term-tty3) alignedtext
grestore
% term-tty3->user-processes
gsave
1 setlinewidth
0 0 0.41176 edgecolor
newpath 348.3375 529.8966 moveto
346.3385 505.4484 340.332 431.9832 337.5037 397.3916 curveto
stroke
0 0 0.41176 edgecolor
newpath 340.9801 396.9593 moveto
336.6768 387.2778 lineto
334.0034 397.5298 lineto
closepath fill
1 setlinewidth
solid
0 0 0.41176 edgecolor
newpath 340.9801 396.9593 moveto
336.6768 387.2778 lineto
334.0034 397.5298 lineto
closepath stroke
grestore
% term-tty3->udev
gsave
1 setlinewidth
0 0 0.41176 edgecolor
newpath 355.4216 529.8966 moveto
375.2168 504.9169 435.5629 428.7659 462.1689 395.1916 curveto
stroke
0 0 0.41176 edgecolor
newpath 464.9725 397.2891 moveto
468.4403 387.2778 lineto
459.4863 392.9415 lineto
closepath fill
1 setlinewidth
solid
0 0 0.41176 edgecolor
newpath 464.9725 397.2891 moveto
468.4403 387.2778 lineto
459.4863 392.9415 lineto
closepath stroke
grestore
% term-tty3->host-name
gsave
1 setlinewidth
0 0 0.41176 edgecolor
newpath 358.2247 529.8966 moveto
387.0236 504.598 475.5711 426.8132 513.0078 393.9268 curveto
stroke
0 0 0.41176 edgecolor
newpath 515.3739 396.5071 moveto
520.5769 387.2778 lineto
510.754 391.248 lineto
closepath fill
1 setlinewidth
solid
0 0 0.41176 edgecolor
newpath 515.3739 396.5071 moveto
520.5769 387.2778 lineto
510.754 391.248 lineto
closepath stroke
grestore
% term-tty2
gsave
1 setlinewidth
0 0 0 nodecolor
newpath 440 548 moveto
380 548 lineto
380 530 lineto
440 530 lineto
closepath stroke
0 0 0 nodecolor
9 /Helvetica set_font
388 536.8 moveto 44 (term-tty2) alignedtext
grestore
% term-tty2->user-processes
gsave
1 setlinewidth
0.78039 1 0.82745 edgecolor
newpath 406.2286 529.8966 moveto
394.7513 505.2358 360.0625 430.7018 344.1438 396.4981 curveto
stroke
0.78039 1 0.82745 edgecolor
newpath 347.2453 394.8671 moveto
339.8526 387.2778 lineto
340.8989 397.8208 lineto
closepath fill
1 setlinewidth
solid
0.78039 1 0.82745 edgecolor
newpath 347.2453 394.8671 moveto
339.8526 387.2778 lineto
340.8989 397.8208 lineto
closepath stroke
grestore
% term-tty2->udev
gsave
1 setlinewidth
0.78039 1 0.82745 edgecolor
newpath 413.3127 529.8966 moveto
423.3507 505.3421 453.6017 431.3434 467.665 396.9426 curveto
stroke
0.78039 1 0.82745 edgecolor
newpath 471.0716 397.8586 moveto
471.616 387.2778 lineto
464.5921 395.2097 lineto
closepath fill
1 setlinewidth
solid
0.78039 1 0.82745 edgecolor
newpath 471.0716 397.8586 moveto
471.616 387.2778 lineto
464.5921 395.2097 lineto
closepath stroke
grestore
% term-tty2->host-name
gsave
1 setlinewidth
0.78039 1 0.82745 edgecolor
newpath 416.1158 529.8966 moveto
434.8881 505.0232 491.9524 429.413 517.4547 395.6225 curveto
stroke
0.78039 1 0.82745 edgecolor
newpath 520.5222 397.3681 moveto
523.7526 387.2778 lineto
514.9348 393.1513 lineto
closepath fill
1 setlinewidth
solid
0.78039 1 0.82745 edgecolor
newpath 520.5222 397.3681 moveto
523.7526 387.2778 lineto
514.9348 393.1513 lineto
closepath stroke
grestore
% term-tty1
gsave
1 setlinewidth
0 0 0 nodecolor
newpath 501 548 moveto
441 548 lineto
441 530 lineto
501 530 lineto
closepath stroke
0 0 0 nodecolor
9 /Helvetica set_font
449 536.8 moveto 44 (term-tty1) alignedtext
grestore
% term-tty1->user-processes
gsave
1 setlinewidth
0.078431 0.27059 0.5451 edgecolor
newpath 464.1197 529.8966 moveto
442.9106 504.9169 378.254 428.7659 349.7476 395.1916 curveto
stroke
0.078431 0.27059 0.5451 edgecolor
newpath 352.1687 392.6354 moveto
343.0283 387.2778 lineto
346.8326 397.1661 lineto
closepath fill
1 setlinewidth
solid
0.078431 0.27059 0.5451 edgecolor
newpath 352.1687 392.6354 moveto
343.0283 387.2778 lineto
346.8326 397.1661 lineto
closepath stroke
grestore
% term-tty1->udev
gsave
1 setlinewidth
0.078431 0.27059 0.5451 edgecolor
newpath 471.2039 529.8966 moveto
471.8189 505.4484 473.6671 431.9832 474.5373 397.3916 curveto
stroke
0.078431 0.27059 0.5451 edgecolor
newpath 478.0391 397.3627 moveto
474.7918 387.2778 lineto
471.0413 397.1866 lineto
closepath fill
1 setlinewidth
solid
0.078431 0.27059 0.5451 edgecolor
newpath 478.0391 397.3627 moveto
474.7918 387.2778 lineto
471.0413 397.1866 lineto
closepath stroke
grestore
% term-tty1->host-name
gsave
1 setlinewidth
0.078431 0.27059 0.5451 edgecolor
newpath 474.0069 529.8966 moveto
483.1183 505.3421 510.577 431.3434 523.3421 396.9426 curveto
stroke
0.078431 0.27059 0.5451 edgecolor
newpath 526.7308 397.8708 moveto
526.9284 387.2778 lineto
520.168 395.4355 lineto
closepath fill
1 setlinewidth
solid
0.078431 0.27059 0.5451 edgecolor
newpath 526.7308 397.8708 moveto
526.9284 387.2778 lineto
520.168 395.4355 lineto
closepath stroke
grestore
% networking
gsave
1 setlinewidth
0 0 0 nodecolor
newpath 318 548 moveto
250 548 lineto
250 530 lineto
318 530 lineto
closepath stroke
0 0 0 nodecolor
9 /Helvetica set_font
258 536.8 moveto 52 (networking) alignedtext
grestore
% networking->user-processes
gsave
1 setlinewidth
0 0 0.41176 edgecolor
newpath 286.6502 529.8966 moveto
294.6806 505.3421 318.8814 431.3434 330.132 396.9426 curveto
stroke
0 0 0.41176 edgecolor
newpath 333.5109 397.8704 moveto
333.2928 387.2778 lineto
326.8577 395.6944 lineto
closepath fill
1 setlinewidth
solid
0 0 0.41176 edgecolor
newpath 333.5109 397.8704 moveto
333.2928 387.2778 lineto
326.8577 395.6944 lineto
closepath stroke
grestore
% networking->udev
gsave
1 setlinewidth
0 0 0.41176 edgecolor
newpath 293.7343 529.8966 moveto
324.1244 504.598 417.564 426.8132 457.069 393.9268 curveto
stroke
0 0 0.41176 edgecolor
newpath 459.61 396.3656 moveto
465.0563 387.2778 lineto
455.1315 390.9858 lineto
closepath fill
1 setlinewidth
solid
0 0 0.41176 edgecolor
newpath 459.61 396.3656 moveto
465.0563 387.2778 lineto
455.1315 390.9858 lineto
closepath stroke
grestore
% ssh-daemon
gsave
1 setlinewidth
0 0 0 nodecolor
newpath 147.5 709 moveto
76.5 709 lineto
76.5 691 lineto
147.5 691 lineto
closepath stroke
0 0 0 nodecolor
9 /Helvetica set_font
84.5 697.8 moveto 55 (ssh-daemon) alignedtext
grestore
% ssh-daemon->syslogd
gsave
1 setlinewidth
0.11765 0.93725 0.72157 edgecolor
newpath 107.566 690.8966 moveto
94.0143 666.1295 52.9376 591.0583 34.3336 557.058 curveto
stroke
0.11765 0.93725 0.72157 edgecolor
newpath 37.3999 555.3704 moveto
29.5293 548.2778 lineto
31.2591 558.7305 lineto
closepath fill
1 setlinewidth
solid
0.11765 0.93725 0.72157 edgecolor
newpath 37.3999 555.3704 moveto
29.5293 548.2778 lineto
31.2591 558.7305 lineto
closepath stroke
grestore
% ssh-daemon->networking
gsave
1 setlinewidth
0.11765 0.93725 0.72157 edgecolor
newpath 120.766 690.8966 moveto
148.0179 665.7043 231.5714 588.466 267.4018 555.3437 curveto
stroke
0.11765 0.93725 0.72157 edgecolor
newpath 270.0781 557.636 moveto
275.0454 548.2778 lineto
265.3264 552.4958 lineto
closepath fill
1 setlinewidth
solid
0.11765 0.93725 0.72157 edgecolor
newpath 270.0781 557.636 moveto
275.0454 548.2778 lineto
265.3264 552.4958 lineto
closepath stroke
grestore
% console-font-tty6
gsave
1 setlinewidth
0 0 0 nodecolor
newpath 594.5 709 moveto
501.5 709 lineto
501.5 691 lineto
594.5 691 lineto
closepath stroke
0 0 0 nodecolor
9 /Helvetica set_font
509.5 697.8 moveto 77 (console-font-tty6) alignedtext
grestore
% console-font-tty6->term-tty6
gsave
1 setlinewidth
0.11765 0.93725 0.72157 edgecolor
newpath 547.1846 690.8966 moveto
544.7244 666.4484 537.3316 592.9832 533.8507 558.3916 curveto
stroke
0.11765 0.93725 0.72157 edgecolor
newpath 537.3167 557.8771 moveto
532.833 548.2778 lineto
530.3519 558.578 lineto
closepath fill
1 setlinewidth
solid
0.11765 0.93725 0.72157 edgecolor
newpath 537.3167 557.8771 moveto
532.833 548.2778 lineto
530.3519 558.578 lineto
closepath stroke
grestore
% console-font-tty5
gsave
1 setlinewidth
0 0 0 nodecolor
newpath 688.5 709 moveto
595.5 709 lineto
595.5 691 lineto
688.5 691 lineto
closepath stroke
0 0 0 nodecolor
9 /Helvetica set_font
603.5 697.8 moveto 77 (console-font-tty5) alignedtext
grestore
% console-font-tty5->term-tty5
gsave
1 setlinewidth
0 0 0.41176 edgecolor
newpath 639.5027 690.8966 moveto
631.9356 666.3421 609.131 592.3434 598.5295 557.9426 curveto
stroke
0 0 0.41176 edgecolor
newpath 601.8409 556.8035 moveto
595.551 548.2778 lineto
595.1514 558.8651 lineto
closepath fill
1 setlinewidth
solid
0 0 0.41176 edgecolor
newpath 601.8409 556.8035 moveto
595.551 548.2778 lineto
595.1514 558.8651 lineto
closepath stroke
grestore
% console-font-tty4
gsave
1 setlinewidth
0 0 0 nodecolor
newpath 782.5 709 moveto
689.5 709 lineto
689.5 691 lineto
782.5 691 lineto
closepath stroke
0 0 0 nodecolor
9 /Helvetica set_font
697.5 697.8 moveto 77 (console-font-tty4) alignedtext
grestore
% console-font-tty4->term-tty4
gsave
1 setlinewidth
0.78039 1 0.82745 edgecolor
newpath 731.8209 690.8966 moveto
719.1027 666.2358 680.6638 591.7018 663.0242 557.4981 curveto
stroke
0.78039 1 0.82745 edgecolor
newpath 665.9634 555.5612 moveto
658.269 548.2778 lineto
659.742 558.7697 lineto
closepath fill
1 setlinewidth
solid
0.78039 1 0.82745 edgecolor
newpath 665.9634 555.5612 moveto
658.269 548.2778 lineto
659.742 558.7697 lineto
closepath stroke
grestore
% console-font-tty3
gsave
1 setlinewidth
0 0 0 nodecolor
newpath 312.5 709 moveto
219.5 709 lineto
219.5 691 lineto
312.5 691 lineto
closepath stroke
0 0 0 nodecolor
9 /Helvetica set_font
227.5 697.8 moveto 77 (console-font-tty3) alignedtext
grestore
% console-font-tty3->term-tty3
gsave
1 setlinewidth
0.078431 0.27059 0.5451 edgecolor
newpath 270.2301 690.8966 moveto
283.1033 666.2358 322.011 591.7018 339.8658 557.4981 curveto
stroke
0.078431 0.27059 0.5451 edgecolor
newpath 343.154 558.7623 moveto
344.6789 548.2778 lineto
336.9486 555.523 lineto
closepath fill
1 setlinewidth
solid
0.078431 0.27059 0.5451 edgecolor
newpath 343.154 558.7623 moveto
344.6789 548.2778 lineto
336.9486 555.523 lineto
closepath stroke
grestore
% console-font-tty2
gsave
1 setlinewidth
0 0 0 nodecolor
newpath 406.5 709 moveto
313.5 709 lineto
313.5 691 lineto
406.5 691 lineto
closepath stroke
0 0 0 nodecolor
9 /Helvetica set_font
321.5 697.8 moveto 77 (console-font-tty2) alignedtext
grestore
% console-font-tty2->term-tty2
gsave
1 setlinewidth
0.33333 0.23922 0.73725 edgecolor
newpath 362.5482 690.8966 moveto
370.2698 666.3421 393.5398 592.3434 404.3577 557.9426 curveto
stroke
0.33333 0.23922 0.73725 edgecolor
newpath 407.7358 558.8672 moveto
407.3969 548.2778 lineto
401.0582 556.7673 lineto
closepath fill
1 setlinewidth
solid
0.33333 0.23922 0.73725 edgecolor
newpath 407.7358 558.8672 moveto
407.3969 548.2778 lineto
401.0582 556.7673 lineto
closepath stroke
grestore
% console-font-tty1
gsave
1 setlinewidth
0 0 0 nodecolor
newpath 500.5 709 moveto
407.5 709 lineto
407.5 691 lineto
500.5 691 lineto
closepath stroke
0 0 0 nodecolor
9 /Helvetica set_font
415.5 697.8 moveto 77 (console-font-tty1) alignedtext
grestore
% console-font-tty1->term-tty1
gsave
1 setlinewidth
0.49804 1 0.80392 edgecolor
newpath 454.8664 690.8966 moveto
457.4804 666.4484 465.3351 592.9832 469.0336 558.3916 curveto
stroke
0.49804 1 0.80392 edgecolor
newpath 472.5319 558.5932 moveto
470.115 548.2778 lineto
465.5716 557.849 lineto
closepath fill
1 setlinewidth
solid
0.49804 1 0.80392 edgecolor
newpath 472.5319 558.5932 moveto
470.115 548.2778 lineto
465.5716 557.849 lineto
closepath stroke
grestore
% file-system-/dev/pts->root-file-system
gsave
1 setlinewidth
0.078431 0.27059 0.5451 edgecolor
newpath 125.003 207.8966 moveto
176.1318 182.0065 335.8168 101.1469 397.9298 69.6948 curveto
stroke
0.078431 0.27059 0.5451 edgecolor
newpath 399.6889 72.7272 moveto
407.0292 65.0871 lineto
396.5266 66.4822 lineto
closepath fill
1 setlinewidth
solid
0.078431 0.27059 0.5451 edgecolor
newpath 399.6889 72.7272 moveto
407.0292 65.0871 lineto
396.5266 66.4822 lineto
closepath stroke
grestore
% file-system-/dev/shm->root-file-system
gsave
1 setlinewidth
0.11765 0.93725 0.72157 edgecolor
newpath 315.759 207.8966 moveto
333.4363 183.0232 387.1719 107.413 411.1865 73.6225 curveto
stroke
0.11765 0.93725 0.72157 edgecolor
newpath 414.177 75.4565 moveto
417.1171 65.2778 lineto
408.4711 71.4014 lineto
closepath fill
1 setlinewidth
solid
0.11765 0.93725 0.72157 edgecolor
newpath 414.177 75.4565 moveto
417.1171 65.2778 lineto
408.4711 71.4014 lineto
closepath stroke
grestore
% file-system-/gnu/store->root-file-system
gsave
1 setlinewidth
0.66667 1 1 edgecolor
newpath 423 207.8966 moveto
423 183.4484 423 109.9832 423 75.3916 curveto
stroke
0.66667 1 1 edgecolor
newpath 426.5001 75.2777 moveto
423 65.2778 lineto
419.5001 75.2778 lineto
closepath fill
1 setlinewidth
solid
0.66667 1 1 edgecolor
newpath 426.5001 75.2777 moveto
423 65.2778 lineto
419.5001 75.2778 lineto
closepath stroke
grestore
% udev->root-file-system
gsave
1 setlinewidth
0.33333 0.23922 0.73725 edgecolor
newpath 476.4397 368.818 moveto
480.5117 344.2283 491.117 268.9292 480 208 curveto
470.7681 157.4028 445.472 101.7351 431.8935 74.2791 curveto
stroke
0.33333 0.23922 0.73725 edgecolor
newpath 434.9474 72.5616 moveto
427.3211 65.207 lineto
428.6965 75.7122 lineto
closepath fill
1 setlinewidth
solid
0.33333 0.23922 0.73725 edgecolor
newpath 434.9474 72.5616 moveto
427.3211 65.207 lineto
428.6965 75.7122 lineto
closepath stroke
grestore
% loopback
gsave
1 setlinewidth
0 0 0 nodecolor
newpath 840.5 709 moveto
783.5 709 lineto
783.5 691 lineto
840.5 691 lineto
closepath stroke
0 0 0 nodecolor
9 /Helvetica set_font
791.5 697.8 moveto 41 (loopback) alignedtext
grestore
endpage
showpage
grestore
%%PageTrailer
%%EndPage: 1
%%Trailer
end
restore
%%EOF
